Code/Determine maximum absorption.py/F0000CH1.CSV

Record Length,2.500000e+03,,   0.510800000000,   0.58000,
Sample Interval,2.000000e-05,,   0.510820000000,   0.58000,
Trigger Point,-2.554000000000e+04,,   0.510840000000,   0.58000,
,,,   0.510860000000,   0.58000,
,,,   0.510880000000,   0.58000,
,,,   0.510900000000,   0.58000,
Source,CH1,,   0.510920000000,   0.58000,
Vertical Units,V,,   0.510940000000,   0.58000,
Vertical Scale,5.000000e-02,,   0.510960000000,   0.58000,
Vertical Offset,-3.260000e-01,,   0.510980000000,   0.58000,
Horizontal Units,s,,   0.511000000000,   0.58000,
Horizontal Scale,5.000000e-03,,   0.511020000000,   0.58000,
Pt Fmt,Y,,   0.511040000000,   0.58000,
Yzero,0.000000e+00,,   0.511060000000,   0.58000,
Probe Atten,1.000000e+00,,   0.511080000000,   0.58000,
Model Number,TDS2024B,,   0.511100000000,   0.58000,
Serial Number,C104833,,   0.511120000000,   0.58000,
Firmware Version,FV:v24.02,,   0.511140000000,   0.58000,
,,,0.511160000000,   0.58000,
,,,0.511180000000,   0.58000,
,,,0.511200000000,   0.58000,
,,,0.511220000000,   0.58000,
,,,0.511240000000,   0.58000,
,,,0.511260000000,   0.58000,
,,,0.511280000000,   0.58000,
,,,0.511300000000,   0.58000,
,,,0.511320000000,   0.58000,
,,,0.511340000000,   0.58000,
,,,0.511360000000,   0.58000,
,,,0.511380000000,   0.58000,
,,,0.511400000000,   0.58000,
,,,0.511420000000,   0.58000,
,,,0.511440000000,   0.58000,
,,,0.511460000000,   0.58000,
,,,0.511480000000,   0.58000,
,,,0.511500000000,   0.58000,
,,,0.511520000000,   0.58000,
,,,0.511540000000,   0.58000,
,,,0.511560000000,   0.58000,
,,,0.511580000000,   0.58000,
,,,0.511600000000,   0.58000,
,,,0.511620000000,   0.58000,
,,,0.511640000000,   0.58000,
,,,0.511660000000,   0.58000,
,,,0.511680000000,   0.58000,
,,,0.511700000000,   0.58000,
,,,0.511720000000,   0.58000,
,,,0.511740000000,   0.58000,
,,,0.511760000000,   0.58000,
,,,0.511780000000,   0.58000,
,,,0.511800000000,   0.58000,
,,,0.511820000000,   0.58000,
,,,0.511840000000,   0.58000,
,,,0.511860000000,   0.58000,
,,,0.511880000000,   0.58000,
,,,0.511900000000,   0.58000,
,,,0.511920000000,   0.58000,
,,,0.511940000000,   0.58000,
,,,0.511960000000,   0.58000,
,,,0.511980000000,   0.58000,
,,,0.512000000000,   0.58000,
,,,0.512020000000,   0.58000,
,,,0.512040000000,   0.58000,
,,,0.512060000000,   0.58000,
,,,0.512080000000,   0.58000,
,,,0.512100000000,   0.58000,
,,,0.512120000000,   0.58000,
,,,0.512140000000,   0.58000,
,,,0.512160000000,   0.58000,
,,,0.512180000000,   0.58000,
,,,0.512200000000,   0.58000,
,,,0.512220000000,   0.58000,
,,,0.512240000000,   0.58000,
,,,0.512260000000,   0.58000,
,,,0.512280000000,   0.58000,
,,,0.512300000000,   0.58000,
,,,0.512320000000,   0.58000,
,,,0.512340000000,   0.58000,
,,,0.512360000000,   0.58000,
,,,0.512380000000,   0.58000,
,,,0.512400000000,   0.58000,
,,,0.512420000000,   0.58000,
,,,0.512440000000,   0.58000,
,,,0.512460000000,   0.58000,
,,,0.512480000000,   0.58000,
,,,0.512500000000,   0.58000,
,,,0.512520000000,   0.58000,
,,,0.512540000000,   0.58000,
,,,0.512560000000,   0.58000,
,,,0.512580000000,   0.58000,
,,,0.512600000000,   0.58000,
,,,0.512620000000,   0.58000,
,,,0.512640000000,   0.58000,
,,,0.512660000000,   0.58000,
,,,0.512680000000,   0.58000,
,,,0.512700000000,   0.58000,
,,,0.512720000000,   0.58000,
,,,0.512740000000,   0.58000,
,,,0.512760000000,   0.58000,
,,,0.512780000000,   0.58000,
,,,0.512800000000,   0.58000,
,,,0.512820000000,   0.58000,
,,,0.512840000000,   0.58000,
,,,0.512860000000,   0.58000,
,,,0.512880000000,   0.58000,
,,,0.512900000000,   0.58000,
,,,0.512920000000,   0.58000,
,,,0.512940000000,   0.58000,
,,,0.512960000000,   0.58000,
,,,0.512980000000,   0.58000,
,,,0.513000000000,   0.58000,
,,,0.513020000000,   0.58000,
,,,0.513040000000,   0.58000,
,,,0.513060000000,   0.58000,
,,,0.513080000000,   0.58000,
,,,0.513100000000,   0.58000,
,,,0.513120000000,   0.58000,
,,,0.513140000000,   0.58000,
,,,0.513160000000,   0.58000,
,,,0.513180000000,   0.58000,
,,,0.513200000000,   0.58000,
,,,0.513220000000,   0.58000,
,,,0.513240000000,   0.58000,
,,,0.513260000000,   0.58000,
,,,0.513280000000,   0.58000,
,,,0.513300000000,   0.58000,
,,,0.513320000000,   0.58000,
,,,0.513340000000,   0.58000,
,,,0.513360000000,   0.58000,
,,,0.513380000000,   0.58000,
,,,0.513400000000,   0.58000,
,,,0.513420000000,   0.58000,
,,,0.513440000000,   0.58000,
,,,0.513460000000,   0.58000,
,,,0.513480000000,   0.58000,
,,,0.513500000000,   0.58000,
,,,0.513520000000,   0.58000,
,,,0.513540000000,   0.58000,
,,,0.513560000000,   0.58000,
,,,0.513580000000,   0.58000,
,,,0.513600000000,   0.58000,
,,,0.513620000000,   0.58000,
,,,0.513640000000,   0.58000,
,,,0.513660000000,   0.58000,
,,,0.513680000000,   0.58000,
,,,0.513700000000,   0.58000,
,,,0.513720000000,   0.58000,
,,,0.513740000000,   0.58000,
,,,0.513760000000,   0.58000,
,,,0.513780000000,   0.58000,
,,,0.513800000000,   0.58000,
,,,0.513820000000,   0.58000,
,,,0.513840000000,   0.58000,
,,,0.513860000000,   0.58000,
,,,0.513880000000,   0.58000,
,,,0.513900000000,   0.58000,
,,,0.513920000000,   0.58000,
,,,0.513940000000,   0.58000,
,,,0.513960000000,   0.58000,
,,,0.513980000000,   0.58000,
,,,0.514000000000,   0.58000,
,,,0.514020000000,   0.58000,
,,,0.514040000000,   0.58000,
,,,0.514060000000,   0.58000,
,,,0.514080000000,   0.58000,
,,,0.514100000000,   0.58000,
,,,0.514120000000,   0.58000,
,,,0.514140000000,   0.58000,
,,,0.514160000000,   0.58000,
,,,0.514180000000,   0.58000,
,,,0.514200000000,   0.58000,
,,,0.514220000000,   0.58000,
,,,0.514240000000,   0.58000,
,,,0.514260000000,   0.58000,
,,,0.514280000000,   0.58000,
,,,0.514300000000,   0.58000,
,,,0.514320000000,   0.58000,
,,,0.514340000000,   0.58000,
,,,0.514360000000,   0.58000,
,,,0.514380000000,   0.58000,
,,,0.514400000000,   0.58000,
,,,0.514420000000,   0.58000,
,,,0.514440000000,   0.58000,
,,,0.514460000000,   0.58000,
,,,0.514480000000,   0.58000,
,,,0.514500000000,   0.58000,
,,,0.514520000000,   0.58000,
,,,0.514540000000,   0.58000,
,,,0.514560000000,   0.58000,
,,,0.514580000000,   0.58000,
,,,0.514600000000,   0.58000,
,,,0.514620000000,   0.58000,
,,,0.514640000000,   0.58000,
,,,0.514660000000,   0.58000,
,,,0.514680000000,   0.58000,
,,,0.514700000000,   0.58000,
,,,0.514720000000,   0.58000,
,,,0.514740000000,   0.58000,
,,,0.514760000000,   0.58000,
,,,0.514780000000,   0.58000,
,,,0.514800000000,   0.58000,
,,,0.514820000000,   0.58000,
,,,0.514840000000,   0.58000,
,,,0.514860000000,   0.58000,
,,,0.514880000000,   0.58000,
,,,0.514900000000,   0.58000,
,,,0.514920000000,   0.58000,
,,,0.514940000000,   0.58000,
,,,0.514960000000,   0.58000,
,,,0.514980000000,   0.58000,
,,,0.515000000000,   0.58000,
,,,0.515020000000,   0.58000,
,,,0.515040000000,   0.58000,
,,,0.515060000000,   0.58000,
,,,0.515080000000,   0.58000,
,,,0.515100000000,   0.58000,
,,,0.515120000000,   0.58000,
,,,0.515140000000,   0.58000,
,,,0.515160000000,   0.58000,
,,,0.515180000000,   0.58000,
,,,0.515200000000,   0.58000,
,,,0.515220000000,   0.58000,
,,,0.515240000000,   0.58000,
,,,0.515260000000,   0.58000,
,,,0.515280000000,   0.58000,
,,,0.515300000000,   0.58000,
,,,0.515320000000,   0.58000,
,,,0.515340000000,   0.58000,
,,,0.515360000000,   0.58000,
,,,0.515380000000,   0.58000,
,,,0.515400000000,   0.58000,
,,,0.515420000000,   0.58000,
,,,0.515440000000,   0.58000,
,,,0.515460000000,   0.58000,
,,,0.515480000000,   0.58000,
,,,0.515500000000,   0.58000,
,,,0.515520000000,   0.58000,
,,,0.515540000000,   0.58000,
,,,0.515560000000,   0.58000,
,,,0.515580000000,   0.58000,
,,,0.515600000000,   0.58000,
,,,0.515620000000,   0.58000,
,,,0.515640000000,   0.58000,
,,,0.515660000000,   0.58000,
,,,0.515680000000,   0.58000,
,,,0.515700000000,   0.58000,
,,,0.515720000000,   0.58000,
,,,0.515740000000,   0.58000,
,,,0.515760000000,   0.58000,
,,,0.515780000000,   0.58000,
,,,0.515800000000,   0.58000,
,,,0.515820000000,   0.58000,
,,,0.515840000000,   0.58000,
,,,0.515860000000,   0.58000,
,,,0.515880000000,   0.58000,
,,,0.515900000000,   0.58000,
,,,0.515920000000,   0.58000,
,,,0.515940000000,   0.58000,
,,,0.515960000000,   0.58000,
,,,0.515980000000,   0.58000,
,,,0.516000000000,   0.58000,
,,,0.516020000000,   0.58000,
,,,0.516040000000,   0.58000,
,,,0.516060000000,   0.58000,
,,,0.516080000000,   0.58000,
,,,0.516100000000,   0.58000,
,,,0.516120000000,   0.58000,
,,,0.516140000000,   0.58000,
,,,0.516160000000,   0.58000,
,,,0.516180000000,   0.58000,
,,,0.516200000000,   0.58000,
,,,0.516220000000,   0.58000,
,,,0.516240000000,   0.58000,
,,,0.516260000000,   0.58000,
,,,0.516280000000,   0.58000,
,,,0.516300000000,   0.58000,
,,,0.516320000000,   0.58000,
,,,0.516340000000,   0.58000,
,,,0.516360000000,   0.58000,
,,,0.516380000000,   0.58000,
,,,0.516400000000,   0.58000,
,,,0.516420000000,   0.58000,
,,,0.516440000000,   0.58000,
,,,0.516460000000,   0.58000,
,,,0.516480000000,   0.58000,
,,,0.516500000000,   0.58000,
,,,0.516520000000,   0.58000,
,,,0.516540000000,   0.58000,
,,,0.516560000000,   0.58000,
,,,0.516580000000,   0.58000,
,,,0.516600000000,   0.58000,
,,,0.516620000000,   0.58000,
,,,0.516640000000,   0.58000,
,,,0.516660000000,   0.58000,
,,,0.516680000000,   0.58000,
,,,0.516700000000,   0.58000,
,,,0.516720000000,   0.58000,
,,,0.516740000000,   0.58000,
,,,0.516760000000,   0.58000,
,,,0.516780000000,   0.58000,
,,,0.516800000000,   0.58000,
,,,0.516820000000,   0.58000,
,,,0.516840000000,   0.58000,
,,,0.516860000000,   0.58000,
,,,0.516880000000,   0.58000,
,,,0.516900000000,   0.58000,
,,,0.516920000000,   0.58000,
,,,0.516940000000,   0.58000,
,,,0.516960000000,   0.58000,
,,,0.516980000000,   0.58000,
,,,0.517000000000,   0.58000,
,,,0.517020000000,   0.58000,
,,,0.517040000000,   0.58000,
,,,0.517060000000,   0.58000,
,,,0.517080000000,   0.58000,
,,,0.517100000000,   0.58000,
,,,0.517120000000,   0.58000,
,,,0.517140000000,   0.58000,
,,,0.517160000000,   0.58000,
,,,0.517180000000,   0.58000,
,,,0.517200000000,   0.58000,
,,,0.517220000000,   0.58000,
,,,0.517240000000,   0.58000,
,,,0.517260000000,   0.58000,
,,,0.517280000000,   0.58000,
,,,0.517300000000,   0.58000,
,,,0.517320000000,   0.58000,
,,,0.517340000000,   0.58000,
,,,0.517360000000,   0.58000,
,,,0.517380000000,   0.58000,
,,,0.517400000000,   0.58000,
,,,0.517420000000,   0.58000,
,,,0.517440000000,   0.58000,
,,,0.517460000000,   0.58000,
,,,0.517480000000,   0.58000,
,,,0.517500000000,   0.58000,
,,,0.517520000000,   0.58000,
,,,0.517540000000,   0.58000,
,,,0.517560000000,   0.58000,
,,,0.517580000000,   0.58000,
,,,0.517600000000,   0.58000,
,,,0.517620000000,   0.57800,
,,,0.517640000000,   0.57600,
,,,0.517660000000,   0.58000,
,,,0.517680000000,   0.58000,
,,,0.517700000000,   0.57800,
,,,0.517720000000,   0.58000,
,,,0.517740000000,   0.57600,
,,,0.517760000000,   0.57800,
,,,0.517780000000,   0.57800,
,,,0.517800000000,   0.57800,
,,,0.517820000000,   0.57800,
,,,0.517840000000,   0.57600,
,,,0.517860000000,   0.57800,
,,,0.517880000000,   0.57600,
,,,0.517900000000,   0.57600,
,,,0.517920000000,   0.57400,
,,,0.517940000000,   0.57400,
,,,0.517960000000,   0.57400,
,,,0.517980000000,   0.57400,
,,,0.518000000000,   0.57400,
,,,0.518020000000,   0.57400,
,,,0.518040000000,   0.57400,
,,,0.518060000000,   0.57200,
,,,0.518080000000,   0.57400,
,,,0.518100000000,   0.57400,
,,,0.518120000000,   0.57400,
,,,0.518140000000,   0.57200,
,,,0.518160000000,   0.57400,
,,,0.518180000000,   0.57400,
,,,0.518200000000,   0.57000,
,,,0.518220000000,   0.57200,
,,,0.518240000000,   0.57400,
,,,0.518260000000,   0.57000,
,,,0.518280000000,   0.57200,
,,,0.518300000000,   0.56800,
,,,0.518320000000,   0.57200,
,,,0.518340000000,   0.57000,
,,,0.518360000000,   0.57000,
,,,0.518380000000,   0.56800,
,,,0.518400000000,   0.57000,
,,,0.518420000000,   0.57000,
,,,0.518440000000,   0.56800,
,,,0.518460000000,   0.56800,
,,,0.518480000000,   0.56800,
,,,0.518500000000,   0.56800,
,,,0.518520000000,   0.56600,
,,,0.518540000000,   0.56600,
,,,0.518560000000,   0.56600,
,,,0.518580000000,   0.56600,
,,,0.518600000000,   0.56600,
,,,0.518620000000,   0.56600,
,,,0.518640000000,   0.56800,
,,,0.518660000000,   0.56400,
,,,0.518680000000,   0.56600,
,,,0.518700000000,   0.56600,
,,,0.518720000000,   0.56400,
,,,0.518740000000,   0.56400,
,,,0.518760000000,   0.56400,
,,,0.518780000000,   0.56400,
,,,0.518800000000,   0.56400,
,,,0.518820000000,   0.56600,
,,,0.518840000000,   0.56600,
,,,0.518860000000,   0.56400,
,,,0.518880000000,   0.56400,
,,,0.518900000000,   0.56200,
,,,0.518920000000,   0.56200,
,,,0.518940000000,   0.56200,
,,,0.518960000000,   0.56200,
,,,0.518980000000,   0.56200,
,,,0.519000000000,   0.56200,
,,,0.519020000000,   0.56200,
,,,0.519040000000,   0.56000,
,,,0.519060000000,   0.56200,
,,,0.519080000000,   0.56000,
,,,0.519100000000,   0.56000,
,,,0.519120000000,   0.56000,
,,,0.519140000000,   0.56000,
,,,0.519160000000,   0.56200,
,,,0.519180000000,   0.56000,
,,,0.519200000000,   0.55800,
,,,0.519220000000,   0.55800,
,,,0.519240000000,   0.56000,
,,,0.519260000000,   0.56200,
,,,0.519280000000,   0.56000,
,,,0.519300000000,   0.55800,
,,,0.519320000000,   0.55800,
,,,0.519340000000,   0.55800,
,,,0.519360000000,   0.55800,
,,,0.519380000000,   0.55600,
,,,0.519400000000,   0.55600,
,,,0.519420000000,   0.55600,
,,,0.519440000000,   0.55600,
,,,0.519460000000,   0.55600,
,,,0.519480000000,   0.55600,
,,,0.519500000000,   0.55400,
,,,0.519520000000,   0.55600,
,,,0.519540000000,   0.55400,
,,,0.519560000000,   0.55400,
,,,0.519580000000,   0.55200,
,,,0.519600000000,   0.55600,
,,,0.519620000000,   0.55400,
,,,0.519640000000,   0.55400,
,,,0.519660000000,   0.55400,
,,,0.519680000000,   0.55400,
,,,0.519700000000,   0.55400,
,,,0.519720000000,   0.55400,
,,,0.519740000000,   0.55200,
,,,0.519760000000,   0.55200,
,,,0.519780000000,   0.55200,
,,,0.519800000000,   0.55000,
,,,0.519820000000,   0.55000,
,,,0.519840000000,   0.55200,
,,,0.519860000000,   0.55000,
,,,0.519880000000,   0.54800,
,,,0.519900000000,   0.55000,
,,,0.519920000000,   0.55000,
,,,0.519940000000,   0.54800,
,,,0.519960000000,   0.55000,
,,,0.519980000000,   0.55000,
,,,0.520000000000,   0.55000,
,,,0.520020000000,   0.55000,
,,,0.520040000000,   0.54800,
,,,0.520060000000,   0.54800,
,,,0.520080000000,   0.54600,
,,,0.520100000000,   0.54800,
,,,0.520120000000,   0.54600,
,,,0.520140000000,   0.54600,
,,,0.520160000000,   0.54800,
,,,0.520180000000,   0.54600,
,,,0.520200000000,   0.54600,
,,,0.520220000000,   0.54600,
,,,0.520240000000,   0.54600,
,,,0.520260000000,   0.54600,
,,,0.520280000000,   0.54600,
,,,0.520300000000,   0.54600,
,,,0.520320000000,   0.54600,
,,,0.520340000000,   0.54400,
,,,0.520360000000,   0.54400,
,,,0.520380000000,   0.54400,
,,,0.520400000000,   0.54400,
,,,0.520420000000,   0.54200,
,,,0.520440000000,   0.54400,
,,,0.520460000000,   0.54200,
,,,0.520480000000,   0.54200,
,,,0.520500000000,   0.54200,
,,,0.520520000000,   0.54200,
,,,0.520540000000,   0.54200,
,,,0.520560000000,   0.54200,
,,,0.520580000000,   0.54000,
,,,0.520600000000,   0.54200,
,,,0.520620000000,   0.54200,
,,,0.520640000000,   0.54000,
,,,0.520660000000,   0.54000,
,,,0.520680000000,   0.54000,
,,,0.520700000000,   0.54000,
,,,0.520720000000,   0.53800,
,,,0.520740000000,   0.54000,
,,,0.520760000000,   0.53800,
,,,0.520780000000,   0.53800,
,,,0.520800000000,   0.53800,
,,,0.520820000000,   0.53800,
,,,0.520840000000,   0.53800,
,,,0.520860000000,   0.53800,
,,,0.520880000000,   0.53800,
,,,0.520900000000,   0.53800,
,,,0.520920000000,   0.53800,
,,,0.520940000000,   0.53600,
,,,0.520960000000,   0.53600,
,,,0.520980000000,   0.53600,
,,,0.521000000000,   0.53400,
,,,0.521020000000,   0.53600,
,,,0.521040000000,   0.53800,
,,,0.521060000000,   0.53400,
,,,0.521080000000,   0.53600,
,,,0.521100000000,   0.53400,
,,,0.521120000000,   0.53400,
,,,0.521140000000,   0.53400,
,,,0.521160000000,   0.53400,
,,,0.521180000000,   0.53400,
,,,0.521200000000,   0.53400,
,,,0.521220000000,   0.53200,
,,,0.521240000000,   0.53400,
,,,0.521260000000,   0.53400,
,,,0.521280000000,   0.53200,
,,,0.521300000000,   0.53200,
,,,0.521320000000,   0.53200,
,,,0.521340000000,   0.53200,
,,,0.521360000000,   0.53000,
,,,0.521380000000,   0.53000,
,,,0.521400000000,   0.53000,
,,,0.521420000000,   0.53200,
,,,0.521440000000,   0.53200,
,,,0.521460000000,   0.52800,
,,,0.521480000000,   0.52800,
,,,0.521500000000,   0.52800,
,,,0.521520000000,   0.52800,
,,,0.521540000000,   0.52800,
,,,0.521560000000,   0.52600,
,,,0.521580000000,   0.52800,
,,,0.521600000000,   0.52800,
,,,0.521620000000,   0.52600,
,,,0.521640000000,   0.52800,
,,,0.521660000000,   0.52600,
,,,0.521680000000,   0.52800,
,,,0.521700000000,   0.52800,
,,,0.521720000000,   0.52600,
,,,0.521740000000,   0.52600,
,,,0.521760000000,   0.52600,
,,,0.521780000000,   0.52600,
,,,0.521800000000,   0.52400,
,,,0.521820000000,   0.52400,
,,,0.521840000000,   0.52400,
,,,0.521860000000,   0.52400,
,,,0.521880000000,   0.52400,
,,,0.521900000000,   0.52200,
,,,0.521920000000,   0.52400,
,,,0.521940000000,   0.52200,
,,,0.521960000000,   0.52200,
,,,0.521980000000,   0.52200,
,,,0.522000000000,   0.52200,
,,,0.522020000000,   0.52200,
,,,0.522040000000,   0.52200,
,,,0.522060000000,   0.52200,
,,,0.522080000000,   0.52200,
,,,0.522100000000,   0.52200,
,,,0.522120000000,   0.52200,
,,,0.522140000000,   0.52000,
,,,0.522160000000,   0.51800,
,,,0.522180000000,   0.51800,
,,,0.522200000000,   0.52000,
,,,0.522220000000,   0.52000,
,,,0.522240000000,   0.51800,
,,,0.522260000000,   0.51800,
,,,0.522280000000,   0.51800,
,,,0.522300000000,   0.51800,
,,,0.522320000000,   0.51600,
,,,0.522340000000,   0.51600,
,,,0.522360000000,   0.51600,
,,,0.522380000000,   0.51600,
,,,0.522400000000,   0.51800,
,,,0.522420000000,   0.51600,
,,,0.522440000000,   0.51600,
,,,0.522460000000,   0.51600,
,,,0.522480000000,   0.51400,
,,,0.522500000000,   0.51200,
,,,0.522520000000,   0.51400,
,,,0.522540000000,   0.51600,
,,,0.522560000000,   0.51600,
,,,0.522580000000,   0.51200,
,,,0.522600000000,   0.51400,
,,,0.522620000000,   0.51400,
,,,0.522640000000,   0.51200,
,,,0.522660000000,   0.51200,
,,,0.522680000000,   0.51400,
,,,0.522700000000,   0.51000,
,,,0.522720000000,   0.51200,
,,,0.522740000000,   0.51200,
,,,0.522760000000,   0.51200,
,,,0.522780000000,   0.51000,
,,,0.522800000000,   0.51200,
,,,0.522820000000,   0.51200,
,,,0.522840000000,   0.51000,
,,,0.522860000000,   0.51000,
,,,0.522880000000,   0.51000,
,,,0.522900000000,   0.50800,
,,,0.522920000000,   0.51000,
,,,0.522940000000,   0.50800,
,,,0.522960000000,   0.50800,
,,,0.522980000000,   0.51000,
,,,0.523000000000,   0.50800,
,,,0.523020000000,   0.51000,
,,,0.523040000000,   0.50600,
,,,0.523060000000,   0.50800,
,,,0.523080000000,   0.50600,
,,,0.523100000000,   0.50600,
,,,0.523120000000,   0.50800,
,,,0.523140000000,   0.50600,
,,,0.523160000000,   0.50600,
,,,0.523180000000,   0.50600,
,,,0.523200000000,   0.50600,
,,,0.523220000000,   0.50600,
,,,0.523240000000,   0.50600,
,,,0.523260000000,   0.50600,
,,,0.523280000000,   0.50400,
,,,0.523300000000,   0.50600,
,,,0.523320000000,   0.50400,
,,,0.523340000000,   0.50400,
,,,0.523360000000,   0.50400,
,,,0.523380000000,   0.50200,
,,,0.523400000000,   0.50200,
,,,0.523420000000,   0.50200,
,,,0.523440000000,   0.50400,
,,,0.523460000000,   0.50400,
,,,0.523480000000,   0.50000,
,,,0.523500000000,   0.50200,
,,,0.523520000000,   0.50200,
,,,0.523540000000,   0.50200,
,,,0.523560000000,   0.50200,
,,,0.523580000000,   0.50200,
,,,0.523600000000,   0.50200,
,,,0.523620000000,   0.50000,
,,,0.523640000000,   0.50000,
,,,0.523660000000,   0.50000,
,,,0.523680000000,   0.49800,
,,,0.523700000000,   0.49800,
,,,0.523720000000,   0.50000,
,,,0.523740000000,   0.49800,
,,,0.523760000000,   0.49800,
,,,0.523780000000,   0.49800,
,,,0.523800000000,   0.49800,
,,,0.523820000000,   0.49600,
,,,0.523840000000,   0.49800,
,,,0.523860000000,   0.49600,
