Measurements/8-6/Overview dip/F0002CH1.CSV

Record Length,2.500000e+03,,   0.317400000000,   0.11640,
Sample Interval,2.000000e-05,,   0.317420000000,   0.11640,
Trigger Point,-1.587000000000e+04,,   0.317440000000,   0.11640,
,,,   0.317460000000,   0.11640,
,,,   0.317480000000,   0.11640,
,,,   0.317500000000,   0.11640,
Source,CH1,,   0.317520000000,   0.11640,
Vertical Units,V,,   0.317540000000,   0.11640,
Vertical Scale,1.000000e-02,,   0.317560000000,   0.11640,
Vertical Offset,-6.560000e-02,,   0.317580000000,   0.11640,
Horizontal Units,s,,   0.317600000000,   0.11640,
Horizontal Scale,5.000000e-03,,   0.317620000000,   0.11640,
Pt Fmt,Y,,   0.317640000000,   0.11640,
Yzero,0.000000e+00,,   0.317660000000,   0.11640,
Probe Atten,1.000000e+00,,   0.317680000000,   0.11640,
Model Number,TDS2024B,,   0.317700000000,   0.11640,
Serial Number,C104833,,   0.317720000000,   0.11640,
Firmware Version,FV:v24.02,,   0.317740000000,   0.11640,
,,,0.317760000000,   0.11640,
,,,0.317780000000,   0.11640,
,,,0.317800000000,   0.11640,
,,,0.317820000000,   0.11640,
,,,0.317840000000,   0.11640,
,,,0.317860000000,   0.11640,
,,,0.317880000000,   0.11640,
,,,0.317900000000,   0.11640,
,,,0.317920000000,   0.11640,
,,,0.317940000000,   0.11640,
,,,0.317960000000,   0.11640,
,,,0.317980000000,   0.11640,
,,,0.318000000000,   0.11640,
,,,0.318020000000,   0.11640,
,,,0.318040000000,   0.11640,
,,,0.318060000000,   0.11640,
,,,0.318080000000,   0.11640,
,,,0.318100000000,   0.11640,
,,,0.318120000000,   0.11640,
,,,0.318140000000,   0.11640,
,,,0.318160000000,   0.11640,
,,,0.318180000000,   0.11640,
,,,0.318200000000,   0.11640,
,,,0.318220000000,   0.11640,
,,,0.318240000000,   0.11640,
,,,0.318260000000,   0.11640,
,,,0.318280000000,   0.11640,
,,,0.318300000000,   0.11640,
,,,0.318320000000,   0.11640,
,,,0.318340000000,   0.11600,
,,,0.318360000000,   0.11640,
,,,0.318380000000,   0.11640,
,,,0.318400000000,   0.11640,
,,,0.318420000000,   0.11640,
,,,0.318440000000,   0.11640,
,,,0.318460000000,   0.11640,
,,,0.318480000000,   0.11640,
,,,0.318500000000,   0.11640,
,,,0.318520000000,   0.11640,
,,,0.318540000000,   0.11640,
,,,0.318560000000,   0.11640,
,,,0.318580000000,   0.11640,
,,,0.318600000000,   0.11640,
,,,0.318620000000,   0.11640,
,,,0.318640000000,   0.11640,
,,,0.318660000000,   0.11640,
,,,0.318680000000,   0.11640,
,,,0.318700000000,   0.11640,
,,,0.318720000000,   0.11640,
,,,0.318740000000,   0.11640,
,,,0.318760000000,   0.11640,
,,,0.318780000000,   0.11640,
,,,0.318800000000,   0.11640,
,,,0.318820000000,   0.11640,
,,,0.318840000000,   0.11640,
,,,0.318860000000,   0.11640,
,,,0.318880000000,   0.11640,
,,,0.318900000000,   0.11600,
,,,0.318920000000,   0.11560,
,,,0.318940000000,   0.11640,
,,,0.318960000000,   0.11640,
,,,0.318980000000,   0.11640,
,,,0.319000000000,   0.11640,
,,,0.319020000000,   0.11640,
,,,0.319040000000,   0.11640,
,,,0.319060000000,   0.11640,
,,,0.319080000000,   0.11560,
,,,0.319100000000,   0.11600,
,,,0.319120000000,   0.11640,
,,,0.319140000000,   0.11600,
,,,0.319160000000,   0.11640,
,,,0.319180000000,   0.11640,
,,,0.319200000000,   0.11520,
,,,0.319220000000,   0.11640,
,,,0.319240000000,   0.11560,
,,,0.319260000000,   0.11560,
,,,0.319280000000,   0.11560,
,,,0.319300000000,   0.11560,
,,,0.319320000000,   0.11600,
,,,0.319340000000,   0.11600,
,,,0.319360000000,   0.11640,
,,,0.319380000000,   0.11600,
,,,0.319400000000,   0.11520,
,,,0.319420000000,   0.11520,
,,,0.319440000000,   0.11520,
,,,0.319460000000,   0.11520,
,,,0.319480000000,   0.11560,
,,,0.319500000000,   0.11480,
,,,0.319520000000,   0.11640,
,,,0.319540000000,   0.11520,
,,,0.319560000000,   0.11560,
,,,0.319580000000,   0.11560,
,,,0.319600000000,   0.11520,
,,,0.319620000000,   0.11560,
,,,0.319640000000,   0.11560,
,,,0.319660000000,   0.11520,
,,,0.319680000000,   0.11560,
,,,0.319700000000,   0.11400,
,,,0.319720000000,   0.11520,
,,,0.319740000000,   0.11560,
,,,0.319760000000,   0.11480,
,,,0.319780000000,   0.11480,
,,,0.319800000000,   0.11440,
,,,0.319820000000,   0.11440,
,,,0.319840000000,   0.11440,
,,,0.319860000000,   0.11480,
,,,0.319880000000,   0.11520,
,,,0.319900000000,   0.11520,
,,,0.319920000000,   0.11440,
,,,0.319940000000,   0.11480,
,,,0.319960000000,   0.11360,
,,,0.319980000000,   0.11600,
,,,0.320000000000,   0.11440,
,,,0.320020000000,   0.11400,
,,,0.320040000000,   0.11480,
,,,0.320060000000,   0.11520,
,,,0.320080000000,   0.11440,
,,,0.320100000000,   0.11400,
,,,0.320120000000,   0.11400,
,,,0.320140000000,   0.11400,
,,,0.320160000000,   0.11400,
,,,0.320180000000,   0.11440,
,,,0.320200000000,   0.11360,
,,,0.320220000000,   0.11440,
,,,0.320240000000,   0.11480,
,,,0.320260000000,   0.11480,
,,,0.320280000000,   0.11400,
,,,0.320300000000,   0.11360,
,,,0.320320000000,   0.11440,
,,,0.320340000000,   0.11440,
,,,0.320360000000,   0.11320,
,,,0.320380000000,   0.11360,
,,,0.320400000000,   0.11240,
,,,0.320420000000,   0.11360,
,,,0.320440000000,   0.11400,
,,,0.320460000000,   0.11360,
,,,0.320480000000,   0.11440,
,,,0.320500000000,   0.11480,
,,,0.320520000000,   0.11440,
,,,0.320540000000,   0.11360,
,,,0.320560000000,   0.11480,
,,,0.320580000000,   0.11280,
,,,0.320600000000,   0.11360,
,,,0.320620000000,   0.11240,
,,,0.320640000000,   0.11440,
,,,0.320660000000,   0.11360,
,,,0.320680000000,   0.11440,
,,,0.320700000000,   0.11360,
,,,0.320720000000,   0.11400,
,,,0.320740000000,   0.11160,
,,,0.320760000000,   0.11240,
,,,0.320780000000,   0.11360,
,,,0.320800000000,   0.11360,
,,,0.320820000000,   0.11360,
,,,0.320840000000,   0.11360,
,,,0.320860000000,   0.11280,
,,,0.320880000000,   0.11360,
,,,0.320900000000,   0.11320,
,,,0.320920000000,   0.11360,
,,,0.320940000000,   0.11280,
,,,0.320960000000,   0.11280,
,,,0.320980000000,   0.11280,
,,,0.321000000000,   0.11320,
,,,0.321020000000,   0.11240,
,,,0.321040000000,   0.11320,
,,,0.321060000000,   0.11360,
,,,0.321080000000,   0.11240,
,,,0.321100000000,   0.11240,
,,,0.321120000000,   0.11360,
,,,0.321140000000,   0.11240,
,,,0.321160000000,   0.11360,
,,,0.321180000000,   0.11360,
,,,0.321200000000,   0.11240,
,,,0.321220000000,   0.11280,
,,,0.321240000000,   0.11320,
,,,0.321260000000,   0.11200,
,,,0.321280000000,   0.11280,
,,,0.321300000000,   0.11200,
,,,0.321320000000,   0.11320,
,,,0.321340000000,   0.11240,
,,,0.321360000000,   0.11320,
,,,0.321380000000,   0.11240,
,,,0.321400000000,   0.11280,
,,,0.321420000000,   0.11160,
,,,0.321440000000,   0.11280,
,,,0.321460000000,   0.11160,
,,,0.321480000000,   0.11240,
,,,0.321500000000,   0.11160,
,,,0.321520000000,   0.11160,
,,,0.321540000000,   0.11280,
,,,0.321560000000,   0.11160,
,,,0.321580000000,   0.11120,
,,,0.321600000000,   0.11160,
,,,0.321620000000,   0.11240,
,,,0.321640000000,   0.11200,
,,,0.321660000000,   0.11200,
,,,0.321680000000,   0.11200,
,,,0.321700000000,   0.11120,
,,,0.321720000000,   0.11240,
,,,0.321740000000,   0.11120,
,,,0.321760000000,   0.11160,
,,,0.321780000000,   0.11200,
,,,0.321800000000,   0.11160,
,,,0.321820000000,   0.11160,
,,,0.321840000000,   0.11120,
,,,0.321860000000,   0.11080,
,,,0.321880000000,   0.11160,
,,,0.321900000000,   0.11120,
,,,0.321920000000,   0.11120,
,,,0.321940000000,   0.11000,
,,,0.321960000000,   0.11240,
,,,0.321980000000,   0.11200,
,,,0.322000000000,   0.11080,
,,,0.322020000000,   0.11080,
,,,0.322040000000,   0.11040,
,,,0.322060000000,   0.11120,
,,,0.322080000000,   0.11160,
,,,0.322100000000,   0.11120,
,,,0.322120000000,   0.11160,
,,,0.322140000000,   0.11120,
,,,0.322160000000,   0.11080,
,,,0.322180000000,   0.11120,
,,,0.322200000000,   0.11120,
,,,0.322220000000,   0.11040,
,,,0.322240000000,   0.11080,
,,,0.322260000000,   0.11160,
,,,0.322280000000,   0.11120,
,,,0.322300000000,   0.11080,
,,,0.322320000000,   0.11080,
,,,0.322340000000,   0.11000,
,,,0.322360000000,   0.11160,
,,,0.322380000000,   0.11120,
,,,0.322400000000,   0.11120,
,,,0.322420000000,   0.11040,
,,,0.322440000000,   0.11000,
,,,0.322460000000,   0.11120,
,,,0.322480000000,   0.11040,
,,,0.322500000000,   0.11040,
,,,0.322520000000,   0.11040,
,,,0.322540000000,   0.11080,
,,,0.322560000000,   0.11000,
,,,0.322580000000,   0.11080,
,,,0.322600000000,   0.11080,
,,,0.322620000000,   0.11000,
,,,0.322640000000,   0.11080,
,,,0.322660000000,   0.11160,
,,,0.322680000000,   0.11120,
,,,0.322700000000,   0.11000,
,,,0.322720000000,   0.11000,
,,,0.322740000000,   0.11000,
,,,0.322760000000,   0.11000,
,,,0.322780000000,   0.10960,
,,,0.322800000000,   0.10960,
,,,0.322820000000,   0.11040,
,,,0.322840000000,   0.11040,
,,,0.322860000000,   0.11080,
,,,0.322880000000,   0.11000,
,,,0.322900000000,   0.11000,
,,,0.322920000000,   0.10920,
,,,0.322940000000,   0.10920,
,,,0.322960000000,   0.10960,
,,,0.322980000000,   0.10920,
,,,0.323000000000,   0.10920,
,,,0.323020000000,   0.10920,
,,,0.323040000000,   0.10920,
,,,0.323060000000,   0.11040,
,,,0.323080000000,   0.11000,
,,,0.323100000000,   0.10880,
,,,0.323120000000,   0.10960,
,,,0.323140000000,   0.10960,
,,,0.323160000000,   0.11040,
,,,0.323180000000,   0.10920,
,,,0.323200000000,   0.11000,
,,,0.323220000000,   0.10960,
,,,0.323240000000,   0.10920,
,,,0.323260000000,   0.10880,
,,,0.323280000000,   0.10920,
,,,0.323300000000,   0.10920,
,,,0.323320000000,   0.10840,
,,,0.323340000000,   0.11000,
,,,0.323360000000,   0.10960,
,,,0.323380000000,   0.10960,
,,,0.323400000000,   0.10880,
,,,0.323420000000,   0.10840,
,,,0.323440000000,   0.10880,
,,,0.323460000000,   0.10880,
,,,0.323480000000,   0.10800,
,,,0.323500000000,   0.10880,
,,,0.323520000000,   0.10840,
,,,0.323540000000,   0.10800,
,,,0.323560000000,   0.10880,
,,,0.323580000000,   0.10880,
,,,0.323600000000,   0.10880,
,,,0.323620000000,   0.10840,
,,,0.323640000000,   0.10800,
,,,0.323660000000,   0.10880,
,,,0.323680000000,   0.10800,
,,,0.323700000000,   0.10880,
,,,0.323720000000,   0.10840,
,,,0.323740000000,   0.10840,
,,,0.323760000000,   0.10680,
,,,0.323780000000,   0.10880,
,,,0.323800000000,   0.10840,
,,,0.323820000000,   0.10880,
,,,0.323840000000,   0.10920,
,,,0.323860000000,   0.10880,
,,,0.323880000000,   0.10800,
,,,0.323900000000,   0.10880,
,,,0.323920000000,   0.10720,
,,,0.323940000000,   0.10680,
,,,0.323960000000,   0.10760,
,,,0.323980000000,   0.10800,
,,,0.324000000000,   0.10760,
,,,0.324020000000,   0.10760,
,,,0.324040000000,   0.10760,
,,,0.324060000000,   0.10800,
,,,0.324080000000,   0.10760,
,,,0.324100000000,   0.10760,
,,,0.324120000000,   0.10840,
,,,0.324140000000,   0.10840,
,,,0.324160000000,   0.10720,
,,,0.324180000000,   0.10760,
,,,0.324200000000,   0.10800,
,,,0.324220000000,   0.10800,
,,,0.324240000000,   0.10800,
,,,0.324260000000,   0.10760,
,,,0.324280000000,   0.10760,
,,,0.324300000000,   0.10760,
,,,0.324320000000,   0.10720,
,,,0.324340000000,   0.10680,
,,,0.324360000000,   0.10880,
,,,0.324380000000,   0.10720,
,,,0.324400000000,   0.10720,
,,,0.324420000000,   0.10640,
,,,0.324440000000,   0.10680,
,,,0.324460000000,   0.10720,
,,,0.324480000000,   0.10760,
,,,0.324500000000,   0.10760,
,,,0.324520000000,   0.10680,
,,,0.324540000000,   0.10640,
,,,0.324560000000,   0.10760,
,,,0.324580000000,   0.10680,
,,,0.324600000000,   0.10680,
,,,0.324620000000,   0.10720,
,,,0.324640000000,   0.10760,
,,,0.324660000000,   0.10680,
,,,0.324680000000,   0.10640,
,,,0.324700000000,   0.10640,
,,,0.324720000000,   0.10760,
,,,0.324740000000,   0.10640,
,,,0.324760000000,   0.10680,
,,,0.324780000000,   0.10640,
,,,0.324800000000,   0.10680,
,,,0.324820000000,   0.10720,
,,,0.324840000000,   0.10560,
,,,0.324860000000,   0.10640,
,,,0.324880000000,   0.10560,
,,,0.324900000000,   0.10600,
,,,0.324920000000,   0.10560,
,,,0.324940000000,   0.10600,
,,,0.324960000000,   0.10640,
,,,0.324980000000,   0.10640,
,,,0.325000000000,   0.10640,
,,,0.325020000000,   0.10560,
,,,0.325040000000,   0.10680,
,,,0.325060000000,   0.10640,
,,,0.325080000000,   0.10640,
,,,0.325100000000,   0.10640,
,,,0.325120000000,   0.10560,
,,,0.325140000000,   0.10560,
,,,0.325160000000,   0.10560,
,,,0.325180000000,   0.10640,
,,,0.325200000000,   0.10520,
,,,0.325220000000,   0.10480,
,,,0.325240000000,   0.10520,
,,,0.325260000000,   0.10640,
,,,0.325280000000,   0.10520,
,,,0.325300000000,   0.10520,
,,,0.325320000000,   0.10560,
,,,0.325340000000,   0.10560,
,,,0.325360000000,   0.10520,
,,,0.325380000000,   0.10600,
,,,0.325400000000,   0.10480,
,,,0.325420000000,   0.10440,
,,,0.325440000000,   0.10400,
,,,0.325460000000,   0.10480,
,,,0.325480000000,   0.10480,
,,,0.325500000000,   0.10440,
,,,0.325520000000,   0.10480,
,,,0.325540000000,   0.10440,
,,,0.325560000000,   0.10480,
,,,0.325580000000,   0.10440,
,,,0.325600000000,   0.10520,
,,,0.325620000000,   0.10480,
,,,0.325640000000,   0.10560,
,,,0.325660000000,   0.10440,
,,,0.325680000000,   0.10440,
,,,0.325700000000,   0.10440,
,,,0.325720000000,   0.10440,
,,,0.325740000000,   0.10480,
,,,0.325760000000,   0.10400,
,,,0.325780000000,   0.10400,
,,,0.325800000000,   0.10440,
,,,0.325820000000,   0.10480,
,,,0.325840000000,   0.10440,
,,,0.325860000000,   0.10400,
,,,0.325880000000,   0.10480,
,,,0.325900000000,   0.10480,
,,,0.325920000000,   0.10400,
,,,0.325940000000,   0.10400,
,,,0.325960000000,   0.10360,
,,,0.325980000000,   0.10440,
,,,0.326000000000,   0.10440,
,,,0.326020000000,   0.10440,
,,,0.326040000000,   0.10360,
,,,0.326060000000,   0.10400,
,,,0.326080000000,   0.10440,
,,,0.326100000000,   0.10400,
,,,0.326120000000,   0.10360,
,,,0.326140000000,   0.10440,
,,,0.326160000000,   0.10360,
,,,0.326180000000,   0.10440,
,,,0.326200000000,   0.10400,
,,,0.326220000000,   0.10320,
,,,0.326240000000,   0.10400,
,,,0.326260000000,   0.10440,
,,,0.326280000000,   0.10440,
,,,0.326300000000,   0.10280,
,,,0.326320000000,   0.10280,
,,,0.326340000000,   0.10280,
,,,0.326360000000,   0.10320,
,,,0.326380000000,   0.10400,
,,,0.326400000000,   0.10360,
,,,0.326420000000,   0.10360,
,,,0.326440000000,   0.10200,
,,,0.326460000000,   0.10360,
,,,0.326480000000,   0.10400,
,,,0.326500000000,   0.10280,
,,,0.326520000000,   0.10200,
,,,0.326540000000,   0.10240,
,,,0.326560000000,   0.10280,
,,,0.326580000000,   0.10280,
,,,0.326600000000,   0.10280,
,,,0.326620000000,   0.10280,
,,,0.326640000000,   0.10280,
,,,0.326660000000,   0.10280,
,,,0.326680000000,   0.10200,
,,,0.326700000000,   0.10200,
,,,0.326720000000,   0.10200,
,,,0.326740000000,   0.10320,
,,,0.326760000000,   0.10200,
,,,0.326780000000,   0.10160,
,,,0.326800000000,   0.10280,
,,,0.326820000000,   0.10200,
,,,0.326840000000,   0.10240,
,,,0.326860000000,   0.10120,
,,,0.326880000000,   0.10160,
,,,0.326900000000,   0.10200,
,,,0.326920000000,   0.10280,
,,,0.326940000000,   0.10120,
,,,0.326960000000,   0.10120,
,,,0.326980000000,   0.10200,
,,,0.327000000000,   0.10200,
,,,0.327020000000,   0.10200,
,,,0.327040000000,   0.10240,
,,,0.327060000000,   0.10120,
,,,0.327080000000,   0.10160,
,,,0.327100000000,   0.10120,
,,,0.327120000000,   0.10120,
,,,0.327140000000,   0.10120,
,,,0.327160000000,   0.10160,
,,,0.327180000000,   0.10120,
,,,0.327200000000,   0.10080,
,,,0.327220000000,   0.10200,
,,,0.327240000000,   0.10040,
,,,0.327260000000,   0.10120,
,,,0.327280000000,   0.10120,
,,,0.327300000000,   0.10080,
,,,0.327320000000,   0.10080,
,,,0.327340000000,   0.10080,
,,,0.327360000000,   0.10160,
,,,0.327380000000,   0.10080,
,,,0.327400000000,   0.10080,
,,,0.327420000000,   0.10040,
,,,0.327440000000,   0.10080,
,,,0.327460000000,   0.09920,
,,,0.327480000000,   0.10080,
,,,0.327500000000,   0.10040,
,,,0.327520000000,   0.09960,
,,,0.327540000000,   0.10000,
,,,0.327560000000,   0.10040,
,,,0.327580000000,   0.10040,
,,,0.327600000000,   0.09960,
,,,0.327620000000,   0.09960,
,,,0.327640000000,   0.10000,
,,,0.327660000000,   0.10000,
,,,0.327680000000,   0.10000,
,,,0.327700000000,   0.10040,
,,,0.327720000000,   0.10000,
,,,0.327740000000,   0.09920,
,,,0.327760000000,   0.09960,
,,,0.327780000000,   0.09840,
,,,0.327800000000,   0.09920,
,,,0.327820000000,   0.09880,
,,,0.327840000000,   0.09960,
,,,0.327860000000,   0.09800,
,,,0.327880000000,   0.09840,
,,,0.327900000000,   0.09800,
,,,0.327920000000,   0.09800,
,,,0.327940000000,   0.09760,
,,,0.327960000000,   0.09840,
,,,0.327980000000,   0.09800,
,,,0.328000000000,   0.09840,
,,,0.328020000000,   0.09840,
,,,0.328040000000,   0.09840,
,,,0.328060000000,   0.09880,
,,,0.328080000000,   0.09680,
,,,0.328100000000,   0.09800,
,,,0.328120000000,   0.09760,
,,,0.328140000000,   0.09760,
,,,0.328160000000,   0.09720,
,,,0.328180000000,   0.09720,
,,,0.328200000000,   0.09800,
,,,0.328220000000,   0.09720,
,,,0.328240000000,   0.09760,
,,,0.328260000000,   0.09720,
,,,0.328280000000,   0.09760,
,,,0.328300000000,   0.09720,
,,,0.328320000000,   0.09680,
,,,0.328340000000,   0.09760,
,,,0.328360000000,   0.09640,
,,,0.328380000000,   0.09760,
,,,0.328400000000,   0.09640,
,,,0.328420000000,   0.09800,
,,,0.328440000000,   0.09560,
,,,0.328460000000,   0.09680,
,,,0.328480000000,   0.09560,
,,,0.328500000000,   0.09680,
,,,0.328520000000,   0.09520,
,,,0.328540000000,   0.09600,
,,,0.328560000000,   0.09520,
,,,0.328580000000,   0.09640,
,,,0.328600000000,   0.09600,
,,,0.328620000000,   0.09520,
,,,0.328640000000,   0.09440,
,,,0.328660000000,   0.09600,
,,,0.328680000000,   0.09560,
,,,0.328700000000,   0.09480,
,,,0.328720000000,   0.09560,
,,,0.328740000000,   0.09520,
,,,0.328760000000,   0.09440,
,,,0.328780000000,   0.09440,
,,,0.328800000000,   0.09400,
,,,0.328820000000,   0.09480,
,,,0.328840000000,   0.09480,
,,,0.328860000000,   0.09480,
,,,0.328880000000,   0.09520,
,,,0.328900000000,   0.09320,
,,,0.328920000000,   0.09480,
,,,0.328940000000,   0.09480,
,,,0.328960000000,   0.09400,
,,,0.328980000000,   0.09400,
,,,0.329000000000,   0.09360,
,,,0.329020000000,   0.09320,
,,,0.329040000000,   0.09440,
,,,0.329060000000,   0.09320,
,,,0.329080000000,   0.09360,
,,,0.329100000000,   0.09280,
,,,0.329120000000,   0.09280,
,,,0.329140000000,   0.09320,
,,,0.329160000000,   0.09280,
,,,0.329180000000,   0.09360,
,,,0.329200000000,   0.09240,
,,,0.329220000000,   0.09160,
,,,0.329240000000,   0.09240,
,,,0.329260000000,   0.09280,
,,,0.329280000000,   0.09240,
,,,0.329300000000,   0.09160,
,,,0.329320000000,   0.09320,
,,,0.329340000000,   0.09360,
,,,0.329360000000,   0.09160,
,,,0.329380000000,   0.09080,
,,,0.329400000000,   0.09160,
,,,0.329420000000,   0.09080,
,,,0.329440000000,   0.09120,
,,,0.329460000000,   0.09160,
,,,0.329480000000,   0.09120,
,,,0.329500000000,   0.09080,
,,,0.329520000000,   0.09000,
,,,0.329540000000,   0.09120,
,,,0.329560000000,   0.09000,
,,,0.329580000000,   0.08960,
,,,0.329600000000,   0.09080,
,,,0.329620000000,   0.09040,
,,,0.329640000000,   0.08880,
,,,0.329660000000,   0.09040,
,,,0.329680000000,   0.09160,
,,,0.329700000000,   0.08960,
,,,0.329720000000,   0.08920,
,,,0.329740000000,   0.08920,
,,,0.329760000000,   0.09000,
,,,0.329780000000,   0.08960,
,,,0.329800000000,   0.08880,
,,,0.329820000000,   0.08880,
,,,0.329840000000,   0.08880,
,,,0.329860000000,   0.08840,
,,,0.329880000000,   0.08920,
,,,0.329900000000,   0.08840,
,,,0.329920000000,   0.08800,
,,,0.329940000000,   0.08840,
,,,0.329960000000,   0.08880,
,,,0.329980000000,   0.08800,
,,,0.330000000000,   0.08760,
,,,0.330020000000,   0.08800,
,,,0.330040000000,   0.08760,
,,,0.330060000000,   0.08800,
,,,0.330080000000,   0.08800,
,,,0.330100000000,   0.08800,
,,,0.330120000000,   0.08800,
,,,0.330140000000,   0.08720,
,,,0.330160000000,   0.08800,
,,,0.330180000000,   0.08760,
,,,0.330200000000,   0.08800,
,,,0.330220000000,   0.08720,
,,,0.330240000000,   0.08760,
,,,0.330260000000,   0.08760,
,,,0.330280000000,   0.08760,
,,,0.330300000000,   0.08760,
,,,0.330320000000,   0.08800,
,,,0.330340000000,   0.08640,
,,,0.330360000000,   0.08720,
,,,0.330380000000,   0.08760,
,,,0.330400000000,   0.08760,
,,,0.330420000000,   0.08760,
,,,0.330440000000,   0.08760,
,,,0.330460000000,   0.08800,
