Ex 1.5 -  Doppler Free/Dip 3/s3.CSV

Record Length,2.500000e+03,,   0.448040000000,   0.15400,
Sample Interval,4.000000e-06,,   0.448044000000,   0.15360,
Trigger Point,-1.120100000000e+05,,   0.448048000000,   0.15320,
,,,   0.448052000000,   0.15440,
,,,   0.448056000000,   0.15320,
,,,   0.448060000000,   0.15280,
Source,CH1,,   0.448064000000,   0.15320,
Vertical Units,V,,   0.448068000000,   0.15320,
Vertical Scale,1.000000e-02,,   0.448072000000,   0.15400,
Vertical Offset,-1.392000e-01,,   0.448076000000,   0.15320,
Horizontal Units,s,,   0.448080000000,   0.15320,
Horizontal Scale,1.000000e-03,,   0.448084000000,   0.15360,
Pt Fmt,Y,,   0.448088000000,   0.15320,
Yzero,0.000000e+00,,   0.448092000000,   0.15320,
Probe Atten,1.000000e+00,,   0.448096000000,   0.15400,
Model Number,TDS2024B,,   0.448100000000,   0.15320,
Serial Number,C104833,,   0.448104000000,   0.15360,
Firmware Version,FV:v24.02,,   0.448108000000,   0.15240,
,,,0.448112000000,   0.15240,
,,,0.448116000000,   0.15240,
,,,0.448120000000,   0.15320,
,,,0.448124000000,   0.15280,
,,,0.448128000000,   0.15360,
,,,0.448132000000,   0.15360,
,,,0.448136000000,   0.15200,
,,,0.448140000000,   0.15320,
,,,0.448144000000,   0.15320,
,,,0.448148000000,   0.15280,
,,,0.448152000000,   0.15200,
,,,0.448156000000,   0.15280,
,,,0.448160000000,   0.15200,
,,,0.448164000000,   0.15320,
,,,0.448168000000,   0.15240,
,,,0.448172000000,   0.15320,
,,,0.448176000000,   0.15200,
,,,0.448180000000,   0.15240,
,,,0.448184000000,   0.15240,
,,,0.448188000000,   0.15280,
,,,0.448192000000,   0.15320,
,,,0.448196000000,   0.15160,
,,,0.448200000000,   0.15280,
,,,0.448204000000,   0.15280,
,,,0.448208000000,   0.15240,
,,,0.448212000000,   0.15280,
,,,0.448216000000,   0.15240,
,,,0.448220000000,   0.15200,
,,,0.448224000000,   0.15280,
,,,0.448228000000,   0.15240,
,,,0.448232000000,   0.15240,
,,,0.448236000000,   0.15240,
,,,0.448240000000,   0.15160,
,,,0.448244000000,   0.15280,
,,,0.448248000000,   0.15280,
,,,0.448252000000,   0.15320,
,,,0.448256000000,   0.15320,
,,,0.448260000000,   0.15240,
,,,0.448264000000,   0.15200,
,,,0.448268000000,   0.15280,
,,,0.448272000000,   0.15200,
,,,0.448276000000,   0.15200,
,,,0.448280000000,   0.15240,
,,,0.448284000000,   0.15240,
,,,0.448288000000,   0.15320,
,,,0.448292000000,   0.15280,
,,,0.448296000000,   0.15320,
,,,0.448300000000,   0.15320,
,,,0.448304000000,   0.15320,
,,,0.448308000000,   0.15080,
,,,0.448312000000,   0.15240,
,,,0.448316000000,   0.15200,
,,,0.448320000000,   0.15200,
,,,0.448324000000,   0.15280,
,,,0.448328000000,   0.15240,
,,,0.448332000000,   0.15320,
,,,0.448336000000,   0.15160,
,,,0.448340000000,   0.15160,
,,,0.448344000000,   0.15160,
,,,0.448348000000,   0.15240,
,,,0.448352000000,   0.15120,
,,,0.448356000000,   0.15320,
,,,0.448360000000,   0.15240,
,,,0.448364000000,   0.15240,
,,,0.448368000000,   0.15240,
,,,0.448372000000,   0.15200,
,,,0.448376000000,   0.15200,
,,,0.448380000000,   0.15240,
,,,0.448384000000,   0.15240,
,,,0.448388000000,   0.15200,
,,,0.448392000000,   0.15120,
,,,0.448396000000,   0.15160,
,,,0.448400000000,   0.15120,
,,,0.448404000000,   0.15160,
,,,0.448408000000,   0.15160,
,,,0.448412000000,   0.15240,
,,,0.448416000000,   0.15160,
,,,0.448420000000,   0.15160,
,,,0.448424000000,   0.15120,
,,,0.448428000000,   0.15080,
,,,0.448432000000,   0.15080,
,,,0.448436000000,   0.15120,
,,,0.448440000000,   0.15120,
,,,0.448444000000,   0.15200,
,,,0.448448000000,   0.15120,
,,,0.448452000000,   0.15120,
,,,0.448456000000,   0.15160,
,,,0.448460000000,   0.15080,
,,,0.448464000000,   0.15200,
,,,0.448468000000,   0.15200,
,,,0.448472000000,   0.15200,
,,,0.448476000000,   0.15240,
,,,0.448480000000,   0.15200,
,,,0.448484000000,   0.15240,
,,,0.448488000000,   0.15080,
,,,0.448492000000,   0.15080,
,,,0.448496000000,   0.15200,
,,,0.448500000000,   0.15080,
,,,0.448504000000,   0.15200,
,,,0.448508000000,   0.15200,
,,,0.448512000000,   0.15120,
,,,0.448516000000,   0.15240,
,,,0.448520000000,   0.15240,
,,,0.448524000000,   0.15120,
,,,0.448528000000,   0.15120,
,,,0.448532000000,   0.15120,
,,,0.448536000000,   0.15160,
,,,0.448540000000,   0.15200,
,,,0.448544000000,   0.15120,
,,,0.448548000000,   0.15080,
,,,0.448552000000,   0.15160,
,,,0.448556000000,   0.15160,
,,,0.448560000000,   0.15120,
,,,0.448564000000,   0.15160,
,,,0.448568000000,   0.15080,
,,,0.448572000000,   0.15080,
,,,0.448576000000,   0.15120,
,,,0.448580000000,   0.15120,
,,,0.448584000000,   0.15200,
,,,0.448588000000,   0.15080,
,,,0.448592000000,   0.15120,
,,,0.448596000000,   0.15080,
,,,0.448600000000,   0.15200,
,,,0.448604000000,   0.15040,
,,,0.448608000000,   0.15080,
,,,0.448612000000,   0.15120,
,,,0.448616000000,   0.15000,
,,,0.448620000000,   0.15080,
,,,0.448624000000,   0.15160,
,,,0.448628000000,   0.15080,
,,,0.448632000000,   0.15040,
,,,0.448636000000,   0.15080,
,,,0.448640000000,   0.15080,
,,,0.448644000000,   0.15080,
,,,0.448648000000,   0.15080,
,,,0.448652000000,   0.15120,
,,,0.448656000000,   0.15080,
,,,0.448660000000,   0.15040,
,,,0.448664000000,   0.15040,
,,,0.448668000000,   0.15120,
,,,0.448672000000,   0.15160,
,,,0.448676000000,   0.15200,
,,,0.448680000000,   0.15000,
,,,0.448684000000,   0.15120,
,,,0.448688000000,   0.15120,
,,,0.448692000000,   0.15040,
,,,0.448696000000,   0.15000,
,,,0.448700000000,   0.14960,
,,,0.448704000000,   0.15120,
,,,0.448708000000,   0.15160,
,,,0.448712000000,   0.15040,
,,,0.448716000000,   0.15040,
,,,0.448720000000,   0.15080,
,,,0.448724000000,   0.15120,
,,,0.448728000000,   0.15080,
,,,0.448732000000,   0.15080,
,,,0.448736000000,   0.15080,
,,,0.448740000000,   0.15120,
,,,0.448744000000,   0.15080,
,,,0.448748000000,   0.15080,
,,,0.448752000000,   0.15000,
,,,0.448756000000,   0.15000,
,,,0.448760000000,   0.15080,
,,,0.448764000000,   0.15040,
,,,0.448768000000,   0.15120,
,,,0.448772000000,   0.14960,
,,,0.448776000000,   0.15080,
,,,0.448780000000,   0.15000,
,,,0.448784000000,   0.15080,
,,,0.448788000000,   0.14960,
,,,0.448792000000,   0.15000,
,,,0.448796000000,   0.15040,
,,,0.448800000000,   0.15080,
,,,0.448804000000,   0.15080,
,,,0.448808000000,   0.15040,
,,,0.448812000000,   0.15000,
,,,0.448816000000,   0.15080,
,,,0.448820000000,   0.15080,
,,,0.448824000000,   0.14960,
,,,0.448828000000,   0.15000,
,,,0.448832000000,   0.15040,
,,,0.448836000000,   0.14960,
,,,0.448840000000,   0.15040,
,,,0.448844000000,   0.15000,
,,,0.448848000000,   0.14960,
,,,0.448852000000,   0.14960,
,,,0.448856000000,   0.15000,
,,,0.448860000000,   0.15080,
,,,0.448864000000,   0.15040,
,,,0.448868000000,   0.14920,
,,,0.448872000000,   0.15040,
,,,0.448876000000,   0.15040,
,,,0.448880000000,   0.15000,
,,,0.448884000000,   0.14960,
,,,0.448888000000,   0.15040,
,,,0.448892000000,   0.14880,
,,,0.448896000000,   0.15000,
,,,0.448900000000,   0.15000,
,,,0.448904000000,   0.14960,
,,,0.448908000000,   0.15040,
,,,0.448912000000,   0.14960,
,,,0.448916000000,   0.14920,
,,,0.448920000000,   0.15080,
,,,0.448924000000,   0.14960,
,,,0.448928000000,   0.14960,
,,,0.448932000000,   0.15000,
,,,0.448936000000,   0.14960,
,,,0.448940000000,   0.15040,
,,,0.448944000000,   0.14960,
,,,0.448948000000,   0.15000,
,,,0.448952000000,   0.15120,
,,,0.448956000000,   0.15040,
,,,0.448960000000,   0.15000,
,,,0.448964000000,   0.15040,
,,,0.448968000000,   0.15040,
,,,0.448972000000,   0.15000,
,,,0.448976000000,   0.14880,
,,,0.448980000000,   0.14920,
,,,0.448984000000,   0.15000,
,,,0.448988000000,   0.14880,
,,,0.448992000000,   0.15040,
,,,0.448996000000,   0.14960,
,,,0.449000000000,   0.14960,
,,,0.449004000000,   0.15000,
,,,0.449008000000,   0.14960,
,,,0.449012000000,   0.15000,
,,,0.449016000000,   0.15000,
,,,0.449020000000,   0.14880,
,,,0.449024000000,   0.15000,
,,,0.449028000000,   0.14880,
,,,0.449032000000,   0.14840,
,,,0.449036000000,   0.14880,
,,,0.449040000000,   0.15040,
,,,0.449044000000,   0.15000,
,,,0.449048000000,   0.14840,
,,,0.449052000000,   0.14880,
,,,0.449056000000,   0.14920,
,,,0.449060000000,   0.14960,
,,,0.449064000000,   0.15000,
,,,0.449068000000,   0.14920,
,,,0.449072000000,   0.14880,
,,,0.449076000000,   0.15000,
,,,0.449080000000,   0.14800,
,,,0.449084000000,   0.14960,
,,,0.449088000000,   0.15120,
,,,0.449092000000,   0.14920,
,,,0.449096000000,   0.14960,
,,,0.449100000000,   0.15000,
,,,0.449104000000,   0.15000,
,,,0.449108000000,   0.14880,
,,,0.449112000000,   0.14960,
,,,0.449116000000,   0.15000,
,,,0.449120000000,   0.14960,
,,,0.449124000000,   0.14880,
,,,0.449128000000,   0.14920,
,,,0.449132000000,   0.14960,
,,,0.449136000000,   0.14920,
,,,0.449140000000,   0.14880,
,,,0.449144000000,   0.14920,
,,,0.449148000000,   0.14880,
,,,0.449152000000,   0.14800,
,,,0.449156000000,   0.14920,
,,,0.449160000000,   0.14880,
,,,0.449164000000,   0.14920,
,,,0.449168000000,   0.14800,
,,,0.449172000000,   0.14840,
,,,0.449176000000,   0.14840,
,,,0.449180000000,   0.14960,
,,,0.449184000000,   0.14920,
,,,0.449188000000,   0.14760,
,,,0.449192000000,   0.14880,
,,,0.449196000000,   0.14880,
,,,0.449200000000,   0.14920,
,,,0.449204000000,   0.14880,
,,,0.449208000000,   0.14880,
,,,0.449212000000,   0.14880,
,,,0.449216000000,   0.14920,
,,,0.449220000000,   0.14840,
,,,0.449224000000,   0.14840,
,,,0.449228000000,   0.14760,
,,,0.449232000000,   0.14840,
,,,0.449236000000,   0.14880,
,,,0.449240000000,   0.14880,
,,,0.449244000000,   0.14920,
,,,0.449248000000,   0.14840,
,,,0.449252000000,   0.14840,
,,,0.449256000000,   0.14880,
,,,0.449260000000,   0.14760,
,,,0.449264000000,   0.14920,
,,,0.449268000000,   0.14720,
,,,0.449272000000,   0.14840,
,,,0.449276000000,   0.14880,
,,,0.449280000000,   0.14760,
,,,0.449284000000,   0.14760,
,,,0.449288000000,   0.14880,
,,,0.449292000000,   0.14880,
,,,0.449296000000,   0.14720,
,,,0.449300000000,   0.14920,
,,,0.449304000000,   0.14760,
,,,0.449308000000,   0.14840,
,,,0.449312000000,   0.14880,
,,,0.449316000000,   0.14800,
,,,0.449320000000,   0.14680,
,,,0.449324000000,   0.14880,
,,,0.449328000000,   0.14800,
,,,0.449332000000,   0.14920,
,,,0.449336000000,   0.14840,
,,,0.449340000000,   0.14880,
,,,0.449344000000,   0.14840,
,,,0.449348000000,   0.14720,
,,,0.449352000000,   0.14920,
,,,0.449356000000,   0.14840,
,,,0.449360000000,   0.14800,
,,,0.449364000000,   0.14840,
,,,0.449368000000,   0.14840,
,,,0.449372000000,   0.14880,
,,,0.449376000000,   0.14800,
,,,0.449380000000,   0.14880,
,,,0.449384000000,   0.14760,
,,,0.449388000000,   0.14800,
,,,0.449392000000,   0.14760,
,,,0.449396000000,   0.14680,
,,,0.449400000000,   0.14800,
,,,0.449404000000,   0.14800,
,,,0.449408000000,   0.14800,
,,,0.449412000000,   0.14720,
,,,0.449416000000,   0.14760,
,,,0.449420000000,   0.14840,
,,,0.449424000000,   0.14880,
,,,0.449428000000,   0.14720,
,,,0.449432000000,   0.14760,
,,,0.449436000000,   0.14760,
,,,0.449440000000,   0.14760,
,,,0.449444000000,   0.14720,
,,,0.449448000000,   0.14720,
,,,0.449452000000,   0.14720,
,,,0.449456000000,   0.14840,
,,,0.449460000000,   0.14720,
,,,0.449464000000,   0.14760,
,,,0.449468000000,   0.14760,
,,,0.449472000000,   0.14680,
,,,0.449476000000,   0.14760,
,,,0.449480000000,   0.14760,
,,,0.449484000000,   0.14680,
,,,0.449488000000,   0.14840,
,,,0.449492000000,   0.14720,
,,,0.449496000000,   0.14760,
,,,0.449500000000,   0.14720,
,,,0.449504000000,   0.14720,
,,,0.449508000000,   0.14800,
,,,0.449512000000,   0.14840,
,,,0.449516000000,   0.14800,
,,,0.449520000000,   0.14720,
,,,0.449524000000,   0.14720,
,,,0.449528000000,   0.14760,
,,,0.449532000000,   0.14680,
,,,0.449536000000,   0.14680,
,,,0.449540000000,   0.14680,
,,,0.449544000000,   0.14680,
,,,0.449548000000,   0.14680,
,,,0.449552000000,   0.14680,
,,,0.449556000000,   0.14640,
,,,0.449560000000,   0.14720,
,,,0.449564000000,   0.14680,
,,,0.449568000000,   0.14680,
,,,0.449572000000,   0.14760,
,,,0.449576000000,   0.14720,
,,,0.449580000000,   0.14680,
,,,0.449584000000,   0.14760,
,,,0.449588000000,   0.14760,
,,,0.449592000000,   0.14760,
,,,0.449596000000,   0.14720,
,,,0.449600000000,   0.14600,
,,,0.449604000000,   0.14760,
,,,0.449608000000,   0.14720,
,,,0.449612000000,   0.14640,
,,,0.449616000000,   0.14800,
,,,0.449620000000,   0.14720,
,,,0.449624000000,   0.14760,
,,,0.449628000000,   0.14680,
,,,0.449632000000,   0.14640,
,,,0.449636000000,   0.14720,
,,,0.449640000000,   0.14680,
,,,0.449644000000,   0.14600,
,,,0.449648000000,   0.14720,
,,,0.449652000000,   0.14640,
,,,0.449656000000,   0.14640,
,,,0.449660000000,   0.14640,
,,,0.449664000000,   0.14720,
,,,0.449668000000,   0.14720,
,,,0.449672000000,   0.14720,
,,,0.449676000000,   0.14680,
,,,0.449680000000,   0.14640,
,,,0.449684000000,   0.14680,
,,,0.449688000000,   0.14600,
,,,0.449692000000,   0.14640,
,,,0.449696000000,   0.14720,
,,,0.449700000000,   0.14640,
,,,0.449704000000,   0.14720,
,,,0.449708000000,   0.14680,
,,,0.449712000000,   0.14760,
,,,0.449716000000,   0.14640,
,,,0.449720000000,   0.14680,
,,,0.449724000000,   0.14720,
,,,0.449728000000,   0.14720,
,,,0.449732000000,   0.14680,
,,,0.449736000000,   0.14600,
,,,0.449740000000,   0.14600,
,,,0.449744000000,   0.14720,
,,,0.449748000000,   0.14600,
,,,0.449752000000,   0.14720,
,,,0.449756000000,   0.14760,
,,,0.449760000000,   0.14680,
,,,0.449764000000,   0.14680,
,,,0.449768000000,   0.14680,
,,,0.449772000000,   0.14640,
,,,0.449776000000,   0.14640,
,,,0.449780000000,   0.14640,
,,,0.449784000000,   0.14640,
,,,0.449788000000,   0.14600,
,,,0.449792000000,   0.14640,
,,,0.449796000000,   0.14640,
,,,0.449800000000,   0.14640,
,,,0.449804000000,   0.14720,
,,,0.449808000000,   0.14640,
,,,0.449812000000,   0.14560,
,,,0.449816000000,   0.14640,
,,,0.449820000000,   0.14600,
,,,0.449824000000,   0.14520,
,,,0.449828000000,   0.14680,
,,,0.449832000000,   0.14640,
,,,0.449836000000,   0.14560,
,,,0.449840000000,   0.14600,
,,,0.449844000000,   0.14600,
,,,0.449848000000,   0.14520,
,,,0.449852000000,   0.14560,
,,,0.449856000000,   0.14480,
,,,0.449860000000,   0.14560,
,,,0.449864000000,   0.14640,
,,,0.449868000000,   0.14600,
,,,0.449872000000,   0.14560,
,,,0.449876000000,   0.14640,
,,,0.449880000000,   0.14560,
,,,0.449884000000,   0.14480,
,,,0.449888000000,   0.14600,
,,,0.449892000000,   0.14600,
,,,0.449896000000,   0.14560,
,,,0.449900000000,   0.14520,
,,,0.449904000000,   0.14560,
,,,0.449908000000,   0.14520,
,,,0.449912000000,   0.14560,
,,,0.449916000000,   0.14600,
,,,0.449920000000,   0.14560,
,,,0.449924000000,   0.14560,
,,,0.449928000000,   0.14520,
,,,0.449932000000,   0.14600,
,,,0.449936000000,   0.14520,
,,,0.449940000000,   0.14560,
,,,0.449944000000,   0.14520,
,,,0.449948000000,   0.14640,
,,,0.449952000000,   0.14600,
,,,0.449956000000,   0.14400,
,,,0.449960000000,   0.14520,
,,,0.449964000000,   0.14480,
,,,0.449968000000,   0.14480,
,,,0.449972000000,   0.14560,
,,,0.449976000000,   0.14520,
,,,0.449980000000,   0.14600,
,,,0.449984000000,   0.14600,
,,,0.449988000000,   0.14560,
,,,0.449992000000,   0.14640,
,,,0.449996000000,   0.14560,
,,,0.450000000000,   0.14520,
,,,0.450004000000,   0.14400,
,,,0.450008000000,   0.14640,
,,,0.450012000000,   0.14520,
,,,0.450016000000,   0.14440,
,,,0.450020000000,   0.14400,
,,,0.450024000000,   0.14440,
,,,0.450028000000,   0.14480,
,,,0.450032000000,   0.14600,
,,,0.450036000000,   0.14440,
,,,0.450040000000,   0.14560,
,,,0.450044000000,   0.14600,
,,,0.450048000000,   0.14520,
,,,0.450052000000,   0.14520,
,,,0.450056000000,   0.14360,
,,,0.450060000000,   0.14480,
,,,0.450064000000,   0.14560,
,,,0.450068000000,   0.14520,
,,,0.450072000000,   0.14560,
,,,0.450076000000,   0.14520,
,,,0.450080000000,   0.14400,
,,,0.450084000000,   0.14560,
,,,0.450088000000,   0.14480,
,,,0.450092000000,   0.14360,
,,,0.450096000000,   0.14440,
,,,0.450100000000,   0.14360,
,,,0.450104000000,   0.14520,
,,,0.450108000000,   0.14480,
,,,0.450112000000,   0.14440,
,,,0.450116000000,   0.14600,
,,,0.450120000000,   0.14440,
,,,0.450124000000,   0.14440,
,,,0.450128000000,   0.14400,
,,,0.450132000000,   0.14480,
,,,0.450136000000,   0.14480,
,,,0.450140000000,   0.14440,
,,,0.450144000000,   0.14400,
,,,0.450148000000,   0.14520,
,,,0.450152000000,   0.14560,
,,,0.450156000000,   0.14440,
,,,0.450160000000,   0.14480,
,,,0.450164000000,   0.14480,
,,,0.450168000000,   0.14480,
,,,0.450172000000,   0.14400,
,,,0.450176000000,   0.14440,
,,,0.450180000000,   0.14360,
,,,0.450184000000,   0.14440,
,,,0.450188000000,   0.14360,
,,,0.450192000000,   0.14480,
,,,0.450196000000,   0.14400,
,,,0.450200000000,   0.14400,
,,,0.450204000000,   0.14360,
,,,0.450208000000,   0.14320,
,,,0.450212000000,   0.14360,
,,,0.450216000000,   0.14360,
,,,0.450220000000,   0.14400,
,,,0.450224000000,   0.14400,
,,,0.450228000000,   0.14400,
,,,0.450232000000,   0.14400,
,,,0.450236000000,   0.14440,
,,,0.450240000000,   0.14400,
,,,0.450244000000,   0.14400,
,,,0.450248000000,   0.14360,
,,,0.450252000000,   0.14360,
,,,0.450256000000,   0.14400,
,,,0.450260000000,   0.14360,
,,,0.450264000000,   0.14320,
,,,0.450268000000,   0.14280,
,,,0.450272000000,   0.14480,
,,,0.450276000000,   0.14360,
,,,0.450280000000,   0.14360,
,,,0.450284000000,   0.14280,
,,,0.450288000000,   0.14400,
,,,0.450292000000,   0.14360,
,,,0.450296000000,   0.14280,
,,,0.450300000000,   0.14280,
,,,0.450304000000,   0.14400,
,,,0.450308000000,   0.14320,
,,,0.450312000000,   0.14240,
,,,0.450316000000,   0.14440,
,,,0.450320000000,   0.14320,
,,,0.450324000000,   0.14240,
,,,0.450328000000,   0.14360,
,,,0.450332000000,   0.14360,
,,,0.450336000000,   0.14360,
,,,0.450340000000,   0.14280,
,,,0.450344000000,   0.14280,
,,,0.450348000000,   0.14320,
,,,0.450352000000,   0.14200,
,,,0.450356000000,   0.14240,
,,,0.450360000000,   0.14240,
,,,0.450364000000,   0.14360,
,,,0.450368000000,   0.14280,
,,,0.450372000000,   0.14360,
,,,0.450376000000,   0.14240,
,,,0.450380000000,   0.14280,
,,,0.450384000000,   0.14280,
,,,0.450388000000,   0.14280,
,,,0.450392000000,   0.14360,
,,,0.450396000000,   0.14320,
,,,0.450400000000,   0.14320,
,,,0.450404000000,   0.14280,
,,,0.450408000000,   0.14200,
,,,0.450412000000,   0.14320,
,,,0.450416000000,   0.14200,
,,,0.450420000000,   0.14240,
,,,0.450424000000,   0.14240,
,,,0.450428000000,   0.14240,
,,,0.450432000000,   0.14240,
,,,0.450436000000,   0.14200,
,,,0.450440000000,   0.14280,
,,,0.450444000000,   0.14200,
,,,0.450448000000,   0.14240,
,,,0.450452000000,   0.14240,
,,,0.450456000000,   0.14320,
,,,0.450460000000,   0.14240,
,,,0.450464000000,   0.14200,
,,,0.450468000000,   0.14160,
,,,0.450472000000,   0.14240,
,,,0.450476000000,   0.14120,
,,,0.450480000000,   0.14200,
,,,0.450484000000,   0.14280,
,,,0.450488000000,   0.14280,
,,,0.450492000000,   0.14160,
,,,0.450496000000,   0.14120,
,,,0.450500000000,   0.14200,
,,,0.450504000000,   0.14320,
,,,0.450508000000,   0.14240,
,,,0.450512000000,   0.14160,
,,,0.450516000000,   0.14200,
,,,0.450520000000,   0.14200,
,,,0.450524000000,   0.14160,
,,,0.450528000000,   0.14120,
,,,0.450532000000,   0.14200,
,,,0.450536000000,   0.14120,
,,,0.450540000000,   0.14200,
,,,0.450544000000,   0.14200,
,,,0.450548000000,   0.14160,
,,,0.450552000000,   0.14160,
,,,0.450556000000,   0.14120,
,,,0.450560000000,   0.14240,
,,,0.450564000000,   0.14080,
,,,0.450568000000,   0.14200,
,,,0.450572000000,   0.14160,
,,,0.450576000000,   0.14120,
,,,0.450580000000,   0.14160,
,,,0.450584000000,   0.14120,
,,,0.450588000000,   0.14040,
,,,0.450592000000,   0.14080,
,,,0.450596000000,   0.14040,
,,,0.450600000000,   0.14160,
,,,0.450604000000,   0.14120,
,,,0.450608000000,   0.14040,
,,,0.450612000000,   0.14120,
,,,0.450616000000,   0.14160,
,,,0.450620000000,   0.14040,
,,,0.450624000000,   0.14120,
,,,0.450628000000,   0.14120,
,,,0.450632000000,   0.14000,
,,,0.450636000000,   0.14040,
,,,0.450640000000,   0.14160,
,,,0.450644000000,   0.14120,
,,,0.450648000000,   0.14120,
,,,0.450652000000,   0.14080,
