Measurements/9-6/Set 1/4; Dip - uitzoom/F0001CH3.CSV

Record Length,2.500000e+03,,   0.447300000000,  -0.37600,
Sample Interval,1.000000e-05,,   0.447310000000,  -0.37600,
Trigger Point,-4.473000000000e+04,,   0.447320000000,  -0.37600,
,,,   0.447330000000,  -0.37600,
,,,   0.447340000000,  -0.37600,
,,,   0.447350000000,  -0.37600,
Source,CH3,,   0.447360000000,  -0.37600,
Vertical Units,V,,   0.447370000000,  -0.38400,
Vertical Scale,2.000000e-01,,   0.447380000000,  -0.37600,
Vertical Offset,1.168000e+00,,   0.447390000000,  -0.37600,
Horizontal Units,s,,   0.447400000000,  -0.38400,
Horizontal Scale,2.500000e-03,,   0.447410000000,  -0.38400,
Pt Fmt,Y,,   0.447420000000,  -0.38400,
Yzero,0.000000e+00,,   0.447430000000,  -0.38400,
Probe Atten,1.000000e+00,,   0.447440000000,  -0.38400,
Model Number,TDS2024B,,   0.447450000000,  -0.38400,
Serial Number,C104833,,   0.447460000000,  -0.38400,
Firmware Version,FV:v24.02,,   0.447470000000,  -0.38400,
,,,0.447480000000,  -0.38400,
,,,0.447490000000,  -0.38400,
,,,0.447500000000,  -0.38400,
,,,0.447510000000,  -0.38400,
,,,0.447520000000,  -0.38400,
,,,0.447530000000,  -0.38400,
,,,0.447540000000,  -0.38400,
,,,0.447550000000,  -0.39200,
,,,0.447560000000,  -0.38400,
,,,0.447570000000,  -0.38400,
,,,0.447580000000,  -0.39200,
,,,0.447590000000,  -0.39200,
,,,0.447600000000,  -0.39200,
,,,0.447610000000,  -0.39200,
,,,0.447620000000,  -0.39200,
,,,0.447630000000,  -0.39200,
,,,0.447640000000,  -0.39200,
,,,0.447650000000,  -0.39200,
,,,0.447660000000,  -0.39200,
,,,0.447670000000,  -0.39200,
,,,0.447680000000,  -0.39200,
,,,0.447690000000,  -0.39200,
,,,0.447700000000,  -0.39200,
,,,0.447710000000,  -0.39200,
,,,0.447720000000,  -0.39200,
,,,0.447730000000,  -0.39200,
,,,0.447740000000,  -0.39200,
,,,0.447750000000,  -0.39200,
,,,0.447760000000,  -0.40000,
,,,0.447770000000,  -0.39200,
,,,0.447780000000,  -0.40000,
,,,0.447790000000,  -0.40000,
,,,0.447800000000,  -0.40000,
,,,0.447810000000,  -0.39200,
,,,0.447820000000,  -0.40000,
,,,0.447830000000,  -0.40000,
,,,0.447840000000,  -0.40000,
,,,0.447850000000,  -0.40000,
,,,0.447860000000,  -0.40000,
,,,0.447870000000,  -0.40000,
,,,0.447880000000,  -0.40800,
,,,0.447890000000,  -0.40000,
,,,0.447900000000,  -0.40000,
,,,0.447910000000,  -0.40800,
,,,0.447920000000,  -0.40000,
,,,0.447930000000,  -0.40800,
,,,0.447940000000,  -0.40800,
,,,0.447950000000,  -0.40800,
,,,0.447960000000,  -0.40800,
,,,0.447970000000,  -0.40800,
,,,0.447980000000,  -0.40800,
,,,0.447990000000,  -0.40800,
,,,0.448000000000,  -0.40800,
,,,0.448010000000,  -0.40800,
,,,0.448020000000,  -0.40800,
,,,0.448030000000,  -0.41600,
,,,0.448040000000,  -0.40800,
,,,0.448050000000,  -0.40800,
,,,0.448060000000,  -0.40800,
,,,0.448070000000,  -0.41600,
,,,0.448080000000,  -0.40800,
,,,0.448090000000,  -0.41600,
,,,0.448100000000,  -0.41600,
,,,0.448110000000,  -0.41600,
,,,0.448120000000,  -0.41600,
,,,0.448130000000,  -0.41600,
,,,0.448140000000,  -0.41600,
,,,0.448150000000,  -0.41600,
,,,0.448160000000,  -0.41600,
,,,0.448170000000,  -0.41600,
,,,0.448180000000,  -0.41600,
,,,0.448190000000,  -0.41600,
,,,0.448200000000,  -0.41600,
,,,0.448210000000,  -0.41600,
,,,0.448220000000,  -0.41600,
,,,0.448230000000,  -0.41600,
,,,0.448240000000,  -0.41600,
,,,0.448250000000,  -0.41600,
,,,0.448260000000,  -0.41600,
,,,0.448270000000,  -0.42400,
,,,0.448280000000,  -0.41600,
,,,0.448290000000,  -0.42400,
,,,0.448300000000,  -0.41600,
,,,0.448310000000,  -0.41600,
,,,0.448320000000,  -0.41600,
,,,0.448330000000,  -0.42400,
,,,0.448340000000,  -0.42400,
,,,0.448350000000,  -0.42400,
,,,0.448360000000,  -0.42400,
,,,0.448370000000,  -0.42400,
,,,0.448380000000,  -0.42400,
,,,0.448390000000,  -0.42400,
,,,0.448400000000,  -0.42400,
,,,0.448410000000,  -0.42400,
,,,0.448420000000,  -0.42400,
,,,0.448430000000,  -0.42400,
,,,0.448440000000,  -0.42400,
,,,0.448450000000,  -0.42400,
,,,0.448460000000,  -0.42400,
,,,0.448470000000,  -0.42400,
,,,0.448480000000,  -0.42400,
,,,0.448490000000,  -0.43200,
,,,0.448500000000,  -0.43200,
,,,0.448510000000,  -0.43200,
,,,0.448520000000,  -0.43200,
,,,0.448530000000,  -0.43200,
,,,0.448540000000,  -0.43200,
,,,0.448550000000,  -0.43200,
,,,0.448560000000,  -0.43200,
,,,0.448570000000,  -0.43200,
,,,0.448580000000,  -0.43200,
,,,0.448590000000,  -0.43200,
,,,0.448600000000,  -0.43200,
,,,0.448610000000,  -0.43200,
,,,0.448620000000,  -0.43200,
,,,0.448630000000,  -0.43200,
,,,0.448640000000,  -0.44000,
,,,0.448650000000,  -0.44000,
,,,0.448660000000,  -0.44000,
,,,0.448670000000,  -0.44000,
,,,0.448680000000,  -0.44000,
,,,0.448690000000,  -0.44000,
,,,0.448700000000,  -0.44000,
,,,0.448710000000,  -0.43200,
,,,0.448720000000,  -0.44000,
,,,0.448730000000,  -0.43200,
,,,0.448740000000,  -0.44000,
,,,0.448750000000,  -0.44000,
,,,0.448760000000,  -0.44000,
,,,0.448770000000,  -0.44000,
,,,0.448780000000,  -0.44000,
,,,0.448790000000,  -0.44000,
,,,0.448800000000,  -0.44000,
,,,0.448810000000,  -0.44000,
,,,0.448820000000,  -0.44000,
,,,0.448830000000,  -0.44000,
,,,0.448840000000,  -0.44800,
,,,0.448850000000,  -0.44000,
,,,0.448860000000,  -0.44800,
,,,0.448870000000,  -0.44000,
,,,0.448880000000,  -0.44800,
,,,0.448890000000,  -0.44000,
,,,0.448900000000,  -0.44800,
,,,0.448910000000,  -0.44800,
,,,0.448920000000,  -0.44800,
,,,0.448930000000,  -0.44000,
,,,0.448940000000,  -0.44800,
,,,0.448950000000,  -0.44800,
,,,0.448960000000,  -0.44800,
,,,0.448970000000,  -0.44800,
,,,0.448980000000,  -0.44800,
,,,0.448990000000,  -0.44800,
,,,0.449000000000,  -0.44800,
,,,0.449010000000,  -0.44800,
,,,0.449020000000,  -0.44800,
,,,0.449030000000,  -0.45600,
,,,0.449040000000,  -0.44800,
,,,0.449050000000,  -0.45600,
,,,0.449060000000,  -0.44800,
,,,0.449070000000,  -0.44800,
,,,0.449080000000,  -0.44800,
,,,0.449090000000,  -0.45600,
,,,0.449100000000,  -0.45600,
,,,0.449110000000,  -0.45600,
,,,0.449120000000,  -0.44800,
,,,0.449130000000,  -0.45600,
,,,0.449140000000,  -0.44800,
,,,0.449150000000,  -0.45600,
,,,0.449160000000,  -0.45600,
,,,0.449170000000,  -0.45600,
,,,0.449180000000,  -0.45600,
,,,0.449190000000,  -0.45600,
,,,0.449200000000,  -0.45600,
,,,0.449210000000,  -0.45600,
,,,0.449220000000,  -0.45600,
,,,0.449230000000,  -0.45600,
,,,0.449240000000,  -0.45600,
,,,0.449250000000,  -0.46400,
,,,0.449260000000,  -0.45600,
,,,0.449270000000,  -0.46400,
,,,0.449280000000,  -0.46400,
,,,0.449290000000,  -0.45600,
,,,0.449300000000,  -0.46400,
,,,0.449310000000,  -0.46400,
,,,0.449320000000,  -0.45600,
,,,0.449330000000,  -0.46400,
,,,0.449340000000,  -0.46400,
,,,0.449350000000,  -0.46400,
,,,0.449360000000,  -0.46400,
,,,0.449370000000,  -0.46400,
,,,0.449380000000,  -0.46400,
,,,0.449390000000,  -0.46400,
,,,0.449400000000,  -0.46400,
,,,0.449410000000,  -0.47200,
,,,0.449420000000,  -0.46400,
,,,0.449430000000,  -0.46400,
,,,0.449440000000,  -0.47200,
,,,0.449450000000,  -0.47200,
,,,0.449460000000,  -0.47200,
,,,0.449470000000,  -0.46400,
,,,0.449480000000,  -0.47200,
,,,0.449490000000,  -0.46400,
,,,0.449500000000,  -0.47200,
,,,0.449510000000,  -0.48000,
,,,0.449520000000,  -0.47200,
,,,0.449530000000,  -0.47200,
,,,0.449540000000,  -0.47200,
,,,0.449550000000,  -0.47200,
,,,0.449560000000,  -0.47200,
,,,0.449570000000,  -0.48000,
,,,0.449580000000,  -0.47200,
,,,0.449590000000,  -0.47200,
,,,0.449600000000,  -0.47200,
,,,0.449610000000,  -0.48000,
,,,0.449620000000,  -0.48000,
,,,0.449630000000,  -0.47200,
,,,0.449640000000,  -0.48000,
,,,0.449650000000,  -0.48000,
,,,0.449660000000,  -0.48000,
,,,0.449670000000,  -0.47200,
,,,0.449680000000,  -0.48000,
,,,0.449690000000,  -0.48000,
,,,0.449700000000,  -0.48000,
,,,0.449710000000,  -0.48000,
,,,0.449720000000,  -0.48000,
,,,0.449730000000,  -0.48000,
,,,0.449740000000,  -0.48000,
,,,0.449750000000,  -0.48800,
,,,0.449760000000,  -0.48000,
,,,0.449770000000,  -0.48000,
,,,0.449780000000,  -0.48000,
,,,0.449790000000,  -0.48000,
,,,0.449800000000,  -0.48000,
,,,0.449810000000,  -0.48000,
,,,0.449820000000,  -0.48000,
,,,0.449830000000,  -0.48800,
,,,0.449840000000,  -0.48800,
,,,0.449850000000,  -0.48000,
,,,0.449860000000,  -0.48800,
,,,0.449870000000,  -0.48800,
,,,0.449880000000,  -0.48800,
,,,0.449890000000,  -0.48800,
,,,0.449900000000,  -0.48800,
,,,0.449910000000,  -0.48800,
,,,0.449920000000,  -0.48800,
,,,0.449930000000,  -0.48800,
,,,0.449940000000,  -0.48800,
,,,0.449950000000,  -0.49600,
,,,0.449960000000,  -0.48800,
,,,0.449970000000,  -0.48800,
,,,0.449980000000,  -0.48800,
,,,0.449990000000,  -0.48800,
,,,0.450000000000,  -0.48800,
,,,0.450010000000,  -0.48800,
,,,0.450020000000,  -0.49600,
,,,0.450030000000,  -0.48800,
,,,0.450040000000,  -0.48800,
,,,0.450050000000,  -0.49600,
,,,0.450060000000,  -0.49600,
,,,0.450070000000,  -0.49600,
,,,0.450080000000,  -0.49600,
,,,0.450090000000,  -0.50400,
,,,0.450100000000,  -0.49600,
,,,0.450110000000,  -0.49600,
,,,0.450120000000,  -0.49600,
,,,0.450130000000,  -0.49600,
,,,0.450140000000,  -0.50400,
,,,0.450150000000,  -0.50400,
,,,0.450160000000,  -0.50400,
,,,0.450170000000,  -0.49600,
,,,0.450180000000,  -0.50400,
,,,0.450190000000,  -0.50400,
,,,0.450200000000,  -0.50400,
,,,0.450210000000,  -0.50400,
,,,0.450220000000,  -0.50400,
,,,0.450230000000,  -0.50400,
,,,0.450240000000,  -0.50400,
,,,0.450250000000,  -0.50400,
,,,0.450260000000,  -0.50400,
,,,0.450270000000,  -0.50400,
,,,0.450280000000,  -0.50400,
,,,0.450290000000,  -0.50400,
,,,0.450300000000,  -0.50400,
,,,0.450310000000,  -0.50400,
,,,0.450320000000,  -0.50400,
,,,0.450330000000,  -0.50400,
,,,0.450340000000,  -0.50400,
,,,0.450350000000,  -0.50400,
,,,0.450360000000,  -0.50400,
,,,0.450370000000,  -0.51200,
,,,0.450380000000,  -0.51200,
,,,0.450390000000,  -0.51200,
,,,0.450400000000,  -0.50400,
,,,0.450410000000,  -0.51200,
,,,0.450420000000,  -0.51200,
,,,0.450430000000,  -0.51200,
,,,0.450440000000,  -0.51200,
,,,0.450450000000,  -0.51200,
,,,0.450460000000,  -0.51200,
,,,0.450470000000,  -0.51200,
,,,0.450480000000,  -0.51200,
,,,0.450490000000,  -0.51200,
,,,0.450500000000,  -0.51200,
,,,0.450510000000,  -0.51200,
,,,0.450520000000,  -0.51200,
,,,0.450530000000,  -0.51200,
,,,0.450540000000,  -0.51200,
,,,0.450550000000,  -0.51200,
,,,0.450560000000,  -0.51200,
,,,0.450570000000,  -0.52000,
,,,0.450580000000,  -0.51200,
,,,0.450590000000,  -0.52000,
,,,0.450600000000,  -0.51200,
,,,0.450610000000,  -0.51200,
,,,0.450620000000,  -0.51200,
,,,0.450630000000,  -0.52000,
,,,0.450640000000,  -0.52800,
,,,0.450650000000,  -0.52000,
,,,0.450660000000,  -0.52000,
,,,0.450670000000,  -0.52000,
,,,0.450680000000,  -0.52000,
,,,0.450690000000,  -0.52000,
,,,0.450700000000,  -0.52000,
,,,0.450710000000,  -0.52000,
,,,0.450720000000,  -0.52000,
,,,0.450730000000,  -0.52000,
,,,0.450740000000,  -0.52800,
,,,0.450750000000,  -0.52800,
,,,0.450760000000,  -0.52800,
,,,0.450770000000,  -0.52800,
,,,0.450780000000,  -0.52800,
,,,0.450790000000,  -0.52800,
,,,0.450800000000,  -0.52800,
,,,0.450810000000,  -0.52800,
,,,0.450820000000,  -0.52800,
,,,0.450830000000,  -0.52800,
,,,0.450840000000,  -0.52800,
,,,0.450850000000,  -0.52800,
,,,0.450860000000,  -0.52800,
,,,0.450870000000,  -0.52800,
,,,0.450880000000,  -0.52800,
,,,0.450890000000,  -0.52800,
,,,0.450900000000,  -0.52800,
,,,0.450910000000,  -0.52800,
,,,0.450920000000,  -0.52800,
,,,0.450930000000,  -0.52800,
,,,0.450940000000,  -0.53600,
,,,0.450950000000,  -0.52800,
,,,0.450960000000,  -0.52800,
,,,0.450970000000,  -0.52800,
,,,0.450980000000,  -0.53600,
,,,0.450990000000,  -0.53600,
,,,0.451000000000,  -0.53600,
,,,0.451010000000,  -0.53600,
,,,0.451020000000,  -0.53600,
,,,0.451030000000,  -0.53600,
,,,0.451040000000,  -0.53600,
,,,0.451050000000,  -0.54400,
,,,0.451060000000,  -0.53600,
,,,0.451070000000,  -0.53600,
,,,0.451080000000,  -0.53600,
,,,0.451090000000,  -0.53600,
,,,0.451100000000,  -0.53600,
,,,0.451110000000,  -0.53600,
,,,0.451120000000,  -0.53600,
,,,0.451130000000,  -0.54400,
,,,0.451140000000,  -0.53600,
,,,0.451150000000,  -0.54400,
,,,0.451160000000,  -0.53600,
,,,0.451170000000,  -0.54400,
,,,0.451180000000,  -0.54400,
,,,0.451190000000,  -0.54400,
,,,0.451200000000,  -0.54400,
,,,0.451210000000,  -0.54400,
,,,0.451220000000,  -0.54400,
,,,0.451230000000,  -0.54400,
,,,0.451240000000,  -0.54400,
,,,0.451250000000,  -0.54400,
,,,0.451260000000,  -0.54400,
,,,0.451270000000,  -0.54400,
,,,0.451280000000,  -0.54400,
,,,0.451290000000,  -0.54400,
,,,0.451300000000,  -0.54400,
,,,0.451310000000,  -0.54400,
,,,0.451320000000,  -0.54400,
,,,0.451330000000,  -0.54400,
,,,0.451340000000,  -0.54400,
,,,0.451350000000,  -0.55200,
,,,0.451360000000,  -0.55200,
,,,0.451370000000,  -0.55200,
,,,0.451380000000,  -0.55200,
,,,0.451390000000,  -0.55200,
,,,0.451400000000,  -0.55200,
,,,0.451410000000,  -0.55200,
,,,0.451420000000,  -0.55200,
,,,0.451430000000,  -0.55200,
,,,0.451440000000,  -0.55200,
,,,0.451450000000,  -0.55200,
,,,0.451460000000,  -0.55200,
,,,0.451470000000,  -0.55200,
,,,0.451480000000,  -0.55200,
,,,0.451490000000,  -0.55200,
,,,0.451500000000,  -0.55200,
,,,0.451510000000,  -0.56000,
,,,0.451520000000,  -0.56000,
,,,0.451530000000,  -0.56000,
,,,0.451540000000,  -0.55200,
,,,0.451550000000,  -0.55200,
,,,0.451560000000,  -0.56000,
,,,0.451570000000,  -0.56000,
,,,0.451580000000,  -0.56000,
,,,0.451590000000,  -0.56000,
,,,0.451600000000,  -0.56000,
,,,0.451610000000,  -0.56000,
,,,0.451620000000,  -0.56000,
,,,0.451630000000,  -0.56000,
,,,0.451640000000,  -0.56000,
,,,0.451650000000,  -0.56000,
,,,0.451660000000,  -0.56800,
,,,0.451670000000,  -0.56800,
,,,0.451680000000,  -0.56000,
,,,0.451690000000,  -0.56800,
,,,0.451700000000,  -0.56000,
,,,0.451710000000,  -0.56800,
,,,0.451720000000,  -0.56800,
,,,0.451730000000,  -0.56800,
,,,0.451740000000,  -0.56000,
,,,0.451750000000,  -0.56800,
,,,0.451760000000,  -0.56800,
,,,0.451770000000,  -0.56800,
,,,0.451780000000,  -0.56800,
,,,0.451790000000,  -0.56800,
,,,0.451800000000,  -0.56800,
,,,0.451810000000,  -0.56800,
,,,0.451820000000,  -0.56800,
,,,0.451830000000,  -0.56800,
,,,0.451840000000,  -0.56800,
,,,0.451850000000,  -0.56800,
,,,0.451860000000,  -0.57600,
,,,0.451870000000,  -0.57600,
,,,0.451880000000,  -0.56800,
,,,0.451890000000,  -0.56800,
,,,0.451900000000,  -0.56800,
,,,0.451910000000,  -0.57600,
,,,0.451920000000,  -0.57600,
,,,0.451930000000,  -0.57600,
,,,0.451940000000,  -0.57600,
,,,0.451950000000,  -0.57600,
,,,0.451960000000,  -0.57600,
,,,0.451970000000,  -0.57600,
,,,0.451980000000,  -0.57600,
,,,0.451990000000,  -0.57600,
,,,0.452000000000,  -0.58400,
,,,0.452010000000,  -0.57600,
,,,0.452020000000,  -0.57600,
,,,0.452030000000,  -0.57600,
,,,0.452040000000,  -0.57600,
,,,0.452050000000,  -0.57600,
,,,0.452060000000,  -0.58400,
,,,0.452070000000,  -0.58400,
,,,0.452080000000,  -0.58400,
,,,0.452090000000,  -0.57600,
,,,0.452100000000,  -0.58400,
,,,0.452110000000,  -0.57600,
,,,0.452120000000,  -0.58400,
,,,0.452130000000,  -0.58400,
,,,0.452140000000,  -0.58400,
,,,0.452150000000,  -0.58400,
,,,0.452160000000,  -0.58400,
,,,0.452170000000,  -0.58400,
,,,0.452180000000,  -0.58400,
,,,0.452190000000,  -0.58400,
,,,0.452200000000,  -0.58400,
,,,0.452210000000,  -0.58400,
,,,0.452220000000,  -0.58400,
,,,0.452230000000,  -0.59200,
,,,0.452240000000,  -0.58400,
,,,0.452250000000,  -0.59200,
,,,0.452260000000,  -0.58400,
,,,0.452270000000,  -0.58400,
,,,0.452280000000,  -0.59200,
,,,0.452290000000,  -0.59200,
,,,0.452300000000,  -0.59200,
,,,0.452310000000,  -0.59200,
,,,0.452320000000,  -0.59200,
,,,0.452330000000,  -0.59200,
,,,0.452340000000,  -0.59200,
,,,0.452350000000,  -0.59200,
,,,0.452360000000,  -0.59200,
,,,0.452370000000,  -0.59200,
,,,0.452380000000,  -0.59200,
,,,0.452390000000,  -0.59200,
,,,0.452400000000,  -0.59200,
,,,0.452410000000,  -0.59200,
,,,0.452420000000,  -0.59200,
,,,0.452430000000,  -0.59200,
,,,0.452440000000,  -0.59200,
,,,0.452450000000,  -0.59200,
,,,0.452460000000,  -0.59200,
,,,0.452470000000,  -0.60000,
,,,0.452480000000,  -0.60000,
,,,0.452490000000,  -0.59200,
,,,0.452500000000,  -0.59200,
,,,0.452510000000,  -0.60000,
,,,0.452520000000,  -0.60000,
,,,0.452530000000,  -0.60000,
,,,0.452540000000,  -0.60000,
,,,0.452550000000,  -0.60000,
,,,0.452560000000,  -0.60000,
,,,0.452570000000,  -0.60000,
,,,0.452580000000,  -0.60000,
,,,0.452590000000,  -0.60000,
,,,0.452600000000,  -0.60000,
,,,0.452610000000,  -0.60000,
,,,0.452620000000,  -0.60800,
,,,0.452630000000,  -0.60000,
,,,0.452640000000,  -0.60000,
,,,0.452650000000,  -0.60800,
,,,0.452660000000,  -0.60800,
,,,0.452670000000,  -0.60000,
,,,0.452680000000,  -0.60800,
,,,0.452690000000,  -0.60800,
,,,0.452700000000,  -0.60800,
,,,0.452710000000,  -0.60000,
,,,0.452720000000,  -0.60800,
,,,0.452730000000,  -0.60800,
,,,0.452740000000,  -0.60800,
,,,0.452750000000,  -0.60800,
,,,0.452760000000,  -0.60800,
,,,0.452770000000,  -0.60800,
,,,0.452780000000,  -0.60800,
,,,0.452790000000,  -0.60800,
,,,0.452800000000,  -0.60800,
,,,0.452810000000,  -0.61600,
,,,0.452820000000,  -0.61600,
,,,0.452830000000,  -0.61600,
,,,0.452840000000,  -0.60800,
,,,0.452850000000,  -0.61600,
,,,0.452860000000,  -0.61600,
,,,0.452870000000,  -0.61600,
,,,0.452880000000,  -0.61600,
,,,0.452890000000,  -0.61600,
,,,0.452900000000,  -0.61600,
,,,0.452910000000,  -0.61600,
,,,0.452920000000,  -0.61600,
,,,0.452930000000,  -0.61600,
,,,0.452940000000,  -0.61600,
,,,0.452950000000,  -0.61600,
,,,0.452960000000,  -0.61600,
,,,0.452970000000,  -0.61600,
,,,0.452980000000,  -0.61600,
,,,0.452990000000,  -0.61600,
,,,0.453000000000,  -0.62400,
,,,0.453010000000,  -0.61600,
,,,0.453020000000,  -0.62400,
,,,0.453030000000,  -0.62400,
,,,0.453040000000,  -0.61600,
,,,0.453050000000,  -0.62400,
,,,0.453060000000,  -0.62400,
,,,0.453070000000,  -0.62400,
,,,0.453080000000,  -0.62400,
,,,0.453090000000,  -0.62400,
,,,0.453100000000,  -0.62400,
,,,0.453110000000,  -0.62400,
,,,0.453120000000,  -0.62400,
,,,0.453130000000,  -0.62400,
,,,0.453140000000,  -0.62400,
,,,0.453150000000,  -0.63200,
,,,0.453160000000,  -0.62400,
,,,0.453170000000,  -0.62400,
,,,0.453180000000,  -0.63200,
,,,0.453190000000,  -0.63200,
,,,0.453200000000,  -0.62400,
,,,0.453210000000,  -0.63200,
,,,0.453220000000,  -0.63200,
,,,0.453230000000,  -0.63200,
,,,0.453240000000,  -0.63200,
,,,0.453250000000,  -0.63200,
,,,0.453260000000,  -0.63200,
,,,0.453270000000,  -0.63200,
,,,0.453280000000,  -0.63200,
,,,0.453290000000,  -0.63200,
,,,0.453300000000,  -0.63200,
,,,0.453310000000,  -0.63200,
,,,0.453320000000,  -0.63200,
,,,0.453330000000,  -0.63200,
,,,0.453340000000,  -0.63200,
,,,0.453350000000,  -0.63200,
,,,0.453360000000,  -0.64000,
,,,0.453370000000,  -0.64000,
,,,0.453380000000,  -0.63200,
,,,0.453390000000,  -0.64000,
,,,0.453400000000,  -0.64000,
,,,0.453410000000,  -0.64000,
,,,0.453420000000,  -0.64000,
,,,0.453430000000,  -0.64000,
,,,0.453440000000,  -0.64000,
,,,0.453450000000,  -0.64000,
,,,0.453460000000,  -0.64000,
,,,0.453470000000,  -0.64000,
,,,0.453480000000,  -0.64000,
,,,0.453490000000,  -0.64000,
,,,0.453500000000,  -0.64000,
,,,0.453510000000,  -0.64000,
,,,0.453520000000,  -0.64000,
,,,0.453530000000,  -0.64000,
,,,0.453540000000,  -0.64000,
,,,0.453550000000,  -0.64000,
,,,0.453560000000,  -0.64000,
,,,0.453570000000,  -0.64800,
,,,0.453580000000,  -0.64000,
,,,0.453590000000,  -0.64800,
,,,0.453600000000,  -0.64800,
,,,0.453610000000,  -0.64000,
,,,0.453620000000,  -0.64800,
,,,0.453630000000,  -0.64800,
,,,0.453640000000,  -0.64800,
,,,0.453650000000,  -0.64800,
,,,0.453660000000,  -0.64800,
,,,0.453670000000,  -0.64800,
,,,0.453680000000,  -0.64800,
,,,0.453690000000,  -0.64800,
,,,0.453700000000,  -0.64800,
,,,0.453710000000,  -0.64800,
,,,0.453720000000,  -0.65600,
,,,0.453730000000,  -0.65600,
,,,0.453740000000,  -0.65600,
,,,0.453750000000,  -0.65600,
,,,0.453760000000,  -0.65600,
,,,0.453770000000,  -0.65600,
,,,0.453780000000,  -0.65600,
,,,0.453790000000,  -0.65600,
,,,0.453800000000,  -0.65600,
,,,0.453810000000,  -0.65600,
,,,0.453820000000,  -0.65600,
,,,0.453830000000,  -0.65600,
