Measurements/9-6/Set 1/4; Dip - inzoom/F0003CH1.CSV

Record Length,2.500000e+03,,   0.452700000000,   0.12080,
Sample Interval,4.000000e-06,,   0.452704000000,   0.12040,
Trigger Point,-1.131750000000e+05,,   0.452708000000,   0.12000,
,,,   0.452712000000,   0.11960,
,,,   0.452716000000,   0.12120,
,,,   0.452720000000,   0.12200,
Source,CH1,,   0.452724000000,   0.12080,
Vertical Units,V,,   0.452728000000,   0.12040,
Vertical Scale,1.000000e-02,,   0.452732000000,   0.12000,
Vertical Offset,-1.176000e-01,,   0.452736000000,   0.12040,
Horizontal Units,s,,   0.452740000000,   0.11960,
Horizontal Scale,1.000000e-03,,   0.452744000000,   0.11960,
Pt Fmt,Y,,   0.452748000000,   0.12040,
Yzero,0.000000e+00,,   0.452752000000,   0.11880,
Probe Atten,1.000000e+00,,   0.452756000000,   0.12040,
Model Number,TDS2024B,,   0.452760000000,   0.12080,
Serial Number,C104833,,   0.452764000000,   0.12000,
Firmware Version,FV:v24.02,,   0.452768000000,   0.12040,
,,,0.452772000000,   0.12000,
,,,0.452776000000,   0.12080,
,,,0.452780000000,   0.11960,
,,,0.452784000000,   0.11960,
,,,0.452788000000,   0.11960,
,,,0.452792000000,   0.11960,
,,,0.452796000000,   0.11960,
,,,0.452800000000,   0.12000,
,,,0.452804000000,   0.11960,
,,,0.452808000000,   0.12000,
,,,0.452812000000,   0.12080,
,,,0.452816000000,   0.12000,
,,,0.452820000000,   0.11920,
,,,0.452824000000,   0.11920,
,,,0.452828000000,   0.11960,
,,,0.452832000000,   0.11960,
,,,0.452836000000,   0.11960,
,,,0.452840000000,   0.11920,
,,,0.452844000000,   0.12040,
,,,0.452848000000,   0.11960,
,,,0.452852000000,   0.11920,
,,,0.452856000000,   0.11960,
,,,0.452860000000,   0.12040,
,,,0.452864000000,   0.11960,
,,,0.452868000000,   0.11960,
,,,0.452872000000,   0.11960,
,,,0.452876000000,   0.11880,
,,,0.452880000000,   0.11960,
,,,0.452884000000,   0.12000,
,,,0.452888000000,   0.12000,
,,,0.452892000000,   0.11960,
,,,0.452896000000,   0.11960,
,,,0.452900000000,   0.12000,
,,,0.452904000000,   0.12040,
,,,0.452908000000,   0.12000,
,,,0.452912000000,   0.11960,
,,,0.452916000000,   0.11920,
,,,0.452920000000,   0.12040,
,,,0.452924000000,   0.12000,
,,,0.452928000000,   0.11960,
,,,0.452932000000,   0.11880,
,,,0.452936000000,   0.11960,
,,,0.452940000000,   0.11960,
,,,0.452944000000,   0.12000,
,,,0.452948000000,   0.11880,
,,,0.452952000000,   0.11880,
,,,0.452956000000,   0.11960,
,,,0.452960000000,   0.11920,
,,,0.452964000000,   0.12000,
,,,0.452968000000,   0.11880,
,,,0.452972000000,   0.11960,
,,,0.452976000000,   0.11920,
,,,0.452980000000,   0.11920,
,,,0.452984000000,   0.11960,
,,,0.452988000000,   0.11960,
,,,0.452992000000,   0.11880,
,,,0.452996000000,   0.11880,
,,,0.453000000000,   0.11880,
,,,0.453004000000,   0.11920,
,,,0.453008000000,   0.11840,
,,,0.453012000000,   0.11920,
,,,0.453016000000,   0.11880,
,,,0.453020000000,   0.11880,
,,,0.453024000000,   0.11920,
,,,0.453028000000,   0.11800,
,,,0.453032000000,   0.11880,
,,,0.453036000000,   0.11880,
,,,0.453040000000,   0.11800,
,,,0.453044000000,   0.11920,
,,,0.453048000000,   0.11920,
,,,0.453052000000,   0.11840,
,,,0.453056000000,   0.11960,
,,,0.453060000000,   0.11960,
,,,0.453064000000,   0.11920,
,,,0.453068000000,   0.11960,
,,,0.453072000000,   0.11840,
,,,0.453076000000,   0.11840,
,,,0.453080000000,   0.11840,
,,,0.453084000000,   0.11960,
,,,0.453088000000,   0.11880,
,,,0.453092000000,   0.11920,
,,,0.453096000000,   0.11840,
,,,0.453100000000,   0.11840,
,,,0.453104000000,   0.11800,
,,,0.453108000000,   0.11920,
,,,0.453112000000,   0.11880,
,,,0.453116000000,   0.11840,
,,,0.453120000000,   0.11840,
,,,0.453124000000,   0.11920,
,,,0.453128000000,   0.11840,
,,,0.453132000000,   0.11880,
,,,0.453136000000,   0.11760,
,,,0.453140000000,   0.11960,
,,,0.453144000000,   0.11880,
,,,0.453148000000,   0.11840,
,,,0.453152000000,   0.11880,
,,,0.453156000000,   0.11840,
,,,0.453160000000,   0.11920,
,,,0.453164000000,   0.11840,
,,,0.453168000000,   0.11800,
,,,0.453172000000,   0.11880,
,,,0.453176000000,   0.11840,
,,,0.453180000000,   0.11800,
,,,0.453184000000,   0.11800,
,,,0.453188000000,   0.11880,
,,,0.453192000000,   0.11960,
,,,0.453196000000,   0.11800,
,,,0.453200000000,   0.11800,
,,,0.453204000000,   0.11880,
,,,0.453208000000,   0.11880,
,,,0.453212000000,   0.11960,
,,,0.453216000000,   0.11760,
,,,0.453220000000,   0.11760,
,,,0.453224000000,   0.11800,
,,,0.453228000000,   0.11880,
,,,0.453232000000,   0.11800,
,,,0.453236000000,   0.11800,
,,,0.453240000000,   0.11800,
,,,0.453244000000,   0.11800,
,,,0.453248000000,   0.11800,
,,,0.453252000000,   0.11760,
,,,0.453256000000,   0.11880,
,,,0.453260000000,   0.11800,
,,,0.453264000000,   0.11880,
,,,0.453268000000,   0.11920,
,,,0.453272000000,   0.11800,
,,,0.453276000000,   0.11880,
,,,0.453280000000,   0.11800,
,,,0.453284000000,   0.11800,
,,,0.453288000000,   0.11840,
,,,0.453292000000,   0.11760,
,,,0.453296000000,   0.11880,
,,,0.453300000000,   0.11840,
,,,0.453304000000,   0.11800,
,,,0.453308000000,   0.11840,
,,,0.453312000000,   0.11840,
,,,0.453316000000,   0.11760,
,,,0.453320000000,   0.11840,
,,,0.453324000000,   0.11800,
,,,0.453328000000,   0.11680,
,,,0.453332000000,   0.11920,
,,,0.453336000000,   0.11720,
,,,0.453340000000,   0.11840,
,,,0.453344000000,   0.11840,
,,,0.453348000000,   0.11760,
,,,0.453352000000,   0.11760,
,,,0.453356000000,   0.11760,
,,,0.453360000000,   0.11800,
,,,0.453364000000,   0.11720,
,,,0.453368000000,   0.11840,
,,,0.453372000000,   0.11720,
,,,0.453376000000,   0.11760,
,,,0.453380000000,   0.11760,
,,,0.453384000000,   0.11720,
,,,0.453388000000,   0.11760,
,,,0.453392000000,   0.11720,
,,,0.453396000000,   0.11760,
,,,0.453400000000,   0.11760,
,,,0.453404000000,   0.11680,
,,,0.453408000000,   0.11760,
,,,0.453412000000,   0.11760,
,,,0.453416000000,   0.11800,
,,,0.453420000000,   0.11760,
,,,0.453424000000,   0.11720,
,,,0.453428000000,   0.11880,
,,,0.453432000000,   0.11760,
,,,0.453436000000,   0.11760,
,,,0.453440000000,   0.11760,
,,,0.453444000000,   0.11720,
,,,0.453448000000,   0.11880,
,,,0.453452000000,   0.11800,
,,,0.453456000000,   0.11800,
,,,0.453460000000,   0.11800,
,,,0.453464000000,   0.11760,
,,,0.453468000000,   0.11680,
,,,0.453472000000,   0.11760,
,,,0.453476000000,   0.11760,
,,,0.453480000000,   0.11760,
,,,0.453484000000,   0.11840,
,,,0.453488000000,   0.11720,
,,,0.453492000000,   0.11720,
,,,0.453496000000,   0.11720,
,,,0.453500000000,   0.11800,
,,,0.453504000000,   0.11600,
,,,0.453508000000,   0.11760,
,,,0.453512000000,   0.11720,
,,,0.453516000000,   0.11760,
,,,0.453520000000,   0.11720,
,,,0.453524000000,   0.11680,
,,,0.453528000000,   0.11680,
,,,0.453532000000,   0.11640,
,,,0.453536000000,   0.11680,
,,,0.453540000000,   0.11800,
,,,0.453544000000,   0.11640,
,,,0.453548000000,   0.11640,
,,,0.453552000000,   0.11600,
,,,0.453556000000,   0.11760,
,,,0.453560000000,   0.11760,
,,,0.453564000000,   0.11720,
,,,0.453568000000,   0.11640,
,,,0.453572000000,   0.11720,
,,,0.453576000000,   0.11760,
,,,0.453580000000,   0.11720,
,,,0.453584000000,   0.11760,
,,,0.453588000000,   0.11720,
,,,0.453592000000,   0.11720,
,,,0.453596000000,   0.11720,
,,,0.453600000000,   0.11680,
,,,0.453604000000,   0.11680,
,,,0.453608000000,   0.11600,
,,,0.453612000000,   0.11800,
,,,0.453616000000,   0.11640,
,,,0.453620000000,   0.11720,
,,,0.453624000000,   0.11720,
,,,0.453628000000,   0.11720,
,,,0.453632000000,   0.11720,
,,,0.453636000000,   0.11680,
,,,0.453640000000,   0.11640,
,,,0.453644000000,   0.11720,
,,,0.453648000000,   0.11760,
,,,0.453652000000,   0.11800,
,,,0.453656000000,   0.11840,
,,,0.453660000000,   0.11600,
,,,0.453664000000,   0.11720,
,,,0.453668000000,   0.11680,
,,,0.453672000000,   0.11680,
,,,0.453676000000,   0.11600,
,,,0.453680000000,   0.11600,
,,,0.453684000000,   0.11680,
,,,0.453688000000,   0.11640,
,,,0.453692000000,   0.11720,
,,,0.453696000000,   0.11800,
,,,0.453700000000,   0.11560,
,,,0.453704000000,   0.11680,
,,,0.453708000000,   0.11680,
,,,0.453712000000,   0.11760,
,,,0.453716000000,   0.11600,
,,,0.453720000000,   0.11680,
,,,0.453724000000,   0.11680,
,,,0.453728000000,   0.11640,
,,,0.453732000000,   0.11600,
,,,0.453736000000,   0.11600,
,,,0.453740000000,   0.11640,
,,,0.453744000000,   0.11760,
,,,0.453748000000,   0.11640,
,,,0.453752000000,   0.11640,
,,,0.453756000000,   0.11640,
,,,0.453760000000,   0.11600,
,,,0.453764000000,   0.11520,
,,,0.453768000000,   0.11560,
,,,0.453772000000,   0.11640,
,,,0.453776000000,   0.11560,
,,,0.453780000000,   0.11680,
,,,0.453784000000,   0.11560,
,,,0.453788000000,   0.11600,
,,,0.453792000000,   0.11680,
,,,0.453796000000,   0.11640,
,,,0.453800000000,   0.11600,
,,,0.453804000000,   0.11560,
,,,0.453808000000,   0.11600,
,,,0.453812000000,   0.11600,
,,,0.453816000000,   0.11520,
,,,0.453820000000,   0.11640,
,,,0.453824000000,   0.11600,
,,,0.453828000000,   0.11560,
,,,0.453832000000,   0.11560,
,,,0.453836000000,   0.11600,
,,,0.453840000000,   0.11560,
,,,0.453844000000,   0.11640,
,,,0.453848000000,   0.11520,
,,,0.453852000000,   0.11600,
,,,0.453856000000,   0.11560,
,,,0.453860000000,   0.11600,
,,,0.453864000000,   0.11640,
,,,0.453868000000,   0.11520,
,,,0.453872000000,   0.11560,
,,,0.453876000000,   0.11560,
,,,0.453880000000,   0.11480,
,,,0.453884000000,   0.11560,
,,,0.453888000000,   0.11520,
,,,0.453892000000,   0.11520,
,,,0.453896000000,   0.11560,
,,,0.453900000000,   0.11600,
,,,0.453904000000,   0.11480,
,,,0.453908000000,   0.11720,
,,,0.453912000000,   0.11640,
,,,0.453916000000,   0.11480,
,,,0.453920000000,   0.11600,
,,,0.453924000000,   0.11560,
,,,0.453928000000,   0.11640,
,,,0.453932000000,   0.11520,
,,,0.453936000000,   0.11600,
,,,0.453940000000,   0.11560,
,,,0.453944000000,   0.11560,
,,,0.453948000000,   0.11480,
,,,0.453952000000,   0.11640,
,,,0.453956000000,   0.11520,
,,,0.453960000000,   0.11600,
,,,0.453964000000,   0.11520,
,,,0.453968000000,   0.11520,
,,,0.453972000000,   0.11560,
,,,0.453976000000,   0.11520,
,,,0.453980000000,   0.11520,
,,,0.453984000000,   0.11560,
,,,0.453988000000,   0.11520,
,,,0.453992000000,   0.11440,
,,,0.453996000000,   0.11520,
,,,0.454000000000,   0.11480,
,,,0.454004000000,   0.11560,
,,,0.454008000000,   0.11400,
,,,0.454012000000,   0.11560,
,,,0.454016000000,   0.11560,
,,,0.454020000000,   0.11520,
,,,0.454024000000,   0.11480,
,,,0.454028000000,   0.11600,
,,,0.454032000000,   0.11480,
,,,0.454036000000,   0.11440,
,,,0.454040000000,   0.11520,
,,,0.454044000000,   0.11480,
,,,0.454048000000,   0.11520,
,,,0.454052000000,   0.11480,
,,,0.454056000000,   0.11440,
,,,0.454060000000,   0.11400,
,,,0.454064000000,   0.11440,
,,,0.454068000000,   0.11480,
,,,0.454072000000,   0.11480,
,,,0.454076000000,   0.11400,
,,,0.454080000000,   0.11520,
,,,0.454084000000,   0.11560,
,,,0.454088000000,   0.11400,
,,,0.454092000000,   0.11480,
,,,0.454096000000,   0.11480,
,,,0.454100000000,   0.11480,
,,,0.454104000000,   0.11560,
,,,0.454108000000,   0.11520,
,,,0.454112000000,   0.11520,
,,,0.454116000000,   0.11480,
,,,0.454120000000,   0.11560,
,,,0.454124000000,   0.11560,
,,,0.454128000000,   0.11560,
,,,0.454132000000,   0.11480,
,,,0.454136000000,   0.11440,
,,,0.454140000000,   0.11440,
,,,0.454144000000,   0.11400,
,,,0.454148000000,   0.11520,
,,,0.454152000000,   0.11440,
,,,0.454156000000,   0.11600,
,,,0.454160000000,   0.11520,
,,,0.454164000000,   0.11480,
,,,0.454168000000,   0.11480,
,,,0.454172000000,   0.11480,
,,,0.454176000000,   0.11480,
,,,0.454180000000,   0.11480,
,,,0.454184000000,   0.11480,
,,,0.454188000000,   0.11440,
,,,0.454192000000,   0.11440,
,,,0.454196000000,   0.11520,
,,,0.454200000000,   0.11480,
,,,0.454204000000,   0.11400,
,,,0.454208000000,   0.11440,
,,,0.454212000000,   0.11480,
,,,0.454216000000,   0.11400,
,,,0.454220000000,   0.11440,
,,,0.454224000000,   0.11440,
,,,0.454228000000,   0.11440,
,,,0.454232000000,   0.11440,
,,,0.454236000000,   0.11440,
,,,0.454240000000,   0.11520,
,,,0.454244000000,   0.11320,
,,,0.454248000000,   0.11520,
,,,0.454252000000,   0.11440,
,,,0.454256000000,   0.11480,
,,,0.454260000000,   0.11360,
,,,0.454264000000,   0.11520,
,,,0.454268000000,   0.11440,
,,,0.454272000000,   0.11400,
,,,0.454276000000,   0.11400,
,,,0.454280000000,   0.11400,
,,,0.454284000000,   0.11360,
,,,0.454288000000,   0.11440,
,,,0.454292000000,   0.11480,
,,,0.454296000000,   0.11360,
,,,0.454300000000,   0.11480,
,,,0.454304000000,   0.11400,
,,,0.454308000000,   0.11480,
,,,0.454312000000,   0.11480,
,,,0.454316000000,   0.11480,
,,,0.454320000000,   0.11400,
,,,0.454324000000,   0.11440,
,,,0.454328000000,   0.11400,
,,,0.454332000000,   0.11480,
,,,0.454336000000,   0.11440,
,,,0.454340000000,   0.11440,
,,,0.454344000000,   0.11400,
,,,0.454348000000,   0.11320,
,,,0.454352000000,   0.11440,
,,,0.454356000000,   0.11480,
,,,0.454360000000,   0.11400,
,,,0.454364000000,   0.11280,
,,,0.454368000000,   0.11360,
,,,0.454372000000,   0.11360,
,,,0.454376000000,   0.11440,
,,,0.454380000000,   0.11440,
,,,0.454384000000,   0.11440,
,,,0.454388000000,   0.11400,
,,,0.454392000000,   0.11360,
,,,0.454396000000,   0.11360,
,,,0.454400000000,   0.11400,
,,,0.454404000000,   0.11360,
,,,0.454408000000,   0.11440,
,,,0.454412000000,   0.11400,
,,,0.454416000000,   0.11400,
,,,0.454420000000,   0.11280,
,,,0.454424000000,   0.11400,
,,,0.454428000000,   0.11320,
,,,0.454432000000,   0.11360,
,,,0.454436000000,   0.11400,
,,,0.454440000000,   0.11320,
,,,0.454444000000,   0.11360,
,,,0.454448000000,   0.11400,
,,,0.454452000000,   0.11400,
,,,0.454456000000,   0.11360,
,,,0.454460000000,   0.11320,
,,,0.454464000000,   0.11200,
,,,0.454468000000,   0.11400,
,,,0.454472000000,   0.11440,
,,,0.454476000000,   0.11360,
,,,0.454480000000,   0.11320,
,,,0.454484000000,   0.11320,
,,,0.454488000000,   0.11240,
,,,0.454492000000,   0.11400,
,,,0.454496000000,   0.11400,
,,,0.454500000000,   0.11280,
,,,0.454504000000,   0.11400,
,,,0.454508000000,   0.11400,
,,,0.454512000000,   0.11280,
,,,0.454516000000,   0.11320,
,,,0.454520000000,   0.11320,
,,,0.454524000000,   0.11320,
,,,0.454528000000,   0.11240,
,,,0.454532000000,   0.11280,
,,,0.454536000000,   0.11360,
,,,0.454540000000,   0.11400,
,,,0.454544000000,   0.11440,
,,,0.454548000000,   0.11320,
,,,0.454552000000,   0.11320,
,,,0.454556000000,   0.11200,
,,,0.454560000000,   0.11360,
,,,0.454564000000,   0.11280,
,,,0.454568000000,   0.11320,
,,,0.454572000000,   0.11240,
,,,0.454576000000,   0.11280,
,,,0.454580000000,   0.11280,
,,,0.454584000000,   0.11400,
,,,0.454588000000,   0.11320,
,,,0.454592000000,   0.11480,
,,,0.454596000000,   0.11280,
,,,0.454600000000,   0.11280,
,,,0.454604000000,   0.11360,
,,,0.454608000000,   0.11280,
,,,0.454612000000,   0.11200,
,,,0.454616000000,   0.11360,
,,,0.454620000000,   0.11280,
,,,0.454624000000,   0.11440,
,,,0.454628000000,   0.11280,
,,,0.454632000000,   0.11320,
,,,0.454636000000,   0.11280,
,,,0.454640000000,   0.11240,
,,,0.454644000000,   0.11280,
,,,0.454648000000,   0.11160,
,,,0.454652000000,   0.11240,
,,,0.454656000000,   0.11280,
,,,0.454660000000,   0.11320,
,,,0.454664000000,   0.11360,
,,,0.454668000000,   0.11280,
,,,0.454672000000,   0.11280,
,,,0.454676000000,   0.11200,
,,,0.454680000000,   0.11200,
,,,0.454684000000,   0.11240,
,,,0.454688000000,   0.11280,
,,,0.454692000000,   0.11320,
,,,0.454696000000,   0.11320,
,,,0.454700000000,   0.11320,
,,,0.454704000000,   0.11360,
,,,0.454708000000,   0.11280,
,,,0.454712000000,   0.11280,
,,,0.454716000000,   0.11200,
,,,0.454720000000,   0.11280,
,,,0.454724000000,   0.11320,
,,,0.454728000000,   0.11160,
,,,0.454732000000,   0.11360,
,,,0.454736000000,   0.11240,
,,,0.454740000000,   0.11280,
,,,0.454744000000,   0.11280,
,,,0.454748000000,   0.11280,
,,,0.454752000000,   0.11320,
,,,0.454756000000,   0.11200,
,,,0.454760000000,   0.11240,
,,,0.454764000000,   0.11280,
,,,0.454768000000,   0.11200,
,,,0.454772000000,   0.11240,
,,,0.454776000000,   0.11280,
,,,0.454780000000,   0.11240,
,,,0.454784000000,   0.11320,
,,,0.454788000000,   0.11240,
,,,0.454792000000,   0.11240,
,,,0.454796000000,   0.11160,
,,,0.454800000000,   0.11280,
,,,0.454804000000,   0.11160,
,,,0.454808000000,   0.11200,
,,,0.454812000000,   0.11200,
,,,0.454816000000,   0.11240,
,,,0.454820000000,   0.11320,
,,,0.454824000000,   0.11160,
,,,0.454828000000,   0.11240,
,,,0.454832000000,   0.11240,
,,,0.454836000000,   0.11200,
,,,0.454840000000,   0.11160,
,,,0.454844000000,   0.11240,
,,,0.454848000000,   0.11240,
,,,0.454852000000,   0.11200,
,,,0.454856000000,   0.11200,
,,,0.454860000000,   0.11160,
,,,0.454864000000,   0.11240,
,,,0.454868000000,   0.11120,
,,,0.454872000000,   0.11160,
,,,0.454876000000,   0.11160,
,,,0.454880000000,   0.11120,
,,,0.454884000000,   0.11240,
,,,0.454888000000,   0.11240,
,,,0.454892000000,   0.11240,
,,,0.454896000000,   0.11200,
,,,0.454900000000,   0.11120,
,,,0.454904000000,   0.11160,
,,,0.454908000000,   0.11160,
,,,0.454912000000,   0.11240,
,,,0.454916000000,   0.11160,
,,,0.454920000000,   0.11120,
,,,0.454924000000,   0.11160,
,,,0.454928000000,   0.11200,
,,,0.454932000000,   0.11160,
,,,0.454936000000,   0.11080,
,,,0.454940000000,   0.11080,
,,,0.454944000000,   0.11240,
,,,0.454948000000,   0.11160,
,,,0.454952000000,   0.11240,
,,,0.454956000000,   0.11160,
,,,0.454960000000,   0.11160,
,,,0.454964000000,   0.11160,
,,,0.454968000000,   0.11160,
,,,0.454972000000,   0.11200,
,,,0.454976000000,   0.11120,
,,,0.454980000000,   0.11080,
,,,0.454984000000,   0.11120,
,,,0.454988000000,   0.11160,
,,,0.454992000000,   0.11200,
,,,0.454996000000,   0.11160,
,,,0.455000000000,   0.11280,
,,,0.455004000000,   0.11120,
,,,0.455008000000,   0.11280,
,,,0.455012000000,   0.11160,
,,,0.455016000000,   0.11160,
,,,0.455020000000,   0.11120,
,,,0.455024000000,   0.11120,
,,,0.455028000000,   0.11160,
,,,0.455032000000,   0.11160,
,,,0.455036000000,   0.11080,
,,,0.455040000000,   0.11160,
,,,0.455044000000,   0.11160,
,,,0.455048000000,   0.11040,
,,,0.455052000000,   0.11080,
,,,0.455056000000,   0.11160,
,,,0.455060000000,   0.11160,
,,,0.455064000000,   0.11160,
,,,0.455068000000,   0.10960,
,,,0.455072000000,   0.11080,
,,,0.455076000000,   0.11120,
,,,0.455080000000,   0.11080,
,,,0.455084000000,   0.11160,
,,,0.455088000000,   0.11160,
,,,0.455092000000,   0.11120,
,,,0.455096000000,   0.11160,
,,,0.455100000000,   0.11160,
,,,0.455104000000,   0.11120,
,,,0.455108000000,   0.11080,
,,,0.455112000000,   0.11080,
,,,0.455116000000,   0.11000,
,,,0.455120000000,   0.11160,
,,,0.455124000000,   0.11040,
,,,0.455128000000,   0.11080,
,,,0.455132000000,   0.11080,
,,,0.455136000000,   0.11080,
,,,0.455140000000,   0.11080,
,,,0.455144000000,   0.11080,
,,,0.455148000000,   0.11040,
,,,0.455152000000,   0.11120,
,,,0.455156000000,   0.11080,
,,,0.455160000000,   0.11040,
,,,0.455164000000,   0.11080,
,,,0.455168000000,   0.11000,
,,,0.455172000000,   0.11040,
,,,0.455176000000,   0.11120,
,,,0.455180000000,   0.11000,
,,,0.455184000000,   0.11120,
,,,0.455188000000,   0.11040,
,,,0.455192000000,   0.11080,
,,,0.455196000000,   0.11040,
,,,0.455200000000,   0.10960,
,,,0.455204000000,   0.11040,
,,,0.455208000000,   0.11000,
,,,0.455212000000,   0.11040,
,,,0.455216000000,   0.11080,
,,,0.455220000000,   0.11120,
,,,0.455224000000,   0.11000,
,,,0.455228000000,   0.11000,
,,,0.455232000000,   0.11080,
,,,0.455236000000,   0.10960,
,,,0.455240000000,   0.11000,
,,,0.455244000000,   0.11200,
,,,0.455248000000,   0.11040,
,,,0.455252000000,   0.11080,
,,,0.455256000000,   0.10960,
,,,0.455260000000,   0.10960,
,,,0.455264000000,   0.11000,
,,,0.455268000000,   0.11080,
,,,0.455272000000,   0.10960,
,,,0.455276000000,   0.11040,
,,,0.455280000000,   0.11040,
,,,0.455284000000,   0.11120,
,,,0.455288000000,   0.11040,
,,,0.455292000000,   0.10920,
,,,0.455296000000,   0.10920,
,,,0.455300000000,   0.11000,
,,,0.455304000000,   0.11040,
,,,0.455308000000,   0.11040,
,,,0.455312000000,   0.11040,
