Measurements/Measurements day 1/Dip in spectrum dual laser setup/F0003CH1.CSV

Record Length,2.500000e+03,,   0.331200000000,   0.09000,
Sample Interval,4.000000e-06,,   0.331204000000,   0.08960,
Trigger Point,-8.280000000000e+04,,   0.331208000000,   0.09000,
,,,   0.331212000000,   0.09120,
,,,   0.331216000000,   0.08960,
,,,   0.331220000000,   0.09000,
Source,CH1,,   0.331224000000,   0.08960,
Vertical Units,V,,   0.331228000000,   0.08920,
Vertical Scale,1.000000e-02,,   0.331232000000,   0.09080,
Vertical Offset,-1.048000e-01,,   0.331236000000,   0.08960,
Horizontal Units,s,,   0.331240000000,   0.09000,
Horizontal Scale,1.000000e-03,,   0.331244000000,   0.09000,
Pt Fmt,Y,,   0.331248000000,   0.08920,
Yzero,0.000000e+00,,   0.331252000000,   0.09080,
Probe Atten,1.000000e+00,,   0.331256000000,   0.08960,
Model Number,TDS2024B,,   0.331260000000,   0.09040,
Serial Number,C104833,,   0.331264000000,   0.09000,
Firmware Version,FV:v24.02,,   0.331268000000,   0.09000,
,,,0.331272000000,   0.08920,
,,,0.331276000000,   0.08960,
,,,0.331280000000,   0.09040,
,,,0.331284000000,   0.09040,
,,,0.331288000000,   0.09000,
,,,0.331292000000,   0.09000,
,,,0.331296000000,   0.09040,
,,,0.331300000000,   0.09000,
,,,0.331304000000,   0.09040,
,,,0.331308000000,   0.09080,
,,,0.331312000000,   0.09040,
,,,0.331316000000,   0.08880,
,,,0.331320000000,   0.08960,
,,,0.331324000000,   0.09080,
,,,0.331328000000,   0.09040,
,,,0.331332000000,   0.08920,
,,,0.331336000000,   0.09000,
,,,0.331340000000,   0.08960,
,,,0.331344000000,   0.09160,
,,,0.331348000000,   0.08880,
,,,0.331352000000,   0.09080,
,,,0.331356000000,   0.09000,
,,,0.331360000000,   0.09040,
,,,0.331364000000,   0.09000,
,,,0.331368000000,   0.09080,
,,,0.331372000000,   0.08960,
,,,0.331376000000,   0.09040,
,,,0.331380000000,   0.09120,
,,,0.331384000000,   0.09000,
,,,0.331388000000,   0.09000,
,,,0.331392000000,   0.08960,
,,,0.331396000000,   0.09040,
,,,0.331400000000,   0.09000,
,,,0.331404000000,   0.09080,
,,,0.331408000000,   0.09040,
,,,0.331412000000,   0.09080,
,,,0.331416000000,   0.09040,
,,,0.331420000000,   0.09000,
,,,0.331424000000,   0.09080,
,,,0.331428000000,   0.09160,
,,,0.331432000000,   0.09120,
,,,0.331436000000,   0.08960,
,,,0.331440000000,   0.09040,
,,,0.331444000000,   0.09120,
,,,0.331448000000,   0.09160,
,,,0.331452000000,   0.09080,
,,,0.331456000000,   0.09160,
,,,0.331460000000,   0.09080,
,,,0.331464000000,   0.09080,
,,,0.331468000000,   0.09080,
,,,0.331472000000,   0.08960,
,,,0.331476000000,   0.09040,
,,,0.331480000000,   0.09080,
,,,0.331484000000,   0.09080,
,,,0.331488000000,   0.09120,
,,,0.331492000000,   0.09120,
,,,0.331496000000,   0.09040,
,,,0.331500000000,   0.09040,
,,,0.331504000000,   0.09080,
,,,0.331508000000,   0.09160,
,,,0.331512000000,   0.09040,
,,,0.331516000000,   0.09080,
,,,0.331520000000,   0.09000,
,,,0.331524000000,   0.09080,
,,,0.331528000000,   0.09080,
,,,0.331532000000,   0.09000,
,,,0.331536000000,   0.09080,
,,,0.331540000000,   0.09120,
,,,0.331544000000,   0.09160,
,,,0.331548000000,   0.09040,
,,,0.331552000000,   0.09080,
,,,0.331556000000,   0.09080,
,,,0.331560000000,   0.09040,
,,,0.331564000000,   0.09120,
,,,0.331568000000,   0.09080,
,,,0.331572000000,   0.09000,
,,,0.331576000000,   0.09000,
,,,0.331580000000,   0.09160,
,,,0.331584000000,   0.09160,
,,,0.331588000000,   0.09080,
,,,0.331592000000,   0.09040,
,,,0.331596000000,   0.09040,
,,,0.331600000000,   0.09080,
,,,0.331604000000,   0.08960,
,,,0.331608000000,   0.09120,
,,,0.331612000000,   0.09080,
,,,0.331616000000,   0.09160,
,,,0.331620000000,   0.09160,
,,,0.331624000000,   0.09080,
,,,0.331628000000,   0.09120,
,,,0.331632000000,   0.09080,
,,,0.331636000000,   0.09080,
,,,0.331640000000,   0.09120,
,,,0.331644000000,   0.09080,
,,,0.331648000000,   0.09080,
,,,0.331652000000,   0.09160,
,,,0.331656000000,   0.09160,
,,,0.331660000000,   0.09200,
,,,0.331664000000,   0.09120,
,,,0.331668000000,   0.09160,
,,,0.331672000000,   0.09120,
,,,0.331676000000,   0.09080,
,,,0.331680000000,   0.09120,
,,,0.331684000000,   0.09120,
,,,0.331688000000,   0.09040,
,,,0.331692000000,   0.09120,
,,,0.331696000000,   0.09120,
,,,0.331700000000,   0.09160,
,,,0.331704000000,   0.09040,
,,,0.331708000000,   0.09160,
,,,0.331712000000,   0.09080,
,,,0.331716000000,   0.09160,
,,,0.331720000000,   0.09080,
,,,0.331724000000,   0.09120,
,,,0.331728000000,   0.09240,
,,,0.331732000000,   0.09200,
,,,0.331736000000,   0.09120,
,,,0.331740000000,   0.09080,
,,,0.331744000000,   0.09040,
,,,0.331748000000,   0.09000,
,,,0.331752000000,   0.09120,
,,,0.331756000000,   0.09080,
,,,0.331760000000,   0.09120,
,,,0.331764000000,   0.09160,
,,,0.331768000000,   0.09120,
,,,0.331772000000,   0.09160,
,,,0.331776000000,   0.09160,
,,,0.331780000000,   0.09080,
,,,0.331784000000,   0.09080,
,,,0.331788000000,   0.09080,
,,,0.331792000000,   0.09160,
,,,0.331796000000,   0.09120,
,,,0.331800000000,   0.09120,
,,,0.331804000000,   0.09120,
,,,0.331808000000,   0.09120,
,,,0.331812000000,   0.09080,
,,,0.331816000000,   0.09040,
,,,0.331820000000,   0.09200,
,,,0.331824000000,   0.09120,
,,,0.331828000000,   0.09240,
,,,0.331832000000,   0.09040,
,,,0.331836000000,   0.09160,
,,,0.331840000000,   0.09240,
,,,0.331844000000,   0.09160,
,,,0.331848000000,   0.09080,
,,,0.331852000000,   0.09040,
,,,0.331856000000,   0.09160,
,,,0.331860000000,   0.09080,
,,,0.331864000000,   0.09160,
,,,0.331868000000,   0.09120,
,,,0.331872000000,   0.09080,
,,,0.331876000000,   0.09200,
,,,0.331880000000,   0.09080,
,,,0.331884000000,   0.09040,
,,,0.331888000000,   0.09160,
,,,0.331892000000,   0.09160,
,,,0.331896000000,   0.09160,
,,,0.331900000000,   0.09120,
,,,0.331904000000,   0.09120,
,,,0.331908000000,   0.09040,
,,,0.331912000000,   0.09120,
,,,0.331916000000,   0.09160,
,,,0.331920000000,   0.09200,
,,,0.331924000000,   0.09160,
,,,0.331928000000,   0.09080,
,,,0.331932000000,   0.09120,
,,,0.331936000000,   0.09160,
,,,0.331940000000,   0.09160,
,,,0.331944000000,   0.09160,
,,,0.331948000000,   0.09080,
,,,0.331952000000,   0.09040,
,,,0.331956000000,   0.09160,
,,,0.331960000000,   0.09200,
,,,0.331964000000,   0.09080,
,,,0.331968000000,   0.09040,
,,,0.331972000000,   0.09120,
,,,0.331976000000,   0.09200,
,,,0.331980000000,   0.09240,
,,,0.331984000000,   0.09040,
,,,0.331988000000,   0.09080,
,,,0.331992000000,   0.09080,
,,,0.331996000000,   0.09040,
,,,0.332000000000,   0.09080,
,,,0.332004000000,   0.09080,
,,,0.332008000000,   0.09080,
,,,0.332012000000,   0.09080,
,,,0.332016000000,   0.09160,
,,,0.332020000000,   0.09080,
,,,0.332024000000,   0.09120,
,,,0.332028000000,   0.09080,
,,,0.332032000000,   0.09160,
,,,0.332036000000,   0.09160,
,,,0.332040000000,   0.09080,
,,,0.332044000000,   0.09080,
,,,0.332048000000,   0.09080,
,,,0.332052000000,   0.09080,
,,,0.332056000000,   0.09120,
,,,0.332060000000,   0.09040,
,,,0.332064000000,   0.09120,
,,,0.332068000000,   0.09160,
,,,0.332072000000,   0.09080,
,,,0.332076000000,   0.09080,
,,,0.332080000000,   0.09160,
,,,0.332084000000,   0.09120,
,,,0.332088000000,   0.09160,
,,,0.332092000000,   0.09040,
,,,0.332096000000,   0.09200,
,,,0.332100000000,   0.09160,
,,,0.332104000000,   0.09120,
,,,0.332108000000,   0.09080,
,,,0.332112000000,   0.09120,
,,,0.332116000000,   0.09040,
,,,0.332120000000,   0.09080,
,,,0.332124000000,   0.09160,
,,,0.332128000000,   0.09120,
,,,0.332132000000,   0.09080,
,,,0.332136000000,   0.08960,
,,,0.332140000000,   0.09120,
,,,0.332144000000,   0.09040,
,,,0.332148000000,   0.09080,
,,,0.332152000000,   0.09040,
,,,0.332156000000,   0.09120,
,,,0.332160000000,   0.09160,
,,,0.332164000000,   0.09120,
,,,0.332168000000,   0.09080,
,,,0.332172000000,   0.09040,
,,,0.332176000000,   0.09080,
,,,0.332180000000,   0.09080,
,,,0.332184000000,   0.09080,
,,,0.332188000000,   0.09000,
,,,0.332192000000,   0.09040,
,,,0.332196000000,   0.09160,
,,,0.332200000000,   0.09080,
,,,0.332204000000,   0.09120,
,,,0.332208000000,   0.09120,
,,,0.332212000000,   0.09120,
,,,0.332216000000,   0.09120,
,,,0.332220000000,   0.09080,
,,,0.332224000000,   0.09000,
,,,0.332228000000,   0.09000,
,,,0.332232000000,   0.09080,
,,,0.332236000000,   0.09080,
,,,0.332240000000,   0.09240,
,,,0.332244000000,   0.09040,
,,,0.332248000000,   0.09080,
,,,0.332252000000,   0.09080,
,,,0.332256000000,   0.09080,
,,,0.332260000000,   0.09080,
,,,0.332264000000,   0.09080,
,,,0.332268000000,   0.09080,
,,,0.332272000000,   0.09160,
,,,0.332276000000,   0.09120,
,,,0.332280000000,   0.09160,
,,,0.332284000000,   0.09080,
,,,0.332288000000,   0.09160,
,,,0.332292000000,   0.09080,
,,,0.332296000000,   0.09040,
,,,0.332300000000,   0.08960,
,,,0.332304000000,   0.09120,
,,,0.332308000000,   0.09040,
,,,0.332312000000,   0.09120,
,,,0.332316000000,   0.08960,
,,,0.332320000000,   0.09080,
,,,0.332324000000,   0.09000,
,,,0.332328000000,   0.09080,
,,,0.332332000000,   0.09040,
,,,0.332336000000,   0.09200,
,,,0.332340000000,   0.09000,
,,,0.332344000000,   0.09040,
,,,0.332348000000,   0.09040,
,,,0.332352000000,   0.09120,
,,,0.332356000000,   0.09080,
,,,0.332360000000,   0.09080,
,,,0.332364000000,   0.08960,
,,,0.332368000000,   0.09080,
,,,0.332372000000,   0.09080,
,,,0.332376000000,   0.09040,
,,,0.332380000000,   0.09120,
,,,0.332384000000,   0.09000,
,,,0.332388000000,   0.09160,
,,,0.332392000000,   0.09080,
,,,0.332396000000,   0.09120,
,,,0.332400000000,   0.09080,
,,,0.332404000000,   0.09040,
,,,0.332408000000,   0.09000,
,,,0.332412000000,   0.09040,
,,,0.332416000000,   0.08960,
,,,0.332420000000,   0.08960,
,,,0.332424000000,   0.09040,
,,,0.332428000000,   0.09000,
,,,0.332432000000,   0.08960,
,,,0.332436000000,   0.09000,
,,,0.332440000000,   0.09080,
,,,0.332444000000,   0.08960,
,,,0.332448000000,   0.09120,
,,,0.332452000000,   0.09040,
,,,0.332456000000,   0.09120,
,,,0.332460000000,   0.09040,
,,,0.332464000000,   0.09000,
,,,0.332468000000,   0.09080,
,,,0.332472000000,   0.09080,
,,,0.332476000000,   0.09040,
,,,0.332480000000,   0.09120,
,,,0.332484000000,   0.09040,
,,,0.332488000000,   0.08960,
,,,0.332492000000,   0.09040,
,,,0.332496000000,   0.09000,
,,,0.332500000000,   0.09080,
,,,0.332504000000,   0.08920,
,,,0.332508000000,   0.09040,
,,,0.332512000000,   0.08960,
,,,0.332516000000,   0.08880,
,,,0.332520000000,   0.08960,
,,,0.332524000000,   0.08960,
,,,0.332528000000,   0.08880,
,,,0.332532000000,   0.08960,
,,,0.332536000000,   0.09040,
,,,0.332540000000,   0.08960,
,,,0.332544000000,   0.08960,
,,,0.332548000000,   0.08920,
,,,0.332552000000,   0.08960,
,,,0.332556000000,   0.08880,
,,,0.332560000000,   0.09040,
,,,0.332564000000,   0.08880,
,,,0.332568000000,   0.09080,
,,,0.332572000000,   0.08960,
,,,0.332576000000,   0.08960,
,,,0.332580000000,   0.08960,
,,,0.332584000000,   0.08920,
,,,0.332588000000,   0.08920,
,,,0.332592000000,   0.08960,
,,,0.332596000000,   0.09120,
,,,0.332600000000,   0.08960,
,,,0.332604000000,   0.08960,
,,,0.332608000000,   0.09000,
,,,0.332612000000,   0.08960,
,,,0.332616000000,   0.08920,
,,,0.332620000000,   0.08920,
,,,0.332624000000,   0.08880,
,,,0.332628000000,   0.08960,
,,,0.332632000000,   0.09000,
,,,0.332636000000,   0.08840,
,,,0.332640000000,   0.08960,
,,,0.332644000000,   0.08920,
,,,0.332648000000,   0.08960,
,,,0.332652000000,   0.08920,
,,,0.332656000000,   0.08920,
,,,0.332660000000,   0.08880,
,,,0.332664000000,   0.08960,
,,,0.332668000000,   0.08800,
,,,0.332672000000,   0.09000,
,,,0.332676000000,   0.08800,
,,,0.332680000000,   0.08920,
,,,0.332684000000,   0.08920,
,,,0.332688000000,   0.08880,
,,,0.332692000000,   0.08920,
,,,0.332696000000,   0.08840,
,,,0.332700000000,   0.08840,
,,,0.332704000000,   0.08920,
,,,0.332708000000,   0.08880,
,,,0.332712000000,   0.08920,
,,,0.332716000000,   0.08880,
,,,0.332720000000,   0.08840,
,,,0.332724000000,   0.08880,
,,,0.332728000000,   0.08880,
,,,0.332732000000,   0.08960,
,,,0.332736000000,   0.08760,
,,,0.332740000000,   0.08960,
,,,0.332744000000,   0.08840,
,,,0.332748000000,   0.08880,
,,,0.332752000000,   0.08920,
,,,0.332756000000,   0.08760,
,,,0.332760000000,   0.08920,
,,,0.332764000000,   0.08960,
,,,0.332768000000,   0.08880,
,,,0.332772000000,   0.08800,
,,,0.332776000000,   0.08840,
,,,0.332780000000,   0.08760,
,,,0.332784000000,   0.08920,
,,,0.332788000000,   0.08760,
,,,0.332792000000,   0.08840,
,,,0.332796000000,   0.08760,
,,,0.332800000000,   0.08800,
,,,0.332804000000,   0.08840,
,,,0.332808000000,   0.08720,
,,,0.332812000000,   0.08840,
,,,0.332816000000,   0.08760,
,,,0.332820000000,   0.08920,
,,,0.332824000000,   0.08760,
,,,0.332828000000,   0.08760,
,,,0.332832000000,   0.08880,
,,,0.332836000000,   0.08760,
,,,0.332840000000,   0.08760,
,,,0.332844000000,   0.08840,
,,,0.332848000000,   0.08840,
,,,0.332852000000,   0.08760,
,,,0.332856000000,   0.08760,
,,,0.332860000000,   0.08760,
,,,0.332864000000,   0.08800,
,,,0.332868000000,   0.08760,
,,,0.332872000000,   0.08640,
,,,0.332876000000,   0.08800,
,,,0.332880000000,   0.08720,
,,,0.332884000000,   0.08880,
,,,0.332888000000,   0.08760,
,,,0.332892000000,   0.08760,
,,,0.332896000000,   0.08760,
,,,0.332900000000,   0.08720,
,,,0.332904000000,   0.08720,
,,,0.332908000000,   0.08640,
,,,0.332912000000,   0.08760,
,,,0.332916000000,   0.08680,
,,,0.332920000000,   0.08760,
,,,0.332924000000,   0.08840,
,,,0.332928000000,   0.08760,
,,,0.332932000000,   0.08640,
,,,0.332936000000,   0.08640,
,,,0.332940000000,   0.08640,
,,,0.332944000000,   0.08680,
,,,0.332948000000,   0.08800,
,,,0.332952000000,   0.08560,
,,,0.332956000000,   0.08680,
,,,0.332960000000,   0.08640,
,,,0.332964000000,   0.08760,
,,,0.332968000000,   0.08680,
,,,0.332972000000,   0.08720,
,,,0.332976000000,   0.08600,
,,,0.332980000000,   0.08640,
,,,0.332984000000,   0.08800,
,,,0.332988000000,   0.08520,
,,,0.332992000000,   0.08720,
,,,0.332996000000,   0.08480,
,,,0.333000000000,   0.08760,
,,,0.333004000000,   0.08720,
,,,0.333008000000,   0.08720,
,,,0.333012000000,   0.08720,
,,,0.333016000000,   0.08520,
,,,0.333020000000,   0.08600,
,,,0.333024000000,   0.08600,
,,,0.333028000000,   0.08720,
,,,0.333032000000,   0.08600,
,,,0.333036000000,   0.08600,
,,,0.333040000000,   0.08640,
,,,0.333044000000,   0.08640,
,,,0.333048000000,   0.08600,
,,,0.333052000000,   0.08600,
,,,0.333056000000,   0.08560,
,,,0.333060000000,   0.08680,
,,,0.333064000000,   0.08560,
,,,0.333068000000,   0.08640,
,,,0.333072000000,   0.08560,
,,,0.333076000000,   0.08520,
,,,0.333080000000,   0.08640,
,,,0.333084000000,   0.08600,
,,,0.333088000000,   0.08600,
,,,0.333092000000,   0.08520,
,,,0.333096000000,   0.08560,
,,,0.333100000000,   0.08560,
,,,0.333104000000,   0.08520,
,,,0.333108000000,   0.08480,
,,,0.333112000000,   0.08600,
,,,0.333116000000,   0.08560,
,,,0.333120000000,   0.08480,
,,,0.333124000000,   0.08520,
,,,0.333128000000,   0.08640,
,,,0.333132000000,   0.08480,
,,,0.333136000000,   0.08560,
,,,0.333140000000,   0.08480,
,,,0.333144000000,   0.08560,
,,,0.333148000000,   0.08560,
,,,0.333152000000,   0.08520,
,,,0.333156000000,   0.08480,
,,,0.333160000000,   0.08520,
,,,0.333164000000,   0.08480,
,,,0.333168000000,   0.08560,
,,,0.333172000000,   0.08440,
,,,0.333176000000,   0.08560,
,,,0.333180000000,   0.08400,
,,,0.333184000000,   0.08480,
,,,0.333188000000,   0.08520,
,,,0.333192000000,   0.08520,
,,,0.333196000000,   0.08440,
,,,0.333200000000,   0.08480,
,,,0.333204000000,   0.08480,
,,,0.333208000000,   0.08400,
,,,0.333212000000,   0.08480,
,,,0.333216000000,   0.08560,
,,,0.333220000000,   0.08480,
,,,0.333224000000,   0.08480,
,,,0.333228000000,   0.08440,
,,,0.333232000000,   0.08440,
,,,0.333236000000,   0.08480,
,,,0.333240000000,   0.08440,
,,,0.333244000000,   0.08480,
,,,0.333248000000,   0.08480,
,,,0.333252000000,   0.08520,
,,,0.333256000000,   0.08280,
,,,0.333260000000,   0.08440,
,,,0.333264000000,   0.08480,
,,,0.333268000000,   0.08360,
,,,0.333272000000,   0.08440,
,,,0.333276000000,   0.08520,
,,,0.333280000000,   0.08440,
,,,0.333284000000,   0.08440,
,,,0.333288000000,   0.08320,
,,,0.333292000000,   0.08360,
,,,0.333296000000,   0.08360,
,,,0.333300000000,   0.08360,
,,,0.333304000000,   0.08360,
,,,0.333308000000,   0.08360,
,,,0.333312000000,   0.08400,
,,,0.333316000000,   0.08400,
,,,0.333320000000,   0.08360,
,,,0.333324000000,   0.08400,
,,,0.333328000000,   0.08320,
,,,0.333332000000,   0.08360,
,,,0.333336000000,   0.08400,
,,,0.333340000000,   0.08400,
,,,0.333344000000,   0.08440,
,,,0.333348000000,   0.08320,
,,,0.333352000000,   0.08360,
,,,0.333356000000,   0.08280,
,,,0.333360000000,   0.08360,
,,,0.333364000000,   0.08440,
,,,0.333368000000,   0.08280,
,,,0.333372000000,   0.08360,
,,,0.333376000000,   0.08200,
,,,0.333380000000,   0.08360,
,,,0.333384000000,   0.08240,
,,,0.333388000000,   0.08280,
,,,0.333392000000,   0.08280,
,,,0.333396000000,   0.08280,
,,,0.333400000000,   0.08280,
,,,0.333404000000,   0.08280,
,,,0.333408000000,   0.08320,
,,,0.333412000000,   0.08280,
,,,0.333416000000,   0.08240,
,,,0.333420000000,   0.08280,
,,,0.333424000000,   0.08280,
,,,0.333428000000,   0.08320,
,,,0.333432000000,   0.08240,
,,,0.333436000000,   0.08200,
,,,0.333440000000,   0.08120,
,,,0.333444000000,   0.08240,
,,,0.333448000000,   0.08080,
,,,0.333452000000,   0.08120,
,,,0.333456000000,   0.08240,
,,,0.333460000000,   0.08240,
,,,0.333464000000,   0.08200,
,,,0.333468000000,   0.08080,
,,,0.333472000000,   0.08160,
,,,0.333476000000,   0.08160,
,,,0.333480000000,   0.08120,
,,,0.333484000000,   0.08160,
,,,0.333488000000,   0.08280,
,,,0.333492000000,   0.08160,
,,,0.333496000000,   0.08200,
,,,0.333500000000,   0.08120,
,,,0.333504000000,   0.08240,
,,,0.333508000000,   0.08200,
,,,0.333512000000,   0.08120,
,,,0.333516000000,   0.08120,
,,,0.333520000000,   0.08160,
,,,0.333524000000,   0.08200,
,,,0.333528000000,   0.08160,
,,,0.333532000000,   0.08160,
,,,0.333536000000,   0.08080,
,,,0.333540000000,   0.08120,
,,,0.333544000000,   0.08080,
,,,0.333548000000,   0.08120,
,,,0.333552000000,   0.08080,
,,,0.333556000000,   0.08040,
,,,0.333560000000,   0.08120,
,,,0.333564000000,   0.08120,
,,,0.333568000000,   0.08040,
,,,0.333572000000,   0.08120,
,,,0.333576000000,   0.08120,
,,,0.333580000000,   0.08120,
,,,0.333584000000,   0.08120,
,,,0.333588000000,   0.08120,
,,,0.333592000000,   0.08160,
,,,0.333596000000,   0.08040,
,,,0.333600000000,   0.08000,
,,,0.333604000000,   0.08000,
,,,0.333608000000,   0.08120,
,,,0.333612000000,   0.08120,
,,,0.333616000000,   0.08040,
,,,0.333620000000,   0.08040,
,,,0.333624000000,   0.08040,
,,,0.333628000000,   0.08000,
,,,0.333632000000,   0.07880,
,,,0.333636000000,   0.08080,
,,,0.333640000000,   0.08160,
,,,0.333644000000,   0.08080,
,,,0.333648000000,   0.08000,
,,,0.333652000000,   0.08000,
,,,0.333656000000,   0.08000,
,,,0.333660000000,   0.08000,
,,,0.333664000000,   0.08000,
,,,0.333668000000,   0.08080,
,,,0.333672000000,   0.08000,
,,,0.333676000000,   0.08000,
,,,0.333680000000,   0.07960,
,,,0.333684000000,   0.08040,
,,,0.333688000000,   0.08000,
,,,0.333692000000,   0.08040,
,,,0.333696000000,   0.07960,
,,,0.333700000000,   0.07920,
,,,0.333704000000,   0.07960,
,,,0.333708000000,   0.08000,
,,,0.333712000000,   0.07840,
,,,0.333716000000,   0.08000,
,,,0.333720000000,   0.07960,
,,,0.333724000000,   0.07920,
,,,0.333728000000,   0.08000,
,,,0.333732000000,   0.07840,
,,,0.333736000000,   0.08000,
,,,0.333740000000,   0.07920,
,,,0.333744000000,   0.08040,
,,,0.333748000000,   0.07880,
,,,0.333752000000,   0.07920,
,,,0.333756000000,   0.07880,
,,,0.333760000000,   0.07960,
,,,0.333764000000,   0.07960,
,,,0.333768000000,   0.07920,
,,,0.333772000000,   0.07880,
,,,0.333776000000,   0.07920,
,,,0.333780000000,   0.07960,
,,,0.333784000000,   0.07800,
,,,0.333788000000,   0.07920,
,,,0.333792000000,   0.07880,
,,,0.333796000000,   0.07960,
,,,0.333800000000,   0.07960,
,,,0.333804000000,   0.07880,
,,,0.333808000000,   0.07800,
,,,0.333812000000,   0.07920,
