Measurements/9-6/Set 1/1; Dip/F0000CH1.CSV

Record Length,2.500000e+03,,   0.435060000000,   0.20320,
Sample Interval,2.000000e-06,,   0.435062000000,   0.20160,
Trigger Point,-2.175300000000e+05,,   0.435064000000,   0.20240,
,,,   0.435066000000,   0.20320,
,,,   0.435068000000,   0.20240,
,,,   0.435070000000,   0.20160,
Source,CH1,,   0.435072000000,   0.20160,
Vertical Units,V,,   0.435074000000,   0.20080,
Vertical Scale,2.000000e-02,,   0.435076000000,   0.20160,
Vertical Offset,-1.608000e-01,,   0.435078000000,   0.20160,
Horizontal Units,s,,   0.435080000000,   0.20240,
Horizontal Scale,5.000000e-04,,   0.435082000000,   0.20080,
Pt Fmt,Y,,   0.435084000000,   0.20240,
Yzero,0.000000e+00,,   0.435086000000,   0.20160,
Probe Atten,1.000000e+00,,   0.435088000000,   0.20240,
Model Number,TDS2024B,,   0.435090000000,   0.20160,
Serial Number,C104833,,   0.435092000000,   0.20240,
Firmware Version,FV:v24.02,,   0.435094000000,   0.20160,
,,,0.435096000000,   0.20160,
,,,0.435098000000,   0.20080,
,,,0.435100000000,   0.20240,
,,,0.435102000000,   0.20160,
,,,0.435104000000,   0.20000,
,,,0.435106000000,   0.20160,
,,,0.435108000000,   0.20160,
,,,0.435110000000,   0.20160,
,,,0.435112000000,   0.20080,
,,,0.435114000000,   0.20240,
,,,0.435116000000,   0.20160,
,,,0.435118000000,   0.20080,
,,,0.435120000000,   0.20240,
,,,0.435122000000,   0.20160,
,,,0.435124000000,   0.20080,
,,,0.435126000000,   0.20160,
,,,0.435128000000,   0.20160,
,,,0.435130000000,   0.20080,
,,,0.435132000000,   0.20080,
,,,0.435134000000,   0.20160,
,,,0.435136000000,   0.20080,
,,,0.435138000000,   0.20080,
,,,0.435140000000,   0.20080,
,,,0.435142000000,   0.20320,
,,,0.435144000000,   0.20240,
,,,0.435146000000,   0.20160,
,,,0.435148000000,   0.20000,
,,,0.435150000000,   0.20160,
,,,0.435152000000,   0.20080,
,,,0.435154000000,   0.20080,
,,,0.435156000000,   0.20160,
,,,0.435158000000,   0.20080,
,,,0.435160000000,   0.20240,
,,,0.435162000000,   0.20080,
,,,0.435164000000,   0.20080,
,,,0.435166000000,   0.20160,
,,,0.435168000000,   0.20080,
,,,0.435170000000,   0.20240,
,,,0.435172000000,   0.20240,
,,,0.435174000000,   0.20080,
,,,0.435176000000,   0.20160,
,,,0.435178000000,   0.20160,
,,,0.435180000000,   0.20160,
,,,0.435182000000,   0.20320,
,,,0.435184000000,   0.20080,
,,,0.435186000000,   0.20080,
,,,0.435188000000,   0.20000,
,,,0.435190000000,   0.20000,
,,,0.435192000000,   0.20080,
,,,0.435194000000,   0.20080,
,,,0.435196000000,   0.20080,
,,,0.435198000000,   0.20080,
,,,0.435200000000,   0.20160,
,,,0.435202000000,   0.20080,
,,,0.435204000000,   0.20240,
,,,0.435206000000,   0.20160,
,,,0.435208000000,   0.20080,
,,,0.435210000000,   0.20000,
,,,0.435212000000,   0.20080,
,,,0.435214000000,   0.20240,
,,,0.435216000000,   0.20160,
,,,0.435218000000,   0.20240,
,,,0.435220000000,   0.20080,
,,,0.435222000000,   0.20080,
,,,0.435224000000,   0.20160,
,,,0.435226000000,   0.20080,
,,,0.435228000000,   0.20080,
,,,0.435230000000,   0.20080,
,,,0.435232000000,   0.20160,
,,,0.435234000000,   0.20000,
,,,0.435236000000,   0.20080,
,,,0.435238000000,   0.20000,
,,,0.435240000000,   0.20080,
,,,0.435242000000,   0.20080,
,,,0.435244000000,   0.20080,
,,,0.435246000000,   0.20160,
,,,0.435248000000,   0.20080,
,,,0.435250000000,   0.20160,
,,,0.435252000000,   0.20000,
,,,0.435254000000,   0.20000,
,,,0.435256000000,   0.20160,
,,,0.435258000000,   0.19920,
,,,0.435260000000,   0.20240,
,,,0.435262000000,   0.20160,
,,,0.435264000000,   0.20080,
,,,0.435266000000,   0.20080,
,,,0.435268000000,   0.20160,
,,,0.435270000000,   0.20080,
,,,0.435272000000,   0.20080,
,,,0.435274000000,   0.20080,
,,,0.435276000000,   0.20080,
,,,0.435278000000,   0.20080,
,,,0.435280000000,   0.20080,
,,,0.435282000000,   0.20080,
,,,0.435284000000,   0.20000,
,,,0.435286000000,   0.20080,
,,,0.435288000000,   0.20080,
,,,0.435290000000,   0.20000,
,,,0.435292000000,   0.20000,
,,,0.435294000000,   0.20080,
,,,0.435296000000,   0.20080,
,,,0.435298000000,   0.20080,
,,,0.435300000000,   0.20160,
,,,0.435302000000,   0.20000,
,,,0.435304000000,   0.20080,
,,,0.435306000000,   0.20080,
,,,0.435308000000,   0.20000,
,,,0.435310000000,   0.20080,
,,,0.435312000000,   0.19920,
,,,0.435314000000,   0.20000,
,,,0.435316000000,   0.20000,
,,,0.435318000000,   0.20240,
,,,0.435320000000,   0.20080,
,,,0.435322000000,   0.20080,
,,,0.435324000000,   0.20000,
,,,0.435326000000,   0.20000,
,,,0.435328000000,   0.20080,
,,,0.435330000000,   0.20080,
,,,0.435332000000,   0.20000,
,,,0.435334000000,   0.20080,
,,,0.435336000000,   0.20000,
,,,0.435338000000,   0.20000,
,,,0.435340000000,   0.20080,
,,,0.435342000000,   0.19920,
,,,0.435344000000,   0.20080,
,,,0.435346000000,   0.20000,
,,,0.435348000000,   0.20080,
,,,0.435350000000,   0.20080,
,,,0.435352000000,   0.20000,
,,,0.435354000000,   0.20080,
,,,0.435356000000,   0.20080,
,,,0.435358000000,   0.20080,
,,,0.435360000000,   0.20080,
,,,0.435362000000,   0.19920,
,,,0.435364000000,   0.20160,
,,,0.435366000000,   0.20080,
,,,0.435368000000,   0.19920,
,,,0.435370000000,   0.20080,
,,,0.435372000000,   0.20080,
,,,0.435374000000,   0.19920,
,,,0.435376000000,   0.20000,
,,,0.435378000000,   0.20000,
,,,0.435380000000,   0.19920,
,,,0.435382000000,   0.19920,
,,,0.435384000000,   0.19920,
,,,0.435386000000,   0.20080,
,,,0.435388000000,   0.20000,
,,,0.435390000000,   0.20000,
,,,0.435392000000,   0.19920,
,,,0.435394000000,   0.20000,
,,,0.435396000000,   0.20080,
,,,0.435398000000,   0.20000,
,,,0.435400000000,   0.20080,
,,,0.435402000000,   0.19840,
,,,0.435404000000,   0.20000,
,,,0.435406000000,   0.20080,
,,,0.435408000000,   0.20000,
,,,0.435410000000,   0.19920,
,,,0.435412000000,   0.20080,
,,,0.435414000000,   0.20000,
,,,0.435416000000,   0.19920,
,,,0.435418000000,   0.20080,
,,,0.435420000000,   0.20000,
,,,0.435422000000,   0.20000,
,,,0.435424000000,   0.19920,
,,,0.435426000000,   0.20000,
,,,0.435428000000,   0.19920,
,,,0.435430000000,   0.19840,
,,,0.435432000000,   0.20000,
,,,0.435434000000,   0.20000,
,,,0.435436000000,   0.20000,
,,,0.435438000000,   0.19920,
,,,0.435440000000,   0.19920,
,,,0.435442000000,   0.20000,
,,,0.435444000000,   0.20000,
,,,0.435446000000,   0.20000,
,,,0.435448000000,   0.19920,
,,,0.435450000000,   0.20000,
,,,0.435452000000,   0.20000,
,,,0.435454000000,   0.19920,
,,,0.435456000000,   0.20000,
,,,0.435458000000,   0.19920,
,,,0.435460000000,   0.20000,
,,,0.435462000000,   0.19920,
,,,0.435464000000,   0.19920,
,,,0.435466000000,   0.19840,
,,,0.435468000000,   0.19920,
,,,0.435470000000,   0.20000,
,,,0.435472000000,   0.20000,
,,,0.435474000000,   0.20080,
,,,0.435476000000,   0.19920,
,,,0.435478000000,   0.20000,
,,,0.435480000000,   0.20000,
,,,0.435482000000,   0.20000,
,,,0.435484000000,   0.19920,
,,,0.435486000000,   0.20000,
,,,0.435488000000,   0.19920,
,,,0.435490000000,   0.20000,
,,,0.435492000000,   0.19920,
,,,0.435494000000,   0.19920,
,,,0.435496000000,   0.19920,
,,,0.435498000000,   0.19920,
,,,0.435500000000,   0.19920,
,,,0.435502000000,   0.20000,
,,,0.435504000000,   0.19920,
,,,0.435506000000,   0.19920,
,,,0.435508000000,   0.19920,
,,,0.435510000000,   0.19840,
,,,0.435512000000,   0.19840,
,,,0.435514000000,   0.19920,
,,,0.435516000000,   0.20000,
,,,0.435518000000,   0.19840,
,,,0.435520000000,   0.20000,
,,,0.435522000000,   0.19840,
,,,0.435524000000,   0.19920,
,,,0.435526000000,   0.19920,
,,,0.435528000000,   0.19920,
,,,0.435530000000,   0.19840,
,,,0.435532000000,   0.19920,
,,,0.435534000000,   0.19760,
,,,0.435536000000,   0.20000,
,,,0.435538000000,   0.20000,
,,,0.435540000000,   0.20000,
,,,0.435542000000,   0.19920,
,,,0.435544000000,   0.19920,
,,,0.435546000000,   0.19920,
,,,0.435548000000,   0.19840,
,,,0.435550000000,   0.19840,
,,,0.435552000000,   0.19920,
,,,0.435554000000,   0.20000,
,,,0.435556000000,   0.20000,
,,,0.435558000000,   0.19840,
,,,0.435560000000,   0.19920,
,,,0.435562000000,   0.19920,
,,,0.435564000000,   0.19840,
,,,0.435566000000,   0.19920,
,,,0.435568000000,   0.19760,
,,,0.435570000000,   0.19920,
,,,0.435572000000,   0.19920,
,,,0.435574000000,   0.19920,
,,,0.435576000000,   0.19840,
,,,0.435578000000,   0.19920,
,,,0.435580000000,   0.19920,
,,,0.435582000000,   0.19840,
,,,0.435584000000,   0.19920,
,,,0.435586000000,   0.19920,
,,,0.435588000000,   0.19920,
,,,0.435590000000,   0.19920,
,,,0.435592000000,   0.19840,
,,,0.435594000000,   0.19920,
,,,0.435596000000,   0.19840,
,,,0.435598000000,   0.19920,
,,,0.435600000000,   0.19760,
,,,0.435602000000,   0.19920,
,,,0.435604000000,   0.19920,
,,,0.435606000000,   0.19920,
,,,0.435608000000,   0.19920,
,,,0.435610000000,   0.19920,
,,,0.435612000000,   0.19840,
,,,0.435614000000,   0.19840,
,,,0.435616000000,   0.19840,
,,,0.435618000000,   0.19760,
,,,0.435620000000,   0.20000,
,,,0.435622000000,   0.19840,
,,,0.435624000000,   0.19920,
,,,0.435626000000,   0.19920,
,,,0.435628000000,   0.19840,
,,,0.435630000000,   0.19920,
,,,0.435632000000,   0.19840,
,,,0.435634000000,   0.19760,
,,,0.435636000000,   0.19920,
,,,0.435638000000,   0.19840,
,,,0.435640000000,   0.19920,
,,,0.435642000000,   0.19840,
,,,0.435644000000,   0.19760,
,,,0.435646000000,   0.19840,
,,,0.435648000000,   0.19840,
,,,0.435650000000,   0.19840,
,,,0.435652000000,   0.19920,
,,,0.435654000000,   0.19840,
,,,0.435656000000,   0.19840,
,,,0.435658000000,   0.19920,
,,,0.435660000000,   0.19680,
,,,0.435662000000,   0.19840,
,,,0.435664000000,   0.19840,
,,,0.435666000000,   0.19840,
,,,0.435668000000,   0.19840,
,,,0.435670000000,   0.19760,
,,,0.435672000000,   0.19840,
,,,0.435674000000,   0.19760,
,,,0.435676000000,   0.19840,
,,,0.435678000000,   0.19760,
,,,0.435680000000,   0.19840,
,,,0.435682000000,   0.19760,
,,,0.435684000000,   0.19920,
,,,0.435686000000,   0.19840,
,,,0.435688000000,   0.19760,
,,,0.435690000000,   0.19920,
,,,0.435692000000,   0.19840,
,,,0.435694000000,   0.19840,
,,,0.435696000000,   0.19920,
,,,0.435698000000,   0.19760,
,,,0.435700000000,   0.19760,
,,,0.435702000000,   0.19680,
,,,0.435704000000,   0.19840,
,,,0.435706000000,   0.19840,
,,,0.435708000000,   0.19840,
,,,0.435710000000,   0.19760,
,,,0.435712000000,   0.19840,
,,,0.435714000000,   0.19680,
,,,0.435716000000,   0.19840,
,,,0.435718000000,   0.19840,
,,,0.435720000000,   0.19840,
,,,0.435722000000,   0.19680,
,,,0.435724000000,   0.19760,
,,,0.435726000000,   0.19760,
,,,0.435728000000,   0.19760,
,,,0.435730000000,   0.19760,
,,,0.435732000000,   0.19840,
,,,0.435734000000,   0.19680,
,,,0.435736000000,   0.19840,
,,,0.435738000000,   0.19680,
,,,0.435740000000,   0.19840,
,,,0.435742000000,   0.19840,
,,,0.435744000000,   0.19840,
,,,0.435746000000,   0.19760,
,,,0.435748000000,   0.19840,
,,,0.435750000000,   0.19760,
,,,0.435752000000,   0.19680,
,,,0.435754000000,   0.19760,
,,,0.435756000000,   0.19840,
,,,0.435758000000,   0.19840,
,,,0.435760000000,   0.19760,
,,,0.435762000000,   0.19760,
,,,0.435764000000,   0.19760,
,,,0.435766000000,   0.19680,
,,,0.435768000000,   0.19840,
,,,0.435770000000,   0.19680,
,,,0.435772000000,   0.19760,
,,,0.435774000000,   0.19760,
,,,0.435776000000,   0.19760,
,,,0.435778000000,   0.19760,
,,,0.435780000000,   0.19840,
,,,0.435782000000,   0.19760,
,,,0.435784000000,   0.19840,
,,,0.435786000000,   0.19760,
,,,0.435788000000,   0.19760,
,,,0.435790000000,   0.19760,
,,,0.435792000000,   0.19600,
,,,0.435794000000,   0.19600,
,,,0.435796000000,   0.19840,
,,,0.435798000000,   0.19760,
,,,0.435800000000,   0.19760,
,,,0.435802000000,   0.19680,
,,,0.435804000000,   0.19760,
,,,0.435806000000,   0.19680,
,,,0.435808000000,   0.19680,
,,,0.435810000000,   0.19600,
,,,0.435812000000,   0.19760,
,,,0.435814000000,   0.19760,
,,,0.435816000000,   0.19840,
,,,0.435818000000,   0.19520,
,,,0.435820000000,   0.19840,
,,,0.435822000000,   0.19680,
,,,0.435824000000,   0.19680,
,,,0.435826000000,   0.19760,
,,,0.435828000000,   0.19600,
,,,0.435830000000,   0.19680,
,,,0.435832000000,   0.19760,
,,,0.435834000000,   0.19840,
,,,0.435836000000,   0.19680,
,,,0.435838000000,   0.19680,
,,,0.435840000000,   0.19840,
,,,0.435842000000,   0.19680,
,,,0.435844000000,   0.19840,
,,,0.435846000000,   0.19760,
,,,0.435848000000,   0.19600,
,,,0.435850000000,   0.19760,
,,,0.435852000000,   0.19760,
,,,0.435854000000,   0.19760,
,,,0.435856000000,   0.19760,
,,,0.435858000000,   0.19680,
,,,0.435860000000,   0.19600,
,,,0.435862000000,   0.19840,
,,,0.435864000000,   0.19680,
,,,0.435866000000,   0.19600,
,,,0.435868000000,   0.19760,
,,,0.435870000000,   0.19600,
,,,0.435872000000,   0.19680,
,,,0.435874000000,   0.19680,
,,,0.435876000000,   0.19680,
,,,0.435878000000,   0.19680,
,,,0.435880000000,   0.19680,
,,,0.435882000000,   0.19680,
,,,0.435884000000,   0.19600,
,,,0.435886000000,   0.19680,
,,,0.435888000000,   0.19680,
,,,0.435890000000,   0.19760,
,,,0.435892000000,   0.19680,
,,,0.435894000000,   0.19600,
,,,0.435896000000,   0.19680,
,,,0.435898000000,   0.19600,
,,,0.435900000000,   0.19680,
,,,0.435902000000,   0.19600,
,,,0.435904000000,   0.19680,
,,,0.435906000000,   0.19680,
,,,0.435908000000,   0.19760,
,,,0.435910000000,   0.19520,
,,,0.435912000000,   0.19600,
,,,0.435914000000,   0.19760,
,,,0.435916000000,   0.19760,
,,,0.435918000000,   0.19680,
,,,0.435920000000,   0.19600,
,,,0.435922000000,   0.19680,
,,,0.435924000000,   0.19600,
,,,0.435926000000,   0.19600,
,,,0.435928000000,   0.19760,
,,,0.435930000000,   0.19600,
,,,0.435932000000,   0.19680,
,,,0.435934000000,   0.19600,
,,,0.435936000000,   0.19680,
,,,0.435938000000,   0.19600,
,,,0.435940000000,   0.19760,
,,,0.435942000000,   0.19680,
,,,0.435944000000,   0.19600,
,,,0.435946000000,   0.19520,
,,,0.435948000000,   0.19600,
,,,0.435950000000,   0.19520,
,,,0.435952000000,   0.19680,
,,,0.435954000000,   0.19600,
,,,0.435956000000,   0.19680,
,,,0.435958000000,   0.19600,
,,,0.435960000000,   0.19600,
,,,0.435962000000,   0.19680,
,,,0.435964000000,   0.19520,
,,,0.435966000000,   0.19680,
,,,0.435968000000,   0.19680,
,,,0.435970000000,   0.19600,
,,,0.435972000000,   0.19600,
,,,0.435974000000,   0.19600,
,,,0.435976000000,   0.19760,
,,,0.435978000000,   0.19600,
,,,0.435980000000,   0.19600,
,,,0.435982000000,   0.19600,
,,,0.435984000000,   0.19600,
,,,0.435986000000,   0.19600,
,,,0.435988000000,   0.19600,
,,,0.435990000000,   0.19680,
,,,0.435992000000,   0.19600,
,,,0.435994000000,   0.19520,
,,,0.435996000000,   0.19680,
,,,0.435998000000,   0.19600,
,,,0.436000000000,   0.19600,
,,,0.436002000000,   0.19520,
,,,0.436004000000,   0.19600,
,,,0.436006000000,   0.19680,
,,,0.436008000000,   0.19680,
,,,0.436010000000,   0.19520,
,,,0.436012000000,   0.19760,
,,,0.436014000000,   0.19600,
,,,0.436016000000,   0.19520,
,,,0.436018000000,   0.19600,
,,,0.436020000000,   0.19680,
,,,0.436022000000,   0.19600,
,,,0.436024000000,   0.19600,
,,,0.436026000000,   0.19680,
,,,0.436028000000,   0.19520,
,,,0.436030000000,   0.19520,
,,,0.436032000000,   0.19600,
,,,0.436034000000,   0.19600,
,,,0.436036000000,   0.19600,
,,,0.436038000000,   0.19520,
,,,0.436040000000,   0.19600,
,,,0.436042000000,   0.19600,
,,,0.436044000000,   0.19600,
,,,0.436046000000,   0.19600,
,,,0.436048000000,   0.19600,
,,,0.436050000000,   0.19600,
,,,0.436052000000,   0.19600,
,,,0.436054000000,   0.19520,
,,,0.436056000000,   0.19600,
,,,0.436058000000,   0.19440,
,,,0.436060000000,   0.19440,
,,,0.436062000000,   0.19680,
,,,0.436064000000,   0.19520,
,,,0.436066000000,   0.19600,
,,,0.436068000000,   0.19600,
,,,0.436070000000,   0.19440,
,,,0.436072000000,   0.19600,
,,,0.436074000000,   0.19520,
,,,0.436076000000,   0.19600,
,,,0.436078000000,   0.19440,
,,,0.436080000000,   0.19600,
,,,0.436082000000,   0.19600,
,,,0.436084000000,   0.19520,
,,,0.436086000000,   0.19520,
,,,0.436088000000,   0.19520,
,,,0.436090000000,   0.19440,
,,,0.436092000000,   0.19520,
,,,0.436094000000,   0.19520,
,,,0.436096000000,   0.19600,
,,,0.436098000000,   0.19520,
,,,0.436100000000,   0.19520,
,,,0.436102000000,   0.19440,
,,,0.436104000000,   0.19600,
,,,0.436106000000,   0.19520,
,,,0.436108000000,   0.19520,
,,,0.436110000000,   0.19600,
,,,0.436112000000,   0.19600,
,,,0.436114000000,   0.19520,
,,,0.436116000000,   0.19520,
,,,0.436118000000,   0.19680,
,,,0.436120000000,   0.19520,
,,,0.436122000000,   0.19600,
,,,0.436124000000,   0.19520,
,,,0.436126000000,   0.19440,
,,,0.436128000000,   0.19600,
,,,0.436130000000,   0.19520,
,,,0.436132000000,   0.19440,
,,,0.436134000000,   0.19520,
,,,0.436136000000,   0.19520,
,,,0.436138000000,   0.19520,
,,,0.436140000000,   0.19600,
,,,0.436142000000,   0.19440,
,,,0.436144000000,   0.19520,
,,,0.436146000000,   0.19440,
,,,0.436148000000,   0.19520,
,,,0.436150000000,   0.19520,
,,,0.436152000000,   0.19440,
,,,0.436154000000,   0.19520,
,,,0.436156000000,   0.19440,
,,,0.436158000000,   0.19520,
,,,0.436160000000,   0.19520,
,,,0.436162000000,   0.19600,
,,,0.436164000000,   0.19520,
,,,0.436166000000,   0.19440,
,,,0.436168000000,   0.19520,
,,,0.436170000000,   0.19440,
,,,0.436172000000,   0.19600,
,,,0.436174000000,   0.19520,
,,,0.436176000000,   0.19440,
,,,0.436178000000,   0.19360,
,,,0.436180000000,   0.19440,
,,,0.436182000000,   0.19520,
,,,0.436184000000,   0.19520,
,,,0.436186000000,   0.19520,
,,,0.436188000000,   0.19440,
,,,0.436190000000,   0.19600,
,,,0.436192000000,   0.19440,
,,,0.436194000000,   0.19440,
,,,0.436196000000,   0.19520,
,,,0.436198000000,   0.19520,
,,,0.436200000000,   0.19440,
,,,0.436202000000,   0.19440,
,,,0.436204000000,   0.19440,
,,,0.436206000000,   0.19360,
,,,0.436208000000,   0.19360,
,,,0.436210000000,   0.19440,
,,,0.436212000000,   0.19520,
,,,0.436214000000,   0.19360,
,,,0.436216000000,   0.19520,
,,,0.436218000000,   0.19440,
,,,0.436220000000,   0.19440,
,,,0.436222000000,   0.19520,
,,,0.436224000000,   0.19440,
,,,0.436226000000,   0.19440,
,,,0.436228000000,   0.19440,
,,,0.436230000000,   0.19440,
,,,0.436232000000,   0.19360,
,,,0.436234000000,   0.19360,
,,,0.436236000000,   0.19440,
,,,0.436238000000,   0.19520,
,,,0.436240000000,   0.19520,
,,,0.436242000000,   0.19440,
,,,0.436244000000,   0.19360,
,,,0.436246000000,   0.19440,
,,,0.436248000000,   0.19360,
,,,0.436250000000,   0.19360,
,,,0.436252000000,   0.19440,
,,,0.436254000000,   0.19440,
,,,0.436256000000,   0.19360,
,,,0.436258000000,   0.19360,
,,,0.436260000000,   0.19440,
,,,0.436262000000,   0.19440,
,,,0.436264000000,   0.19440,
,,,0.436266000000,   0.19440,
,,,0.436268000000,   0.19440,
,,,0.436270000000,   0.19360,
,,,0.436272000000,   0.19440,
,,,0.436274000000,   0.19440,
,,,0.436276000000,   0.19360,
,,,0.436278000000,   0.19520,
,,,0.436280000000,   0.19280,
,,,0.436282000000,   0.19440,
,,,0.436284000000,   0.19440,
,,,0.436286000000,   0.19360,
,,,0.436288000000,   0.19440,
,,,0.436290000000,   0.19440,
,,,0.436292000000,   0.19440,
,,,0.436294000000,   0.19520,
,,,0.436296000000,   0.19360,
,,,0.436298000000,   0.19360,
,,,0.436300000000,   0.19360,
,,,0.436302000000,   0.19360,
,,,0.436304000000,   0.19360,
,,,0.436306000000,   0.19440,
,,,0.436308000000,   0.19360,
,,,0.436310000000,   0.19360,
,,,0.436312000000,   0.19440,
,,,0.436314000000,   0.19440,
,,,0.436316000000,   0.19440,
,,,0.436318000000,   0.19440,
,,,0.436320000000,   0.19360,
,,,0.436322000000,   0.19360,
,,,0.436324000000,   0.19520,
,,,0.436326000000,   0.19440,
,,,0.436328000000,   0.19360,
,,,0.436330000000,   0.19440,
,,,0.436332000000,   0.19200,
,,,0.436334000000,   0.19440,
,,,0.436336000000,   0.19360,
,,,0.436338000000,   0.19440,
,,,0.436340000000,   0.19280,
,,,0.436342000000,   0.19280,
,,,0.436344000000,   0.19360,
,,,0.436346000000,   0.19440,
,,,0.436348000000,   0.19280,
,,,0.436350000000,   0.19360,
,,,0.436352000000,   0.19360,
,,,0.436354000000,   0.19360,
,,,0.436356000000,   0.19440,
,,,0.436358000000,   0.19280,
,,,0.436360000000,   0.19360,
,,,0.436362000000,   0.19360,
,,,0.436364000000,   0.19360,
,,,0.436366000000,   0.19440,
