Ex 1.5 -  Doppler Free/Full Spectrum/Full sat/F0009CH3.CSV

Record Length,2.500000e+03,,   0.430200000000,   0.36000,
Sample Interval,2.000000e-05,,   0.430220000000,   0.38000,
Trigger Point,-2.151000000000e+04,,   0.430240000000,   0.34000,
,,,   0.430260000000,   0.34000,
,,,   0.430280000000,   0.34000,
,,,   0.430300000000,   0.36000,
Source,CH3,,   0.430320000000,   0.36000,
Vertical Units,V,,   0.430340000000,   0.34000,
Vertical Scale,5.000000e-01,,   0.430360000000,   0.34000,
Vertical Offset,-8.000000e-02,,   0.430380000000,   0.36000,
Horizontal Units,s,,   0.430400000000,   0.36000,
Horizontal Scale,5.000000e-03,,   0.430420000000,   0.36000,
Pt Fmt,Y,,   0.430440000000,   0.34000,
Yzero,0.000000e+00,,   0.430460000000,   0.34000,
Probe Atten,1.000000e+00,,   0.430480000000,   0.34000,
Model Number,TDS2024B,,   0.430500000000,   0.34000,
Serial Number,C104833,,   0.430520000000,   0.34000,
Firmware Version,FV:v24.02,,   0.430540000000,   0.34000,
,,,0.430560000000,   0.32000,
,,,0.430580000000,   0.32000,
,,,0.430600000000,   0.34000,
,,,0.430620000000,   0.34000,
,,,0.430640000000,   0.34000,
,,,0.430660000000,   0.32000,
,,,0.430680000000,   0.34000,
,,,0.430700000000,   0.32000,
,,,0.430720000000,   0.32000,
,,,0.430740000000,   0.32000,
,,,0.430760000000,   0.32000,
,,,0.430780000000,   0.36000,
,,,0.430800000000,   0.32000,
,,,0.430820000000,   0.34000,
,,,0.430840000000,   0.30000,
,,,0.430860000000,   0.32000,
,,,0.430880000000,   0.30000,
,,,0.430900000000,   0.30000,
,,,0.430920000000,   0.32000,
,,,0.430940000000,   0.34000,
,,,0.430960000000,   0.32000,
,,,0.430980000000,   0.32000,
,,,0.431000000000,   0.34000,
,,,0.431020000000,   0.32000,
,,,0.431040000000,   0.32000,
,,,0.431060000000,   0.30000,
,,,0.431080000000,   0.32000,
,,,0.431100000000,   0.32000,
,,,0.431120000000,   0.30000,
,,,0.431140000000,   0.32000,
,,,0.431160000000,   0.30000,
,,,0.431180000000,   0.32000,
,,,0.431200000000,   0.32000,
,,,0.431220000000,   0.30000,
,,,0.431240000000,   0.32000,
,,,0.431260000000,   0.30000,
,,,0.431280000000,   0.30000,
,,,0.431300000000,   0.32000,
,,,0.431320000000,   0.30000,
,,,0.431340000000,   0.30000,
,,,0.431360000000,   0.30000,
,,,0.431380000000,   0.32000,
,,,0.431400000000,   0.30000,
,,,0.431420000000,   0.30000,
,,,0.431440000000,   0.30000,
,,,0.431460000000,   0.30000,
,,,0.431480000000,   0.30000,
,,,0.431500000000,   0.30000,
,,,0.431520000000,   0.30000,
,,,0.431540000000,   0.30000,
,,,0.431560000000,   0.30000,
,,,0.431580000000,   0.32000,
,,,0.431600000000,   0.28000,
,,,0.431620000000,   0.26000,
,,,0.431640000000,   0.30000,
,,,0.431660000000,   0.30000,
,,,0.431680000000,   0.30000,
,,,0.431700000000,   0.30000,
,,,0.431720000000,   0.30000,
,,,0.431740000000,   0.30000,
,,,0.431760000000,   0.30000,
,,,0.431780000000,   0.30000,
,,,0.431800000000,   0.28000,
,,,0.431820000000,   0.28000,
,,,0.431840000000,   0.30000,
,,,0.431860000000,   0.28000,
,,,0.431880000000,   0.30000,
,,,0.431900000000,   0.30000,
,,,0.431920000000,   0.30000,
,,,0.431940000000,   0.28000,
,,,0.431960000000,   0.30000,
,,,0.431980000000,   0.28000,
,,,0.432000000000,   0.28000,
,,,0.432020000000,   0.26000,
,,,0.432040000000,   0.28000,
,,,0.432060000000,   0.28000,
,,,0.432080000000,   0.28000,
,,,0.432100000000,   0.28000,
,,,0.432120000000,   0.28000,
,,,0.432140000000,   0.28000,
,,,0.432160000000,   0.30000,
,,,0.432180000000,   0.26000,
,,,0.432200000000,   0.28000,
,,,0.432220000000,   0.28000,
,,,0.432240000000,   0.28000,
,,,0.432260000000,   0.28000,
,,,0.432280000000,   0.28000,
,,,0.432300000000,   0.28000,
,,,0.432320000000,   0.26000,
,,,0.432340000000,   0.26000,
,,,0.432360000000,   0.28000,
,,,0.432380000000,   0.28000,
,,,0.432400000000,   0.26000,
,,,0.432420000000,   0.26000,
,,,0.432440000000,   0.24000,
,,,0.432460000000,   0.28000,
,,,0.432480000000,   0.26000,
,,,0.432500000000,   0.24000,
,,,0.432520000000,   0.24000,
,,,0.432540000000,   0.28000,
,,,0.432560000000,   0.24000,
,,,0.432580000000,   0.24000,
,,,0.432600000000,   0.26000,
,,,0.432620000000,   0.24000,
,,,0.432640000000,   0.24000,
,,,0.432660000000,   0.24000,
,,,0.432680000000,   0.24000,
,,,0.432700000000,   0.24000,
,,,0.432720000000,   0.26000,
,,,0.432740000000,   0.24000,
,,,0.432760000000,   0.24000,
,,,0.432780000000,   0.24000,
,,,0.432800000000,   0.24000,
,,,0.432820000000,   0.24000,
,,,0.432840000000,   0.24000,
,,,0.432860000000,   0.24000,
,,,0.432880000000,   0.24000,
,,,0.432900000000,   0.24000,
,,,0.432920000000,   0.24000,
,,,0.432940000000,   0.24000,
,,,0.432960000000,   0.24000,
,,,0.432980000000,   0.24000,
,,,0.433000000000,   0.24000,
,,,0.433020000000,   0.24000,
,,,0.433040000000,   0.22000,
,,,0.433060000000,   0.24000,
,,,0.433080000000,   0.24000,
,,,0.433100000000,   0.24000,
,,,0.433120000000,   0.24000,
,,,0.433140000000,   0.22000,
,,,0.433160000000,   0.24000,
,,,0.433180000000,   0.22000,
,,,0.433200000000,   0.20000,
,,,0.433220000000,   0.22000,
,,,0.433240000000,   0.22000,
,,,0.433260000000,   0.20000,
,,,0.433280000000,   0.22000,
,,,0.433300000000,   0.24000,
,,,0.433320000000,   0.22000,
,,,0.433340000000,   0.22000,
,,,0.433360000000,   0.22000,
,,,0.433380000000,   0.22000,
,,,0.433400000000,   0.22000,
,,,0.433420000000,   0.22000,
,,,0.433440000000,   0.22000,
,,,0.433460000000,   0.20000,
,,,0.433480000000,   0.20000,
,,,0.433500000000,   0.20000,
,,,0.433520000000,   0.22000,
,,,0.433540000000,   0.20000,
,,,0.433560000000,   0.18000,
,,,0.433580000000,   0.22000,
,,,0.433600000000,   0.20000,
,,,0.433620000000,   0.20000,
,,,0.433640000000,   0.20000,
,,,0.433660000000,   0.22000,
,,,0.433680000000,   0.22000,
,,,0.433700000000,   0.22000,
,,,0.433720000000,   0.22000,
,,,0.433740000000,   0.20000,
,,,0.433760000000,   0.20000,
,,,0.433780000000,   0.20000,
,,,0.433800000000,   0.20000,
,,,0.433820000000,   0.20000,
,,,0.433840000000,   0.20000,
,,,0.433860000000,   0.18000,
,,,0.433880000000,   0.20000,
,,,0.433900000000,   0.22000,
,,,0.433920000000,   0.20000,
,,,0.433940000000,   0.18000,
,,,0.433960000000,   0.18000,
,,,0.433980000000,   0.20000,
,,,0.434000000000,   0.18000,
,,,0.434020000000,   0.18000,
,,,0.434040000000,   0.18000,
,,,0.434060000000,   0.18000,
,,,0.434080000000,   0.18000,
,,,0.434100000000,   0.18000,
,,,0.434120000000,   0.16000,
,,,0.434140000000,   0.16000,
,,,0.434160000000,   0.20000,
,,,0.434180000000,   0.16000,
,,,0.434200000000,   0.16000,
,,,0.434220000000,   0.20000,
,,,0.434240000000,   0.18000,
,,,0.434260000000,   0.18000,
,,,0.434280000000,   0.18000,
,,,0.434300000000,   0.18000,
,,,0.434320000000,   0.18000,
,,,0.434340000000,   0.18000,
,,,0.434360000000,   0.18000,
,,,0.434380000000,   0.16000,
,,,0.434400000000,   0.18000,
,,,0.434420000000,   0.16000,
,,,0.434440000000,   0.18000,
,,,0.434460000000,   0.16000,
,,,0.434480000000,   0.18000,
,,,0.434500000000,   0.18000,
,,,0.434520000000,   0.18000,
,,,0.434540000000,   0.16000,
,,,0.434560000000,   0.14000,
,,,0.434580000000,   0.16000,
,,,0.434600000000,   0.18000,
,,,0.434620000000,   0.14000,
,,,0.434640000000,   0.16000,
,,,0.434660000000,   0.16000,
,,,0.434680000000,   0.14000,
,,,0.434700000000,   0.16000,
,,,0.434720000000,   0.16000,
,,,0.434740000000,   0.16000,
,,,0.434760000000,   0.16000,
,,,0.434780000000,   0.14000,
,,,0.434800000000,   0.14000,
,,,0.434820000000,   0.16000,
,,,0.434840000000,   0.14000,
,,,0.434860000000,   0.16000,
,,,0.434880000000,   0.16000,
,,,0.434900000000,   0.14000,
,,,0.434920000000,   0.14000,
,,,0.434940000000,   0.14000,
,,,0.434960000000,   0.14000,
,,,0.434980000000,   0.16000,
,,,0.435000000000,   0.14000,
,,,0.435020000000,   0.16000,
,,,0.435040000000,   0.14000,
,,,0.435060000000,   0.14000,
,,,0.435080000000,   0.16000,
,,,0.435100000000,   0.14000,
,,,0.435120000000,   0.14000,
,,,0.435140000000,   0.14000,
,,,0.435160000000,   0.14000,
,,,0.435180000000,   0.14000,
,,,0.435200000000,   0.12000,
,,,0.435220000000,   0.14000,
,,,0.435240000000,   0.16000,
,,,0.435260000000,   0.12000,
,,,0.435280000000,   0.12000,
,,,0.435300000000,   0.12000,
,,,0.435320000000,   0.12000,
,,,0.435340000000,   0.14000,
,,,0.435360000000,   0.14000,
,,,0.435380000000,   0.12000,
,,,0.435400000000,   0.12000,
,,,0.435420000000,   0.12000,
,,,0.435440000000,   0.12000,
,,,0.435460000000,   0.12000,
,,,0.435480000000,   0.12000,
,,,0.435500000000,   0.12000,
,,,0.435520000000,   0.10000,
,,,0.435540000000,   0.12000,
,,,0.435560000000,   0.12000,
,,,0.435580000000,   0.10000,
,,,0.435600000000,   0.12000,
,,,0.435620000000,   0.12000,
,,,0.435640000000,   0.10000,
,,,0.435660000000,   0.12000,
,,,0.435680000000,   0.10000,
,,,0.435700000000,   0.12000,
,,,0.435720000000,   0.10000,
,,,0.435740000000,   0.10000,
,,,0.435760000000,   0.12000,
,,,0.435780000000,   0.10000,
,,,0.435800000000,   0.12000,
,,,0.435820000000,   0.10000,
,,,0.435840000000,   0.12000,
,,,0.435860000000,   0.10000,
,,,0.435880000000,   0.10000,
,,,0.435900000000,   0.10000,
,,,0.435920000000,   0.10000,
,,,0.435940000000,   0.10000,
,,,0.435960000000,   0.08000,
,,,0.435980000000,   0.10000,
,,,0.436000000000,   0.10000,
,,,0.436020000000,   0.10000,
,,,0.436040000000,   0.08000,
,,,0.436060000000,   0.10000,
,,,0.436080000000,   0.08000,
,,,0.436100000000,   0.08000,
,,,0.436120000000,   0.10000,
,,,0.436140000000,   0.08000,
,,,0.436160000000,   0.10000,
,,,0.436180000000,   0.10000,
,,,0.436200000000,   0.12000,
,,,0.436220000000,   0.10000,
,,,0.436240000000,   0.10000,
,,,0.436260000000,   0.08000,
,,,0.436280000000,   0.10000,
,,,0.436300000000,   0.10000,
,,,0.436320000000,   0.08000,
,,,0.436340000000,   0.08000,
,,,0.436360000000,   0.08000,
,,,0.436380000000,   0.08000,
,,,0.436400000000,   0.08000,
,,,0.436420000000,   0.08000,
,,,0.436440000000,   0.08000,
,,,0.436460000000,   0.08000,
,,,0.436480000000,   0.08000,
,,,0.436500000000,   0.06000,
,,,0.436520000000,   0.10000,
,,,0.436540000000,   0.08000,
,,,0.436560000000,   0.06000,
,,,0.436580000000,   0.06000,
,,,0.436600000000,   0.08000,
,,,0.436620000000,   0.08000,
,,,0.436640000000,   0.08000,
,,,0.436660000000,   0.08000,
,,,0.436680000000,   0.08000,
,,,0.436700000000,   0.08000,
,,,0.436720000000,   0.06000,
,,,0.436740000000,   0.08000,
,,,0.436760000000,   0.06000,
,,,0.436780000000,   0.04000,
,,,0.436800000000,   0.08000,
,,,0.436820000000,   0.06000,
,,,0.436840000000,   0.06000,
,,,0.436860000000,   0.06000,
,,,0.436880000000,   0.06000,
,,,0.436900000000,   0.08000,
,,,0.436920000000,   0.06000,
,,,0.436940000000,   0.04000,
,,,0.436960000000,   0.06000,
,,,0.436980000000,   0.08000,
,,,0.437000000000,   0.06000,
,,,0.437020000000,   0.06000,
,,,0.437040000000,   0.04000,
,,,0.437060000000,   0.06000,
,,,0.437080000000,   0.06000,
,,,0.437100000000,   0.04000,
,,,0.437120000000,   0.04000,
,,,0.437140000000,   0.06000,
,,,0.437160000000,   0.06000,
,,,0.437180000000,   0.04000,
,,,0.437200000000,   0.04000,
,,,0.437220000000,   0.06000,
,,,0.437240000000,   0.04000,
,,,0.437260000000,   0.04000,
,,,0.437280000000,   0.02000,
,,,0.437300000000,   0.06000,
,,,0.437320000000,   0.06000,
,,,0.437340000000,   0.04000,
,,,0.437360000000,   0.04000,
,,,0.437380000000,   0.04000,
,,,0.437400000000,   0.02000,
,,,0.437420000000,   0.02000,
,,,0.437440000000,   0.04000,
,,,0.437460000000,   0.04000,
,,,0.437480000000,   0.04000,
,,,0.437500000000,   0.04000,
,,,0.437520000000,   0.04000,
,,,0.437540000000,   0.02000,
,,,0.437560000000,   0.04000,
,,,0.437580000000,   0.02000,
,,,0.437600000000,   0.04000,
,,,0.437620000000,   0.04000,
,,,0.437640000000,   0.02000,
,,,0.437660000000,   0.02000,
,,,0.437680000000,   0.02000,
,,,0.437700000000,   0.02000,
,,,0.437720000000,   0.02000,
,,,0.437740000000,   0.02000,
,,,0.437760000000,   0.02000,
,,,0.437780000000,   0.04000,
,,,0.437800000000,   0.02000,
,,,0.437820000000,   0.02000,
,,,0.437840000000,   0.02000,
,,,0.437860000000,   0.02000,
,,,0.437880000000,   0.02000,
,,,0.437900000000,   0.00000,
,,,0.437920000000,   0.04000,
,,,0.437940000000,   0.02000,
,,,0.437960000000,   0.02000,
,,,0.437980000000,   0.00000,
,,,0.438000000000,   0.02000,
,,,0.438020000000,   0.02000,
,,,0.438040000000,   0.02000,
,,,0.438060000000,   0.02000,
,,,0.438080000000,   0.02000,
,,,0.438100000000,   0.02000,
,,,0.438120000000,   0.02000,
,,,0.438140000000,   0.02000,
,,,0.438160000000,   0.00000,
,,,0.438180000000,   0.00000,
,,,0.438200000000,   0.00000,
,,,0.438220000000,   0.02000,
,,,0.438240000000,   0.00000,
,,,0.438260000000,   0.02000,
,,,0.438280000000,   0.00000,
,,,0.438300000000,   0.00000,
,,,0.438320000000,   0.02000,
,,,0.438340000000,   0.00000,
,,,0.438360000000,  -0.02000,
,,,0.438380000000,   0.00000,
,,,0.438400000000,   0.00000,
,,,0.438420000000,   0.00000,
,,,0.438440000000,   0.00000,
,,,0.438460000000,   0.00000,
,,,0.438480000000,   0.00000,
,,,0.438500000000,   0.00000,
,,,0.438520000000,   0.00000,
,,,0.438540000000,  -0.02000,
,,,0.438560000000,   0.00000,
,,,0.438580000000,   0.00000,
,,,0.438600000000,  -0.02000,
,,,0.438620000000,   0.00000,
,,,0.438640000000,  -0.02000,
,,,0.438660000000,  -0.04000,
,,,0.438680000000,  -0.02000,
,,,0.438700000000,  -0.04000,
,,,0.438720000000,  -0.04000,
,,,0.438740000000,  -0.04000,
,,,0.438760000000,  -0.02000,
,,,0.438780000000,   0.00000,
,,,0.438800000000,  -0.04000,
,,,0.438820000000,  -0.04000,
,,,0.438840000000,  -0.02000,
,,,0.438860000000,  -0.04000,
,,,0.438880000000,  -0.02000,
,,,0.438900000000,  -0.02000,
,,,0.438920000000,  -0.02000,
,,,0.438940000000,  -0.04000,
,,,0.438960000000,  -0.04000,
,,,0.438980000000,  -0.02000,
,,,0.439000000000,  -0.04000,
,,,0.439020000000,  -0.02000,
,,,0.439040000000,  -0.06000,
,,,0.439060000000,  -0.02000,
,,,0.439080000000,  -0.04000,
,,,0.439100000000,  -0.04000,
,,,0.439120000000,  -0.04000,
,,,0.439140000000,  -0.06000,
,,,0.439160000000,  -0.06000,
,,,0.439180000000,  -0.06000,
,,,0.439200000000,  -0.02000,
,,,0.439220000000,  -0.06000,
,,,0.439240000000,  -0.04000,
,,,0.439260000000,  -0.04000,
,,,0.439280000000,  -0.06000,
,,,0.439300000000,  -0.04000,
,,,0.439320000000,  -0.04000,
,,,0.439340000000,  -0.04000,
,,,0.439360000000,  -0.06000,
,,,0.439380000000,  -0.04000,
,,,0.439400000000,  -0.04000,
,,,0.439420000000,  -0.02000,
,,,0.439440000000,  -0.06000,
,,,0.439460000000,  -0.06000,
,,,0.439480000000,  -0.06000,
,,,0.439500000000,  -0.06000,
,,,0.439520000000,  -0.04000,
,,,0.439540000000,  -0.08000,
,,,0.439560000000,  -0.06000,
,,,0.439580000000,  -0.06000,
,,,0.439600000000,  -0.04000,
,,,0.439620000000,  -0.08000,
,,,0.439640000000,  -0.06000,
,,,0.439660000000,  -0.08000,
,,,0.439680000000,  -0.06000,
,,,0.439700000000,  -0.06000,
,,,0.439720000000,  -0.08000,
,,,0.439740000000,  -0.06000,
,,,0.439760000000,  -0.10000,
,,,0.439780000000,  -0.08000,
,,,0.439800000000,  -0.06000,
,,,0.439820000000,  -0.08000,
,,,0.439840000000,  -0.06000,
,,,0.439860000000,  -0.08000,
,,,0.439880000000,  -0.06000,
,,,0.439900000000,  -0.06000,
,,,0.439920000000,  -0.06000,
,,,0.439940000000,  -0.08000,
,,,0.439960000000,  -0.06000,
,,,0.439980000000,  -0.06000,
,,,0.440000000000,  -0.08000,
,,,0.440020000000,  -0.06000,
,,,0.440040000000,  -0.06000,
,,,0.440060000000,  -0.10000,
,,,0.440080000000,  -0.06000,
,,,0.440100000000,  -0.10000,
,,,0.440120000000,  -0.08000,
,,,0.440140000000,  -0.06000,
,,,0.440160000000,  -0.08000,
,,,0.440180000000,  -0.08000,
,,,0.440200000000,  -0.10000,
,,,0.440220000000,  -0.10000,
,,,0.440240000000,  -0.10000,
,,,0.440260000000,  -0.08000,
,,,0.440280000000,  -0.10000,
,,,0.440300000000,  -0.08000,
,,,0.440320000000,  -0.10000,
,,,0.440340000000,  -0.10000,
,,,0.440360000000,  -0.08000,
,,,0.440380000000,  -0.10000,
,,,0.440400000000,  -0.10000,
,,,0.440420000000,  -0.08000,
,,,0.440440000000,  -0.12000,
,,,0.440460000000,  -0.10000,
,,,0.440480000000,  -0.08000,
,,,0.440500000000,  -0.10000,
,,,0.440520000000,  -0.10000,
,,,0.440540000000,  -0.10000,
,,,0.440560000000,  -0.12000,
,,,0.440580000000,  -0.08000,
,,,0.440600000000,  -0.10000,
,,,0.440620000000,  -0.10000,
,,,0.440640000000,  -0.10000,
,,,0.440660000000,  -0.12000,
,,,0.440680000000,  -0.12000,
,,,0.440700000000,  -0.12000,
,,,0.440720000000,  -0.12000,
,,,0.440740000000,  -0.10000,
,,,0.440760000000,  -0.14000,
,,,0.440780000000,  -0.12000,
,,,0.440800000000,  -0.10000,
,,,0.440820000000,  -0.14000,
,,,0.440840000000,  -0.12000,
,,,0.440860000000,  -0.12000,
,,,0.440880000000,  -0.12000,
,,,0.440900000000,  -0.12000,
,,,0.440920000000,  -0.12000,
,,,0.440940000000,  -0.12000,
,,,0.440960000000,  -0.12000,
,,,0.440980000000,  -0.12000,
,,,0.441000000000,  -0.12000,
,,,0.441020000000,  -0.10000,
,,,0.441040000000,  -0.12000,
,,,0.441060000000,  -0.14000,
,,,0.441080000000,  -0.14000,
,,,0.441100000000,  -0.14000,
,,,0.441120000000,  -0.12000,
,,,0.441140000000,  -0.12000,
,,,0.441160000000,  -0.12000,
,,,0.441180000000,  -0.12000,
,,,0.441200000000,  -0.14000,
,,,0.441220000000,  -0.14000,
,,,0.441240000000,  -0.14000,
,,,0.441260000000,  -0.12000,
,,,0.441280000000,  -0.12000,
,,,0.441300000000,  -0.14000,
,,,0.441320000000,  -0.14000,
,,,0.441340000000,  -0.14000,
,,,0.441360000000,  -0.14000,
,,,0.441380000000,  -0.14000,
,,,0.441400000000,  -0.14000,
,,,0.441420000000,  -0.14000,
,,,0.441440000000,  -0.14000,
,,,0.441460000000,  -0.16000,
,,,0.441480000000,  -0.14000,
,,,0.441500000000,  -0.14000,
,,,0.441520000000,  -0.16000,
,,,0.441540000000,  -0.16000,
,,,0.441560000000,  -0.18000,
,,,0.441580000000,  -0.14000,
,,,0.441600000000,  -0.14000,
,,,0.441620000000,  -0.16000,
,,,0.441640000000,  -0.14000,
,,,0.441660000000,  -0.14000,
,,,0.441680000000,  -0.16000,
,,,0.441700000000,  -0.16000,
,,,0.441720000000,  -0.16000,
,,,0.441740000000,  -0.16000,
,,,0.441760000000,  -0.14000,
,,,0.441780000000,  -0.16000,
,,,0.441800000000,  -0.14000,
,,,0.441820000000,  -0.14000,
,,,0.441840000000,  -0.16000,
,,,0.441860000000,  -0.16000,
,,,0.441880000000,  -0.18000,
,,,0.441900000000,  -0.18000,
,,,0.441920000000,  -0.16000,
,,,0.441940000000,  -0.16000,
,,,0.441960000000,  -0.20000,
,,,0.441980000000,  -0.16000,
,,,0.442000000000,  -0.14000,
,,,0.442020000000,  -0.18000,
,,,0.442040000000,  -0.16000,
,,,0.442060000000,  -0.16000,
,,,0.442080000000,  -0.18000,
,,,0.442100000000,  -0.16000,
,,,0.442120000000,  -0.16000,
,,,0.442140000000,  -0.18000,
,,,0.442160000000,  -0.18000,
,,,0.442180000000,  -0.18000,
,,,0.442200000000,  -0.18000,
,,,0.442220000000,  -0.16000,
,,,0.442240000000,  -0.16000,
,,,0.442260000000,  -0.20000,
,,,0.442280000000,  -0.20000,
,,,0.442300000000,  -0.18000,
,,,0.442320000000,  -0.16000,
,,,0.442340000000,  -0.18000,
,,,0.442360000000,  -0.20000,
,,,0.442380000000,  -0.20000,
,,,0.442400000000,  -0.18000,
,,,0.442420000000,  -0.18000,
,,,0.442440000000,  -0.20000,
,,,0.442460000000,  -0.20000,
,,,0.442480000000,  -0.18000,
,,,0.442500000000,  -0.18000,
,,,0.442520000000,  -0.18000,
,,,0.442540000000,  -0.20000,
,,,0.442560000000,  -0.20000,
,,,0.442580000000,  -0.18000,
,,,0.442600000000,  -0.20000,
,,,0.442620000000,  -0.20000,
,,,0.442640000000,  -0.20000,
,,,0.442660000000,  -0.20000,
,,,0.442680000000,  -0.20000,
,,,0.442700000000,  -0.20000,
,,,0.442720000000,  -0.20000,
,,,0.442740000000,  -0.20000,
,,,0.442760000000,  -0.20000,
,,,0.442780000000,  -0.22000,
,,,0.442800000000,  -0.20000,
,,,0.442820000000,  -0.20000,
,,,0.442840000000,  -0.22000,
,,,0.442860000000,  -0.20000,
,,,0.442880000000,  -0.20000,
,,,0.442900000000,  -0.20000,
,,,0.442920000000,  -0.20000,
,,,0.442940000000,  -0.22000,
,,,0.442960000000,  -0.22000,
,,,0.442980000000,  -0.20000,
,,,0.443000000000,  -0.22000,
,,,0.443020000000,  -0.22000,
,,,0.443040000000,  -0.22000,
,,,0.443060000000,  -0.20000,
,,,0.443080000000,  -0.22000,
,,,0.443100000000,  -0.24000,
,,,0.443120000000,  -0.22000,
,,,0.443140000000,  -0.22000,
,,,0.443160000000,  -0.22000,
,,,0.443180000000,  -0.22000,
,,,0.443200000000,  -0.22000,
,,,0.443220000000,  -0.22000,
,,,0.443240000000,  -0.22000,
,,,0.443260000000,  -0.22000,
