Ex 1.5 -  Doppler Free/5 dips result/sff.CSV

Record Length,2.500000e+03,,   0.525920000000,   0.15620,
Sample Interval,4.000000e-06,,   0.525924000000,   0.15620,
Trigger Point,-1.314800000000e+05,,   0.525928000000,   0.15620,
,,,   0.525932000000,   0.15600,
,,,   0.525936000000,   0.15600,
,,,   0.525940000000,   0.15620,
Source,CH1,,   0.525944000000,   0.15620,
Vertical Units,V,,   0.525948000000,   0.15600,
Vertical Scale,5.000000e-03,,   0.525952000000,   0.15620,
Vertical Offset,-1.456000e-01,,   0.525956000000,   0.15600,
Horizontal Units,s,,   0.525960000000,   0.15620,
Horizontal Scale,1.000000e-03,,   0.525964000000,   0.15600,
Pt Fmt,Y,,   0.525968000000,   0.15620,
Yzero,0.000000e+00,,   0.525972000000,   0.15600,
Probe Atten,1.000000e+00,,   0.525976000000,   0.15620,
Model Number,TDS2024B,,   0.525980000000,   0.15600,
Serial Number,C104833,,   0.525984000000,   0.15620,
Firmware Version,FV:v24.02,,   0.525988000000,   0.15600,
,,,0.525992000000,   0.15600,
,,,0.525996000000,   0.15600,
,,,0.526000000000,   0.15580,
,,,0.526004000000,   0.15600,
,,,0.526008000000,   0.15580,
,,,0.526012000000,   0.15600,
,,,0.526016000000,   0.15600,
,,,0.526020000000,   0.15600,
,,,0.526024000000,   0.15600,
,,,0.526028000000,   0.15580,
,,,0.526032000000,   0.15580,
,,,0.526036000000,   0.15580,
,,,0.526040000000,   0.15580,
,,,0.526044000000,   0.15580,
,,,0.526048000000,   0.15600,
,,,0.526052000000,   0.15580,
,,,0.526056000000,   0.15600,
,,,0.526060000000,   0.15580,
,,,0.526064000000,   0.15600,
,,,0.526068000000,   0.15580,
,,,0.526072000000,   0.15560,
,,,0.526076000000,   0.15580,
,,,0.526080000000,   0.15600,
,,,0.526084000000,   0.15560,
,,,0.526088000000,   0.15580,
,,,0.526092000000,   0.15560,
,,,0.526096000000,   0.15580,
,,,0.526100000000,   0.15580,
,,,0.526104000000,   0.15560,
,,,0.526108000000,   0.15580,
,,,0.526112000000,   0.15580,
,,,0.526116000000,   0.15580,
,,,0.526120000000,   0.15580,
,,,0.526124000000,   0.15580,
,,,0.526128000000,   0.15560,
,,,0.526132000000,   0.15560,
,,,0.526136000000,   0.15560,
,,,0.526140000000,   0.15540,
,,,0.526144000000,   0.15580,
,,,0.526148000000,   0.15560,
,,,0.526152000000,   0.15540,
,,,0.526156000000,   0.15560,
,,,0.526160000000,   0.15580,
,,,0.526164000000,   0.15560,
,,,0.526168000000,   0.15540,
,,,0.526172000000,   0.15560,
,,,0.526176000000,   0.15540,
,,,0.526180000000,   0.15560,
,,,0.526184000000,   0.15540,
,,,0.526188000000,   0.15560,
,,,0.526192000000,   0.15540,
,,,0.526196000000,   0.15540,
,,,0.526200000000,   0.15540,
,,,0.526204000000,   0.15540,
,,,0.526208000000,   0.15540,
,,,0.526212000000,   0.15540,
,,,0.526216000000,   0.15540,
,,,0.526220000000,   0.15540,
,,,0.526224000000,   0.15540,
,,,0.526228000000,   0.15540,
,,,0.526232000000,   0.15540,
,,,0.526236000000,   0.15540,
,,,0.526240000000,   0.15520,
,,,0.526244000000,   0.15520,
,,,0.526248000000,   0.15520,
,,,0.526252000000,   0.15520,
,,,0.526256000000,   0.15540,
,,,0.526260000000,   0.15540,
,,,0.526264000000,   0.15540,
,,,0.526268000000,   0.15540,
,,,0.526272000000,   0.15520,
,,,0.526276000000,   0.15520,
,,,0.526280000000,   0.15520,
,,,0.526284000000,   0.15520,
,,,0.526288000000,   0.15540,
,,,0.526292000000,   0.15520,
,,,0.526296000000,   0.15520,
,,,0.526300000000,   0.15520,
,,,0.526304000000,   0.15520,
,,,0.526308000000,   0.15520,
,,,0.526312000000,   0.15520,
,,,0.526316000000,   0.15500,
,,,0.526320000000,   0.15520,
,,,0.526324000000,   0.15500,
,,,0.526328000000,   0.15520,
,,,0.526332000000,   0.15520,
,,,0.526336000000,   0.15520,
,,,0.526340000000,   0.15500,
,,,0.526344000000,   0.15500,
,,,0.526348000000,   0.15500,
,,,0.526352000000,   0.15520,
,,,0.526356000000,   0.15500,
,,,0.526360000000,   0.15520,
,,,0.526364000000,   0.15500,
,,,0.526368000000,   0.15500,
,,,0.526372000000,   0.15500,
,,,0.526376000000,   0.15500,
,,,0.526380000000,   0.15500,
,,,0.526384000000,   0.15480,
,,,0.526388000000,   0.15500,
,,,0.526392000000,   0.15480,
,,,0.526396000000,   0.15500,
,,,0.526400000000,   0.15480,
,,,0.526404000000,   0.15500,
,,,0.526408000000,   0.15480,
,,,0.526412000000,   0.15480,
,,,0.526416000000,   0.15480,
,,,0.526420000000,   0.15480,
,,,0.526424000000,   0.15480,
,,,0.526428000000,   0.15480,
,,,0.526432000000,   0.15480,
,,,0.526436000000,   0.15500,
,,,0.526440000000,   0.15480,
,,,0.526444000000,   0.15480,
,,,0.526448000000,   0.15480,
,,,0.526452000000,   0.15480,
,,,0.526456000000,   0.15480,
,,,0.526460000000,   0.15480,
,,,0.526464000000,   0.15460,
,,,0.526468000000,   0.15480,
,,,0.526472000000,   0.15460,
,,,0.526476000000,   0.15480,
,,,0.526480000000,   0.15480,
,,,0.526484000000,   0.15460,
,,,0.526488000000,   0.15480,
,,,0.526492000000,   0.15460,
,,,0.526496000000,   0.15460,
,,,0.526500000000,   0.15480,
,,,0.526504000000,   0.15480,
,,,0.526508000000,   0.15460,
,,,0.526512000000,   0.15460,
,,,0.526516000000,   0.15460,
,,,0.526520000000,   0.15460,
,,,0.526524000000,   0.15460,
,,,0.526528000000,   0.15480,
,,,0.526532000000,   0.15460,
,,,0.526536000000,   0.15460,
,,,0.526540000000,   0.15440,
,,,0.526544000000,   0.15460,
,,,0.526548000000,   0.15480,
,,,0.526552000000,   0.15460,
,,,0.526556000000,   0.15460,
,,,0.526560000000,   0.15440,
,,,0.526564000000,   0.15460,
,,,0.526568000000,   0.15440,
,,,0.526572000000,   0.15460,
,,,0.526576000000,   0.15460,
,,,0.526580000000,   0.15420,
,,,0.526584000000,   0.15440,
,,,0.526588000000,   0.15460,
,,,0.526592000000,   0.15460,
,,,0.526596000000,   0.15460,
,,,0.526600000000,   0.15440,
,,,0.526604000000,   0.15460,
,,,0.526608000000,   0.15460,
,,,0.526612000000,   0.15440,
,,,0.526616000000,   0.15460,
,,,0.526620000000,   0.15460,
,,,0.526624000000,   0.15440,
,,,0.526628000000,   0.15460,
,,,0.526632000000,   0.15460,
,,,0.526636000000,   0.15460,
,,,0.526640000000,   0.15440,
,,,0.526644000000,   0.15440,
,,,0.526648000000,   0.15440,
,,,0.526652000000,   0.15440,
,,,0.526656000000,   0.15440,
,,,0.526660000000,   0.15440,
,,,0.526664000000,   0.15440,
,,,0.526668000000,   0.15440,
,,,0.526672000000,   0.15440,
,,,0.526676000000,   0.15460,
,,,0.526680000000,   0.15440,
,,,0.526684000000,   0.15460,
,,,0.526688000000,   0.15440,
,,,0.526692000000,   0.15460,
,,,0.526696000000,   0.15440,
,,,0.526700000000,   0.15420,
,,,0.526704000000,   0.15420,
,,,0.526708000000,   0.15440,
,,,0.526712000000,   0.15440,
,,,0.526716000000,   0.15440,
,,,0.526720000000,   0.15440,
,,,0.526724000000,   0.15460,
,,,0.526728000000,   0.15440,
,,,0.526732000000,   0.15440,
,,,0.526736000000,   0.15440,
,,,0.526740000000,   0.15440,
,,,0.526744000000,   0.15440,
,,,0.526748000000,   0.15420,
,,,0.526752000000,   0.15420,
,,,0.526756000000,   0.15420,
,,,0.526760000000,   0.15420,
,,,0.526764000000,   0.15420,
,,,0.526768000000,   0.15440,
,,,0.526772000000,   0.15440,
,,,0.526776000000,   0.15440,
,,,0.526780000000,   0.15420,
,,,0.526784000000,   0.15420,
,,,0.526788000000,   0.15440,
,,,0.526792000000,   0.15420,
,,,0.526796000000,   0.15440,
,,,0.526800000000,   0.15440,
,,,0.526804000000,   0.15400,
,,,0.526808000000,   0.15440,
,,,0.526812000000,   0.15420,
,,,0.526816000000,   0.15420,
,,,0.526820000000,   0.15420,
,,,0.526824000000,   0.15420,
,,,0.526828000000,   0.15420,
,,,0.526832000000,   0.15420,
,,,0.526836000000,   0.15380,
,,,0.526840000000,   0.15420,
,,,0.526844000000,   0.15420,
,,,0.526848000000,   0.15420,
,,,0.526852000000,   0.15440,
,,,0.526856000000,   0.15400,
,,,0.526860000000,   0.15420,
,,,0.526864000000,   0.15400,
,,,0.526868000000,   0.15420,
,,,0.526872000000,   0.15400,
,,,0.526876000000,   0.15420,
,,,0.526880000000,   0.15400,
,,,0.526884000000,   0.15400,
,,,0.526888000000,   0.15400,
,,,0.526892000000,   0.15400,
,,,0.526896000000,   0.15400,
,,,0.526900000000,   0.15400,
,,,0.526904000000,   0.15420,
,,,0.526908000000,   0.15400,
,,,0.526912000000,   0.15400,
,,,0.526916000000,   0.15400,
,,,0.526920000000,   0.15420,
,,,0.526924000000,   0.15400,
,,,0.526928000000,   0.15400,
,,,0.526932000000,   0.15380,
,,,0.526936000000,   0.15400,
,,,0.526940000000,   0.15400,
,,,0.526944000000,   0.15400,
,,,0.526948000000,   0.15380,
,,,0.526952000000,   0.15400,
,,,0.526956000000,   0.15400,
,,,0.526960000000,   0.15380,
,,,0.526964000000,   0.15380,
,,,0.526968000000,   0.15400,
,,,0.526972000000,   0.15380,
,,,0.526976000000,   0.15380,
,,,0.526980000000,   0.15360,
,,,0.526984000000,   0.15380,
,,,0.526988000000,   0.15360,
,,,0.526992000000,   0.15380,
,,,0.526996000000,   0.15380,
,,,0.527000000000,   0.15360,
,,,0.527004000000,   0.15360,
,,,0.527008000000,   0.15400,
,,,0.527012000000,   0.15380,
,,,0.527016000000,   0.15360,
,,,0.527020000000,   0.15380,
,,,0.527024000000,   0.15360,
,,,0.527028000000,   0.15360,
,,,0.527032000000,   0.15360,
,,,0.527036000000,   0.15360,
,,,0.527040000000,   0.15360,
,,,0.527044000000,   0.15340,
,,,0.527048000000,   0.15360,
,,,0.527052000000,   0.15360,
,,,0.527056000000,   0.15360,
,,,0.527060000000,   0.15340,
,,,0.527064000000,   0.15340,
,,,0.527068000000,   0.15340,
,,,0.527072000000,   0.15340,
,,,0.527076000000,   0.15340,
,,,0.527080000000,   0.15340,
,,,0.527084000000,   0.15340,
,,,0.527088000000,   0.15320,
,,,0.527092000000,   0.15340,
,,,0.527096000000,   0.15360,
,,,0.527100000000,   0.15360,
,,,0.527104000000,   0.15320,
,,,0.527108000000,   0.15340,
,,,0.527112000000,   0.15320,
,,,0.527116000000,   0.15340,
,,,0.527120000000,   0.15340,
,,,0.527124000000,   0.15320,
,,,0.527128000000,   0.15320,
,,,0.527132000000,   0.15300,
,,,0.527136000000,   0.15320,
,,,0.527140000000,   0.15320,
,,,0.527144000000,   0.15320,
,,,0.527148000000,   0.15340,
,,,0.527152000000,   0.15300,
,,,0.527156000000,   0.15320,
,,,0.527160000000,   0.15300,
,,,0.527164000000,   0.15320,
,,,0.527168000000,   0.15320,
,,,0.527172000000,   0.15300,
,,,0.527176000000,   0.15300,
,,,0.527180000000,   0.15300,
,,,0.527184000000,   0.15320,
,,,0.527188000000,   0.15300,
,,,0.527192000000,   0.15300,
,,,0.527196000000,   0.15300,
,,,0.527200000000,   0.15300,
,,,0.527204000000,   0.15300,
,,,0.527208000000,   0.15300,
,,,0.527212000000,   0.15300,
,,,0.527216000000,   0.15300,
,,,0.527220000000,   0.15300,
,,,0.527224000000,   0.15280,
,,,0.527228000000,   0.15300,
,,,0.527232000000,   0.15280,
,,,0.527236000000,   0.15300,
,,,0.527240000000,   0.15280,
,,,0.527244000000,   0.15280,
,,,0.527248000000,   0.15260,
,,,0.527252000000,   0.15280,
,,,0.527256000000,   0.15260,
,,,0.527260000000,   0.15280,
,,,0.527264000000,   0.15260,
,,,0.527268000000,   0.15280,
,,,0.527272000000,   0.15260,
,,,0.527276000000,   0.15280,
,,,0.527280000000,   0.15260,
,,,0.527284000000,   0.15280,
,,,0.527288000000,   0.15260,
,,,0.527292000000,   0.15260,
,,,0.527296000000,   0.15260,
,,,0.527300000000,   0.15260,
,,,0.527304000000,   0.15260,
,,,0.527308000000,   0.15260,
,,,0.527312000000,   0.15240,
,,,0.527316000000,   0.15240,
,,,0.527320000000,   0.15260,
,,,0.527324000000,   0.15240,
,,,0.527328000000,   0.15220,
,,,0.527332000000,   0.15240,
,,,0.527336000000,   0.15240,
,,,0.527340000000,   0.15260,
,,,0.527344000000,   0.15220,
,,,0.527348000000,   0.15240,
,,,0.527352000000,   0.15260,
,,,0.527356000000,   0.15220,
,,,0.527360000000,   0.15260,
,,,0.527364000000,   0.15220,
,,,0.527368000000,   0.15240,
,,,0.527372000000,   0.15220,
,,,0.527376000000,   0.15220,
,,,0.527380000000,   0.15220,
,,,0.527384000000,   0.15240,
,,,0.527388000000,   0.15220,
,,,0.527392000000,   0.15220,
,,,0.527396000000,   0.15220,
,,,0.527400000000,   0.15220,
,,,0.527404000000,   0.15200,
,,,0.527408000000,   0.15220,
,,,0.527412000000,   0.15220,
,,,0.527416000000,   0.15220,
,,,0.527420000000,   0.15220,
,,,0.527424000000,   0.15240,
,,,0.527428000000,   0.15220,
,,,0.527432000000,   0.15200,
,,,0.527436000000,   0.15200,
,,,0.527440000000,   0.15220,
,,,0.527444000000,   0.15200,
,,,0.527448000000,   0.15220,
,,,0.527452000000,   0.15200,
,,,0.527456000000,   0.15200,
,,,0.527460000000,   0.15200,
,,,0.527464000000,   0.15180,
,,,0.527468000000,   0.15200,
,,,0.527472000000,   0.15200,
,,,0.527476000000,   0.15180,
,,,0.527480000000,   0.15180,
,,,0.527484000000,   0.15200,
,,,0.527488000000,   0.15200,
,,,0.527492000000,   0.15180,
,,,0.527496000000,   0.15180,
,,,0.527500000000,   0.15180,
,,,0.527504000000,   0.15180,
,,,0.527508000000,   0.15200,
,,,0.527512000000,   0.15180,
,,,0.527516000000,   0.15180,
,,,0.527520000000,   0.15180,
,,,0.527524000000,   0.15180,
,,,0.527528000000,   0.15180,
,,,0.527532000000,   0.15180,
,,,0.527536000000,   0.15200,
,,,0.527540000000,   0.15180,
,,,0.527544000000,   0.15160,
,,,0.527548000000,   0.15180,
,,,0.527552000000,   0.15160,
,,,0.527556000000,   0.15180,
,,,0.527560000000,   0.15160,
,,,0.527564000000,   0.15140,
,,,0.527568000000,   0.15180,
,,,0.527572000000,   0.15160,
,,,0.527576000000,   0.15160,
,,,0.527580000000,   0.15160,
,,,0.527584000000,   0.15160,
,,,0.527588000000,   0.15140,
,,,0.527592000000,   0.15180,
,,,0.527596000000,   0.15140,
,,,0.527600000000,   0.15180,
,,,0.527604000000,   0.15160,
,,,0.527608000000,   0.15160,
,,,0.527612000000,   0.15140,
,,,0.527616000000,   0.15140,
,,,0.527620000000,   0.15160,
,,,0.527624000000,   0.15140,
,,,0.527628000000,   0.15160,
,,,0.527632000000,   0.15140,
,,,0.527636000000,   0.15140,
,,,0.527640000000,   0.15180,
,,,0.527644000000,   0.15140,
,,,0.527648000000,   0.15140,
,,,0.527652000000,   0.15140,
,,,0.527656000000,   0.15160,
,,,0.527660000000,   0.15140,
,,,0.527664000000,   0.15120,
,,,0.527668000000,   0.15160,
,,,0.527672000000,   0.15140,
,,,0.527676000000,   0.15160,
,,,0.527680000000,   0.15140,
,,,0.527684000000,   0.15120,
,,,0.527688000000,   0.15140,
,,,0.527692000000,   0.15140,
,,,0.527696000000,   0.15160,
,,,0.527700000000,   0.15160,
,,,0.527704000000,   0.15140,
,,,0.527708000000,   0.15140,
,,,0.527712000000,   0.15140,
,,,0.527716000000,   0.15120,
,,,0.527720000000,   0.15140,
,,,0.527724000000,   0.15120,
,,,0.527728000000,   0.15120,
,,,0.527732000000,   0.15140,
,,,0.527736000000,   0.15120,
,,,0.527740000000,   0.15120,
,,,0.527744000000,   0.15140,
,,,0.527748000000,   0.15140,
,,,0.527752000000,   0.15140,
,,,0.527756000000,   0.15140,
,,,0.527760000000,   0.15140,
,,,0.527764000000,   0.15140,
,,,0.527768000000,   0.15120,
,,,0.527772000000,   0.15100,
,,,0.527776000000,   0.15120,
,,,0.527780000000,   0.15140,
,,,0.527784000000,   0.15120,
,,,0.527788000000,   0.15140,
,,,0.527792000000,   0.15140,
,,,0.527796000000,   0.15100,
,,,0.527800000000,   0.15160,
,,,0.527804000000,   0.15140,
,,,0.527808000000,   0.15120,
,,,0.527812000000,   0.15120,
,,,0.527816000000,   0.15120,
,,,0.527820000000,   0.15120,
,,,0.527824000000,   0.15120,
,,,0.527828000000,   0.15120,
,,,0.527832000000,   0.15100,
,,,0.527836000000,   0.15140,
,,,0.527840000000,   0.15120,
,,,0.527844000000,   0.15100,
,,,0.527848000000,   0.15100,
,,,0.527852000000,   0.15140,
,,,0.527856000000,   0.15120,
,,,0.527860000000,   0.15120,
,,,0.527864000000,   0.15120,
,,,0.527868000000,   0.15120,
,,,0.527872000000,   0.15120,
,,,0.527876000000,   0.15120,
,,,0.527880000000,   0.15100,
,,,0.527884000000,   0.15100,
,,,0.527888000000,   0.15100,
,,,0.527892000000,   0.15120,
,,,0.527896000000,   0.15100,
,,,0.527900000000,   0.15120,
,,,0.527904000000,   0.15100,
,,,0.527908000000,   0.15100,
,,,0.527912000000,   0.15120,
,,,0.527916000000,   0.15100,
,,,0.527920000000,   0.15120,
,,,0.527924000000,   0.15120,
,,,0.527928000000,   0.15100,
,,,0.527932000000,   0.15100,
,,,0.527936000000,   0.15120,
,,,0.527940000000,   0.15100,
,,,0.527944000000,   0.15100,
,,,0.527948000000,   0.15120,
,,,0.527952000000,   0.15120,
,,,0.527956000000,   0.15100,
,,,0.527960000000,   0.15100,
,,,0.527964000000,   0.15100,
,,,0.527968000000,   0.15100,
,,,0.527972000000,   0.15100,
,,,0.527976000000,   0.15100,
,,,0.527980000000,   0.15120,
,,,0.527984000000,   0.15100,
,,,0.527988000000,   0.15100,
,,,0.527992000000,   0.15100,
,,,0.527996000000,   0.15080,
,,,0.528000000000,   0.15100,
,,,0.528004000000,   0.15100,
,,,0.528008000000,   0.15100,
,,,0.528012000000,   0.15100,
,,,0.528016000000,   0.15080,
,,,0.528020000000,   0.15080,
,,,0.528024000000,   0.15080,
,,,0.528028000000,   0.15080,
,,,0.528032000000,   0.15100,
,,,0.528036000000,   0.15100,
,,,0.528040000000,   0.15080,
,,,0.528044000000,   0.15080,
,,,0.528048000000,   0.15100,
,,,0.528052000000,   0.15080,
,,,0.528056000000,   0.15100,
,,,0.528060000000,   0.15100,
,,,0.528064000000,   0.15100,
,,,0.528068000000,   0.15060,
,,,0.528072000000,   0.15100,
,,,0.528076000000,   0.15080,
,,,0.528080000000,   0.15060,
,,,0.528084000000,   0.15060,
,,,0.528088000000,   0.15080,
,,,0.528092000000,   0.15080,
,,,0.528096000000,   0.15080,
,,,0.528100000000,   0.15080,
,,,0.528104000000,   0.15060,
,,,0.528108000000,   0.15060,
,,,0.528112000000,   0.15060,
,,,0.528116000000,   0.15060,
,,,0.528120000000,   0.15080,
,,,0.528124000000,   0.15080,
,,,0.528128000000,   0.15060,
,,,0.528132000000,   0.15060,
,,,0.528136000000,   0.15060,
,,,0.528140000000,   0.15080,
,,,0.528144000000,   0.15080,
,,,0.528148000000,   0.15080,
,,,0.528152000000,   0.15060,
,,,0.528156000000,   0.15060,
,,,0.528160000000,   0.15060,
,,,0.528164000000,   0.15060,
,,,0.528168000000,   0.15060,
,,,0.528172000000,   0.15060,
,,,0.528176000000,   0.15060,
,,,0.528180000000,   0.15040,
,,,0.528184000000,   0.15080,
,,,0.528188000000,   0.15020,
,,,0.528192000000,   0.15040,
,,,0.528196000000,   0.15040,
,,,0.528200000000,   0.15060,
,,,0.528204000000,   0.15060,
,,,0.528208000000,   0.15020,
,,,0.528212000000,   0.15060,
,,,0.528216000000,   0.15040,
,,,0.528220000000,   0.15040,
,,,0.528224000000,   0.15040,
,,,0.528228000000,   0.15040,
,,,0.528232000000,   0.15040,
,,,0.528236000000,   0.15040,
,,,0.528240000000,   0.15020,
,,,0.528244000000,   0.15040,
,,,0.528248000000,   0.15040,
,,,0.528252000000,   0.15040,
,,,0.528256000000,   0.15020,
,,,0.528260000000,   0.15020,
,,,0.528264000000,   0.15040,
,,,0.528268000000,   0.15020,
,,,0.528272000000,   0.15040,
,,,0.528276000000,   0.15020,
,,,0.528280000000,   0.15020,
,,,0.528284000000,   0.15020,
,,,0.528288000000,   0.15020,
,,,0.528292000000,   0.15040,
,,,0.528296000000,   0.15000,
,,,0.528300000000,   0.15020,
,,,0.528304000000,   0.15040,
,,,0.528308000000,   0.15040,
,,,0.528312000000,   0.15040,
,,,0.528316000000,   0.15040,
,,,0.528320000000,   0.15020,
,,,0.528324000000,   0.15000,
,,,0.528328000000,   0.15020,
,,,0.528332000000,   0.15040,
,,,0.528336000000,   0.15040,
,,,0.528340000000,   0.15020,
,,,0.528344000000,   0.15040,
,,,0.528348000000,   0.15020,
,,,0.528352000000,   0.15020,
,,,0.528356000000,   0.15020,
,,,0.528360000000,   0.15040,
,,,0.528364000000,   0.15020,
,,,0.528368000000,   0.15040,
,,,0.528372000000,   0.15020,
,,,0.528376000000,   0.15000,
,,,0.528380000000,   0.15020,
,,,0.528384000000,   0.15040,
,,,0.528388000000,   0.15040,
,,,0.528392000000,   0.14980,
,,,0.528396000000,   0.15020,
,,,0.528400000000,   0.15020,
,,,0.528404000000,   0.15020,
,,,0.528408000000,   0.15040,
,,,0.528412000000,   0.15000,
,,,0.528416000000,   0.15020,
,,,0.528420000000,   0.15020,
,,,0.528424000000,   0.15020,
,,,0.528428000000,   0.15020,
,,,0.528432000000,   0.15000,
,,,0.528436000000,   0.15000,
,,,0.528440000000,   0.15020,
,,,0.528444000000,   0.15020,
,,,0.528448000000,   0.15020,
,,,0.528452000000,   0.15000,
,,,0.528456000000,   0.15020,
,,,0.528460000000,   0.15040,
,,,0.528464000000,   0.15040,
,,,0.528468000000,   0.15000,
,,,0.528472000000,   0.15020,
,,,0.528476000000,   0.15040,
,,,0.528480000000,   0.15020,
,,,0.528484000000,   0.15060,
,,,0.528488000000,   0.15020,
,,,0.528492000000,   0.15020,
,,,0.528496000000,   0.15040,
,,,0.528500000000,   0.15040,
,,,0.528504000000,   0.15020,
,,,0.528508000000,   0.15020,
,,,0.528512000000,   0.15040,
,,,0.528516000000,   0.15020,
,,,0.528520000000,   0.15020,
,,,0.528524000000,   0.15040,
,,,0.528528000000,   0.15020,
,,,0.528532000000,   0.15020,
