Measurements/8-6/ALL0001/F0001CH1.CSV

Record Length,2.500000e+03,,   0.424600000000,   0.10080,
Sample Interval,2.000000e-05,,   0.424620000000,   0.10080,
Trigger Point,-2.123000000000e+04,,   0.424640000000,   0.10080,
,,,   0.424660000000,   0.10000,
,,,   0.424680000000,   0.10080,
,,,   0.424700000000,   0.09920,
Source,CH1,,   0.424720000000,   0.10160,
Vertical Units,V,,   0.424740000000,   0.10000,
Vertical Scale,2.000000e-02,,   0.424760000000,   0.10000,
Vertical Offset,-1.080000e-01,,   0.424780000000,   0.10080,
Horizontal Units,s,,   0.424800000000,   0.10080,
Horizontal Scale,5.000000e-03,,   0.424820000000,   0.10000,
Pt Fmt,Y,,   0.424840000000,   0.10000,
Yzero,0.000000e+00,,   0.424860000000,   0.10080,
Probe Atten,1.000000e+00,,   0.424880000000,   0.10080,
Model Number,TDS2024B,,   0.424900000000,   0.10080,
Serial Number,C104833,,   0.424920000000,   0.10000,
Firmware Version,FV:v24.02,,   0.424940000000,   0.10240,
,,,0.424960000000,   0.10240,
,,,0.424980000000,   0.10080,
,,,0.425000000000,   0.10080,
,,,0.425020000000,   0.10160,
,,,0.425040000000,   0.10080,
,,,0.425060000000,   0.10080,
,,,0.425080000000,   0.10160,
,,,0.425100000000,   0.10080,
,,,0.425120000000,   0.10160,
,,,0.425140000000,   0.10160,
,,,0.425160000000,   0.10160,
,,,0.425180000000,   0.10080,
,,,0.425200000000,   0.10160,
,,,0.425220000000,   0.10000,
,,,0.425240000000,   0.10080,
,,,0.425260000000,   0.10080,
,,,0.425280000000,   0.10160,
,,,0.425300000000,   0.10160,
,,,0.425320000000,   0.10160,
,,,0.425340000000,   0.10080,
,,,0.425360000000,   0.10240,
,,,0.425380000000,   0.10000,
,,,0.425400000000,   0.10240,
,,,0.425420000000,   0.10240,
,,,0.425440000000,   0.10160,
,,,0.425460000000,   0.10080,
,,,0.425480000000,   0.10320,
,,,0.425500000000,   0.10160,
,,,0.425520000000,   0.10160,
,,,0.425540000000,   0.10080,
,,,0.425560000000,   0.10160,
,,,0.425580000000,   0.10160,
,,,0.425600000000,   0.10160,
,,,0.425620000000,   0.10160,
,,,0.425640000000,   0.10240,
,,,0.425660000000,   0.10240,
,,,0.425680000000,   0.10240,
,,,0.425700000000,   0.10240,
,,,0.425720000000,   0.10160,
,,,0.425740000000,   0.10160,
,,,0.425760000000,   0.10160,
,,,0.425780000000,   0.10240,
,,,0.425800000000,   0.10160,
,,,0.425820000000,   0.10080,
,,,0.425840000000,   0.10160,
,,,0.425860000000,   0.10080,
,,,0.425880000000,   0.10240,
,,,0.425900000000,   0.10160,
,,,0.425920000000,   0.10160,
,,,0.425940000000,   0.10240,
,,,0.425960000000,   0.10160,
,,,0.425980000000,   0.10160,
,,,0.426000000000,   0.10160,
,,,0.426020000000,   0.10240,
,,,0.426040000000,   0.10240,
,,,0.426060000000,   0.10160,
,,,0.426080000000,   0.10240,
,,,0.426100000000,   0.10160,
,,,0.426120000000,   0.10160,
,,,0.426140000000,   0.10160,
,,,0.426160000000,   0.10080,
,,,0.426180000000,   0.10240,
,,,0.426200000000,   0.10160,
,,,0.426220000000,   0.10160,
,,,0.426240000000,   0.10240,
,,,0.426260000000,   0.10080,
,,,0.426280000000,   0.10240,
,,,0.426300000000,   0.10240,
,,,0.426320000000,   0.10240,
,,,0.426340000000,   0.10240,
,,,0.426360000000,   0.10160,
,,,0.426380000000,   0.10160,
,,,0.426400000000,   0.10240,
,,,0.426420000000,   0.10320,
,,,0.426440000000,   0.10240,
,,,0.426460000000,   0.10240,
,,,0.426480000000,   0.10240,
,,,0.426500000000,   0.10320,
,,,0.426520000000,   0.10240,
,,,0.426540000000,   0.10240,
,,,0.426560000000,   0.10320,
,,,0.426580000000,   0.10320,
,,,0.426600000000,   0.10160,
,,,0.426620000000,   0.10240,
,,,0.426640000000,   0.10240,
,,,0.426660000000,   0.10320,
,,,0.426680000000,   0.10240,
,,,0.426700000000,   0.10160,
,,,0.426720000000,   0.10240,
,,,0.426740000000,   0.10160,
,,,0.426760000000,   0.10320,
,,,0.426780000000,   0.10240,
,,,0.426800000000,   0.10240,
,,,0.426820000000,   0.10240,
,,,0.426840000000,   0.10240,
,,,0.426860000000,   0.10240,
,,,0.426880000000,   0.10320,
,,,0.426900000000,   0.10240,
,,,0.426920000000,   0.10160,
,,,0.426940000000,   0.10240,
,,,0.426960000000,   0.10160,
,,,0.426980000000,   0.10240,
,,,0.427000000000,   0.10240,
,,,0.427020000000,   0.10240,
,,,0.427040000000,   0.10320,
,,,0.427060000000,   0.10160,
,,,0.427080000000,   0.10240,
,,,0.427100000000,   0.10320,
,,,0.427120000000,   0.10320,
,,,0.427140000000,   0.10320,
,,,0.427160000000,   0.10240,
,,,0.427180000000,   0.10240,
,,,0.427200000000,   0.10240,
,,,0.427220000000,   0.10080,
,,,0.427240000000,   0.10160,
,,,0.427260000000,   0.10240,
,,,0.427280000000,   0.10320,
,,,0.427300000000,   0.10240,
,,,0.427320000000,   0.10240,
,,,0.427340000000,   0.10240,
,,,0.427360000000,   0.10240,
,,,0.427380000000,   0.10240,
,,,0.427400000000,   0.10240,
,,,0.427420000000,   0.10320,
,,,0.427440000000,   0.10320,
,,,0.427460000000,   0.10240,
,,,0.427480000000,   0.10240,
,,,0.427500000000,   0.10320,
,,,0.427520000000,   0.10240,
,,,0.427540000000,   0.10160,
,,,0.427560000000,   0.10240,
,,,0.427580000000,   0.10240,
,,,0.427600000000,   0.10160,
,,,0.427620000000,   0.10240,
,,,0.427640000000,   0.10400,
,,,0.427660000000,   0.10240,
,,,0.427680000000,   0.10320,
,,,0.427700000000,   0.10240,
,,,0.427720000000,   0.10320,
,,,0.427740000000,   0.10240,
,,,0.427760000000,   0.10240,
,,,0.427780000000,   0.10240,
,,,0.427800000000,   0.10320,
,,,0.427820000000,   0.10240,
,,,0.427840000000,   0.10240,
,,,0.427860000000,   0.10240,
,,,0.427880000000,   0.10160,
,,,0.427900000000,   0.10320,
,,,0.427920000000,   0.10320,
,,,0.427940000000,   0.10320,
,,,0.427960000000,   0.10320,
,,,0.427980000000,   0.10240,
,,,0.428000000000,   0.10240,
,,,0.428020000000,   0.10160,
,,,0.428040000000,   0.10160,
,,,0.428060000000,   0.10320,
,,,0.428080000000,   0.10240,
,,,0.428100000000,   0.10160,
,,,0.428120000000,   0.10240,
,,,0.428140000000,   0.10160,
,,,0.428160000000,   0.10320,
,,,0.428180000000,   0.10320,
,,,0.428200000000,   0.10320,
,,,0.428220000000,   0.10240,
,,,0.428240000000,   0.10320,
,,,0.428260000000,   0.10240,
,,,0.428280000000,   0.10160,
,,,0.428300000000,   0.10240,
,,,0.428320000000,   0.10240,
,,,0.428340000000,   0.10240,
,,,0.428360000000,   0.10400,
,,,0.428380000000,   0.10160,
,,,0.428400000000,   0.10240,
,,,0.428420000000,   0.10240,
,,,0.428440000000,   0.10240,
,,,0.428460000000,   0.10160,
,,,0.428480000000,   0.10080,
,,,0.428500000000,   0.10320,
,,,0.428520000000,   0.10160,
,,,0.428540000000,   0.10240,
,,,0.428560000000,   0.10320,
,,,0.428580000000,   0.10240,
,,,0.428600000000,   0.10240,
,,,0.428620000000,   0.10160,
,,,0.428640000000,   0.10160,
,,,0.428660000000,   0.10240,
,,,0.428680000000,   0.10240,
,,,0.428700000000,   0.10160,
,,,0.428720000000,   0.10320,
,,,0.428740000000,   0.10240,
,,,0.428760000000,   0.10240,
,,,0.428780000000,   0.10320,
,,,0.428800000000,   0.10160,
,,,0.428820000000,   0.10160,
,,,0.428840000000,   0.10320,
,,,0.428860000000,   0.10240,
,,,0.428880000000,   0.10240,
,,,0.428900000000,   0.10320,
,,,0.428920000000,   0.10240,
,,,0.428940000000,   0.10320,
,,,0.428960000000,   0.10240,
,,,0.428980000000,   0.10240,
,,,0.429000000000,   0.10320,
,,,0.429020000000,   0.10320,
,,,0.429040000000,   0.10320,
,,,0.429060000000,   0.10400,
,,,0.429080000000,   0.10240,
,,,0.429100000000,   0.10240,
,,,0.429120000000,   0.10320,
,,,0.429140000000,   0.10160,
,,,0.429160000000,   0.10320,
,,,0.429180000000,   0.10240,
,,,0.429200000000,   0.10240,
,,,0.429220000000,   0.10240,
,,,0.429240000000,   0.10240,
,,,0.429260000000,   0.10240,
,,,0.429280000000,   0.10240,
,,,0.429300000000,   0.10240,
,,,0.429320000000,   0.10240,
,,,0.429340000000,   0.10240,
,,,0.429360000000,   0.10240,
,,,0.429380000000,   0.10320,
,,,0.429400000000,   0.10240,
,,,0.429420000000,   0.10240,
,,,0.429440000000,   0.10240,
,,,0.429460000000,   0.10240,
,,,0.429480000000,   0.10320,
,,,0.429500000000,   0.10240,
,,,0.429520000000,   0.10160,
,,,0.429540000000,   0.10400,
,,,0.429560000000,   0.10240,
,,,0.429580000000,   0.10160,
,,,0.429600000000,   0.10240,
,,,0.429620000000,   0.10160,
,,,0.429640000000,   0.10160,
,,,0.429660000000,   0.10240,
,,,0.429680000000,   0.10320,
,,,0.429700000000,   0.10320,
,,,0.429720000000,   0.10240,
,,,0.429740000000,   0.10240,
,,,0.429760000000,   0.10240,
,,,0.429780000000,   0.10240,
,,,0.429800000000,   0.10240,
,,,0.429820000000,   0.10240,
,,,0.429840000000,   0.10240,
,,,0.429860000000,   0.10240,
,,,0.429880000000,   0.10160,
,,,0.429900000000,   0.10160,
,,,0.429920000000,   0.10160,
,,,0.429940000000,   0.10320,
,,,0.429960000000,   0.10320,
,,,0.429980000000,   0.10160,
,,,0.430000000000,   0.10240,
,,,0.430020000000,   0.10240,
,,,0.430040000000,   0.10160,
,,,0.430060000000,   0.10160,
,,,0.430080000000,   0.10240,
,,,0.430100000000,   0.10240,
,,,0.430120000000,   0.10160,
,,,0.430140000000,   0.10160,
,,,0.430160000000,   0.10240,
,,,0.430180000000,   0.10320,
,,,0.430200000000,   0.10160,
,,,0.430220000000,   0.10320,
,,,0.430240000000,   0.10160,
,,,0.430260000000,   0.10160,
,,,0.430280000000,   0.10240,
,,,0.430300000000,   0.10240,
,,,0.430320000000,   0.10240,
,,,0.430340000000,   0.10160,
,,,0.430360000000,   0.10400,
,,,0.430380000000,   0.10080,
,,,0.430400000000,   0.10160,
,,,0.430420000000,   0.10160,
,,,0.430440000000,   0.10160,
,,,0.430460000000,   0.10160,
,,,0.430480000000,   0.10400,
,,,0.430500000000,   0.10240,
,,,0.430520000000,   0.10080,
,,,0.430540000000,   0.10240,
,,,0.430560000000,   0.10160,
,,,0.430580000000,   0.10240,
,,,0.430600000000,   0.10160,
,,,0.430620000000,   0.10240,
,,,0.430640000000,   0.10240,
,,,0.430660000000,   0.10160,
,,,0.430680000000,   0.10080,
,,,0.430700000000,   0.10240,
,,,0.430720000000,   0.10080,
,,,0.430740000000,   0.10240,
,,,0.430760000000,   0.10240,
,,,0.430780000000,   0.10080,
,,,0.430800000000,   0.10160,
,,,0.430820000000,   0.10160,
,,,0.430840000000,   0.10240,
,,,0.430860000000,   0.10240,
,,,0.430880000000,   0.10160,
,,,0.430900000000,   0.10160,
,,,0.430920000000,   0.10240,
,,,0.430940000000,   0.10240,
,,,0.430960000000,   0.10240,
,,,0.430980000000,   0.10240,
,,,0.431000000000,   0.10240,
,,,0.431020000000,   0.10160,
,,,0.431040000000,   0.10240,
,,,0.431060000000,   0.10080,
,,,0.431080000000,   0.10000,
,,,0.431100000000,   0.10160,
,,,0.431120000000,   0.10240,
,,,0.431140000000,   0.10080,
,,,0.431160000000,   0.10080,
,,,0.431180000000,   0.10080,
,,,0.431200000000,   0.10000,
,,,0.431220000000,   0.10080,
,,,0.431240000000,   0.10160,
,,,0.431260000000,   0.10160,
,,,0.431280000000,   0.10080,
,,,0.431300000000,   0.10160,
,,,0.431320000000,   0.10160,
,,,0.431340000000,   0.10160,
,,,0.431360000000,   0.10000,
,,,0.431380000000,   0.10160,
,,,0.431400000000,   0.10240,
,,,0.431420000000,   0.10000,
,,,0.431440000000,   0.10080,
,,,0.431460000000,   0.10080,
,,,0.431480000000,   0.10080,
,,,0.431500000000,   0.10080,
,,,0.431520000000,   0.10000,
,,,0.431540000000,   0.10160,
,,,0.431560000000,   0.10080,
,,,0.431580000000,   0.10080,
,,,0.431600000000,   0.10000,
,,,0.431620000000,   0.10160,
,,,0.431640000000,   0.10080,
,,,0.431660000000,   0.10160,
,,,0.431680000000,   0.10080,
,,,0.431700000000,   0.10160,
,,,0.431720000000,   0.10240,
,,,0.431740000000,   0.10160,
,,,0.431760000000,   0.10160,
,,,0.431780000000,   0.10080,
,,,0.431800000000,   0.10160,
,,,0.431820000000,   0.10080,
,,,0.431840000000,   0.10160,
,,,0.431860000000,   0.10160,
,,,0.431880000000,   0.10080,
,,,0.431900000000,   0.10080,
,,,0.431920000000,   0.10160,
,,,0.431940000000,   0.10000,
,,,0.431960000000,   0.10080,
,,,0.431980000000,   0.10160,
,,,0.432000000000,   0.10080,
,,,0.432020000000,   0.10160,
,,,0.432040000000,   0.10080,
,,,0.432060000000,   0.10080,
,,,0.432080000000,   0.10000,
,,,0.432100000000,   0.10080,
,,,0.432120000000,   0.10160,
,,,0.432140000000,   0.10080,
,,,0.432160000000,   0.10000,
,,,0.432180000000,   0.10000,
,,,0.432200000000,   0.10080,
,,,0.432220000000,   0.10080,
,,,0.432240000000,   0.10000,
,,,0.432260000000,   0.10000,
,,,0.432280000000,   0.09920,
,,,0.432300000000,   0.10080,
,,,0.432320000000,   0.10080,
,,,0.432340000000,   0.10000,
,,,0.432360000000,   0.10080,
,,,0.432380000000,   0.10080,
,,,0.432400000000,   0.10000,
,,,0.432420000000,   0.10080,
,,,0.432440000000,   0.09920,
,,,0.432460000000,   0.10080,
,,,0.432480000000,   0.10080,
,,,0.432500000000,   0.10000,
,,,0.432520000000,   0.10000,
,,,0.432540000000,   0.10000,
,,,0.432560000000,   0.10080,
,,,0.432580000000,   0.10080,
,,,0.432600000000,   0.10080,
,,,0.432620000000,   0.10000,
,,,0.432640000000,   0.10080,
,,,0.432660000000,   0.10000,
,,,0.432680000000,   0.10000,
,,,0.432700000000,   0.10000,
,,,0.432720000000,   0.09920,
,,,0.432740000000,   0.10000,
,,,0.432760000000,   0.09920,
,,,0.432780000000,   0.09920,
,,,0.432800000000,   0.10000,
,,,0.432820000000,   0.10000,
,,,0.432840000000,   0.09920,
,,,0.432860000000,   0.09920,
,,,0.432880000000,   0.10000,
,,,0.432900000000,   0.10000,
,,,0.432920000000,   0.10000,
,,,0.432940000000,   0.10000,
,,,0.432960000000,   0.09920,
,,,0.432980000000,   0.10000,
,,,0.433000000000,   0.09920,
,,,0.433020000000,   0.09760,
,,,0.433040000000,   0.10000,
,,,0.433060000000,   0.10000,
,,,0.433080000000,   0.10000,
,,,0.433100000000,   0.10000,
,,,0.433120000000,   0.10000,
,,,0.433140000000,   0.09920,
,,,0.433160000000,   0.10000,
,,,0.433180000000,   0.10000,
,,,0.433200000000,   0.09920,
,,,0.433220000000,   0.09760,
,,,0.433240000000,   0.09920,
,,,0.433260000000,   0.09760,
,,,0.433280000000,   0.10000,
,,,0.433300000000,   0.09760,
,,,0.433320000000,   0.09840,
,,,0.433340000000,   0.10000,
,,,0.433360000000,   0.10000,
,,,0.433380000000,   0.10000,
,,,0.433400000000,   0.09840,
,,,0.433420000000,   0.10000,
,,,0.433440000000,   0.09920,
,,,0.433460000000,   0.09920,
,,,0.433480000000,   0.09920,
,,,0.433500000000,   0.09760,
,,,0.433520000000,   0.09840,
,,,0.433540000000,   0.09840,
,,,0.433560000000,   0.09920,
,,,0.433580000000,   0.09920,
,,,0.433600000000,   0.09920,
,,,0.433620000000,   0.09840,
,,,0.433640000000,   0.09760,
,,,0.433660000000,   0.09840,
,,,0.433680000000,   0.09840,
,,,0.433700000000,   0.09840,
,,,0.433720000000,   0.09920,
,,,0.433740000000,   0.09840,
,,,0.433760000000,   0.09760,
,,,0.433780000000,   0.09840,
,,,0.433800000000,   0.09680,
,,,0.433820000000,   0.09760,
,,,0.433840000000,   0.09760,
,,,0.433860000000,   0.09840,
,,,0.433880000000,   0.09760,
,,,0.433900000000,   0.09840,
,,,0.433920000000,   0.09840,
,,,0.433940000000,   0.09760,
,,,0.433960000000,   0.09840,
,,,0.433980000000,   0.09760,
,,,0.434000000000,   0.09840,
,,,0.434020000000,   0.09840,
,,,0.434040000000,   0.09760,
,,,0.434060000000,   0.09760,
,,,0.434080000000,   0.09760,
,,,0.434100000000,   0.09680,
,,,0.434120000000,   0.09600,
,,,0.434140000000,   0.09760,
,,,0.434160000000,   0.09760,
,,,0.434180000000,   0.09680,
,,,0.434200000000,   0.09680,
,,,0.434220000000,   0.09760,
,,,0.434240000000,   0.09760,
,,,0.434260000000,   0.09840,
,,,0.434280000000,   0.09760,
,,,0.434300000000,   0.09760,
,,,0.434320000000,   0.09760,
,,,0.434340000000,   0.09760,
,,,0.434360000000,   0.09760,
,,,0.434380000000,   0.09760,
,,,0.434400000000,   0.09760,
,,,0.434420000000,   0.09680,
,,,0.434440000000,   0.09760,
,,,0.434460000000,   0.09680,
,,,0.434480000000,   0.09680,
,,,0.434500000000,   0.09680,
,,,0.434520000000,   0.09760,
,,,0.434540000000,   0.09840,
,,,0.434560000000,   0.09680,
,,,0.434580000000,   0.09760,
,,,0.434600000000,   0.09520,
,,,0.434620000000,   0.09680,
,,,0.434640000000,   0.09680,
,,,0.434660000000,   0.09760,
,,,0.434680000000,   0.09600,
,,,0.434700000000,   0.09600,
,,,0.434720000000,   0.09680,
,,,0.434740000000,   0.09600,
,,,0.434760000000,   0.09680,
,,,0.434780000000,   0.09760,
,,,0.434800000000,   0.09760,
,,,0.434820000000,   0.09600,
,,,0.434840000000,   0.09600,
,,,0.434860000000,   0.09520,
,,,0.434880000000,   0.09600,
,,,0.434900000000,   0.09680,
,,,0.434920000000,   0.09680,
,,,0.434940000000,   0.09680,
,,,0.434960000000,   0.09520,
,,,0.434980000000,   0.09520,
,,,0.435000000000,   0.09600,
,,,0.435020000000,   0.09600,
,,,0.435040000000,   0.09520,
,,,0.435060000000,   0.09600,
,,,0.435080000000,   0.09600,
,,,0.435100000000,   0.09600,
,,,0.435120000000,   0.09680,
,,,0.435140000000,   0.09600,
,,,0.435160000000,   0.09680,
,,,0.435180000000,   0.09520,
,,,0.435200000000,   0.09600,
,,,0.435220000000,   0.09440,
,,,0.435240000000,   0.09520,
,,,0.435260000000,   0.09680,
,,,0.435280000000,   0.09520,
,,,0.435300000000,   0.09520,
,,,0.435320000000,   0.09520,
,,,0.435340000000,   0.09520,
,,,0.435360000000,   0.09600,
,,,0.435380000000,   0.09520,
,,,0.435400000000,   0.09600,
,,,0.435420000000,   0.09520,
,,,0.435440000000,   0.09440,
,,,0.435460000000,   0.09440,
,,,0.435480000000,   0.09520,
,,,0.435500000000,   0.09600,
,,,0.435520000000,   0.09440,
,,,0.435540000000,   0.09440,
,,,0.435560000000,   0.09520,
,,,0.435580000000,   0.09360,
,,,0.435600000000,   0.09520,
,,,0.435620000000,   0.09440,
,,,0.435640000000,   0.09440,
,,,0.435660000000,   0.09440,
,,,0.435680000000,   0.09440,
,,,0.435700000000,   0.09440,
,,,0.435720000000,   0.09520,
,,,0.435740000000,   0.09520,
,,,0.435760000000,   0.09440,
,,,0.435780000000,   0.09600,
,,,0.435800000000,   0.09440,
,,,0.435820000000,   0.09440,
,,,0.435840000000,   0.09440,
,,,0.435860000000,   0.09360,
,,,0.435880000000,   0.09280,
,,,0.435900000000,   0.09440,
,,,0.435920000000,   0.09520,
,,,0.435940000000,   0.09360,
,,,0.435960000000,   0.09440,
,,,0.435980000000,   0.09440,
,,,0.436000000000,   0.09360,
,,,0.436020000000,   0.09360,
,,,0.436040000000,   0.09360,
,,,0.436060000000,   0.09280,
,,,0.436080000000,   0.09360,
,,,0.436100000000,   0.09360,
,,,0.436120000000,   0.09280,
,,,0.436140000000,   0.09280,
,,,0.436160000000,   0.09360,
,,,0.436180000000,   0.09280,
,,,0.436200000000,   0.09360,
,,,0.436220000000,   0.09280,
,,,0.436240000000,   0.09360,
,,,0.436260000000,   0.09280,
,,,0.436280000000,   0.09440,
,,,0.436300000000,   0.09280,
,,,0.436320000000,   0.09360,
,,,0.436340000000,   0.09360,
,,,0.436360000000,   0.09280,
,,,0.436380000000,   0.09200,
,,,0.436400000000,   0.09360,
,,,0.436420000000,   0.09280,
,,,0.436440000000,   0.09280,
,,,0.436460000000,   0.09200,
,,,0.436480000000,   0.09200,
,,,0.436500000000,   0.09360,
,,,0.436520000000,   0.09200,
,,,0.436540000000,   0.09280,
,,,0.436560000000,   0.09280,
,,,0.436580000000,   0.09280,
,,,0.436600000000,   0.09200,
,,,0.436620000000,   0.09280,
,,,0.436640000000,   0.09360,
,,,0.436660000000,   0.09360,
,,,0.436680000000,   0.09200,
,,,0.436700000000,   0.09120,
,,,0.436720000000,   0.09280,
,,,0.436740000000,   0.09120,
,,,0.436760000000,   0.09280,
,,,0.436780000000,   0.09200,
,,,0.436800000000,   0.09200,
,,,0.436820000000,   0.09200,
,,,0.436840000000,   0.09200,
,,,0.436860000000,   0.09200,
,,,0.436880000000,   0.09280,
,,,0.436900000000,   0.09200,
,,,0.436920000000,   0.09120,
,,,0.436940000000,   0.09200,
,,,0.436960000000,   0.09120,
,,,0.436980000000,   0.09040,
,,,0.437000000000,   0.09040,
,,,0.437020000000,   0.09200,
,,,0.437040000000,   0.09040,
,,,0.437060000000,   0.09200,
,,,0.437080000000,   0.09200,
,,,0.437100000000,   0.09200,
,,,0.437120000000,   0.09200,
,,,0.437140000000,   0.09120,
,,,0.437160000000,   0.09120,
,,,0.437180000000,   0.09040,
,,,0.437200000000,   0.09040,
,,,0.437220000000,   0.09040,
,,,0.437240000000,   0.09040,
,,,0.437260000000,   0.09040,
,,,0.437280000000,   0.08960,
,,,0.437300000000,   0.09040,
,,,0.437320000000,   0.09040,
,,,0.437340000000,   0.09040,
,,,0.437360000000,   0.09040,
,,,0.437380000000,   0.09120,
,,,0.437400000000,   0.09040,
,,,0.437420000000,   0.09040,
,,,0.437440000000,   0.09040,
,,,0.437460000000,   0.09040,
,,,0.437480000000,   0.09040,
,,,0.437500000000,   0.08960,
,,,0.437520000000,   0.08960,
,,,0.437540000000,   0.09040,
,,,0.437560000000,   0.09120,
,,,0.437580000000,   0.09040,
,,,0.437600000000,   0.08960,
,,,0.437620000000,   0.08960,
,,,0.437640000000,   0.08960,
,,,0.437660000000,   0.09040,
