Ex 1.5 -  Doppler Free/Power 1 (Maximum)/Full Spectrum/sf.CSV

Record Length,2.500000e+03,,   0.420600000000,   0.24080,
Sample Interval,2.000000e-05,,   0.420620000000,   0.24160,
Trigger Point,-2.103000000000e+04,,   0.420640000000,   0.24080,
,,,   0.420660000000,   0.24080,
,,,   0.420680000000,   0.24160,
,,,   0.420700000000,   0.24160,
Source,CH1,,   0.420720000000,   0.24160,
Vertical Units,V,,   0.420740000000,   0.24000,
Vertical Scale,2.000000e-02,,   0.420760000000,   0.24000,
Vertical Offset,-1.608000e-01,,   0.420780000000,   0.24000,
Horizontal Units,s,,   0.420800000000,   0.24080,
Horizontal Scale,5.000000e-03,,   0.420820000000,   0.24080,
Pt Fmt,Y,,   0.420840000000,   0.24000,
Yzero,0.000000e+00,,   0.420860000000,   0.24000,
Probe Atten,1.000000e+00,,   0.420880000000,   0.24000,
Model Number,TDS2024B,,   0.420900000000,   0.24000,
Serial Number,C104833,,   0.420920000000,   0.24080,
Firmware Version,FV:v24.02,,   0.420940000000,   0.23920,
,,,0.420960000000,   0.24000,
,,,0.420980000000,   0.23920,
,,,0.421000000000,   0.24000,
,,,0.421020000000,   0.23920,
,,,0.421040000000,   0.24000,
,,,0.421060000000,   0.24000,
,,,0.421080000000,   0.24080,
,,,0.421100000000,   0.23920,
,,,0.421120000000,   0.23920,
,,,0.421140000000,   0.23920,
,,,0.421160000000,   0.23760,
,,,0.421180000000,   0.23840,
,,,0.421200000000,   0.23760,
,,,0.421220000000,   0.23840,
,,,0.421240000000,   0.23920,
,,,0.421260000000,   0.24000,
,,,0.421280000000,   0.23840,
,,,0.421300000000,   0.23840,
,,,0.421320000000,   0.23920,
,,,0.421340000000,   0.23920,
,,,0.421360000000,   0.23920,
,,,0.421380000000,   0.23840,
,,,0.421400000000,   0.23840,
,,,0.421420000000,   0.23840,
,,,0.421440000000,   0.23840,
,,,0.421460000000,   0.23920,
,,,0.421480000000,   0.23760,
,,,0.421500000000,   0.23840,
,,,0.421520000000,   0.23760,
,,,0.421540000000,   0.23840,
,,,0.421560000000,   0.23840,
,,,0.421580000000,   0.23760,
,,,0.421600000000,   0.23760,
,,,0.421620000000,   0.23760,
,,,0.421640000000,   0.23760,
,,,0.421660000000,   0.23760,
,,,0.421680000000,   0.23760,
,,,0.421700000000,   0.23680,
,,,0.421720000000,   0.23760,
,,,0.421740000000,   0.23760,
,,,0.421760000000,   0.23760,
,,,0.421780000000,   0.23760,
,,,0.421800000000,   0.23680,
,,,0.421820000000,   0.23760,
,,,0.421840000000,   0.23680,
,,,0.421860000000,   0.23760,
,,,0.421880000000,   0.23680,
,,,0.421900000000,   0.23520,
,,,0.421920000000,   0.23520,
,,,0.421940000000,   0.23600,
,,,0.421960000000,   0.23680,
,,,0.421980000000,   0.23600,
,,,0.422000000000,   0.23600,
,,,0.422020000000,   0.23680,
,,,0.422040000000,   0.23600,
,,,0.422060000000,   0.23680,
,,,0.422080000000,   0.23600,
,,,0.422100000000,   0.23760,
,,,0.422120000000,   0.23520,
,,,0.422140000000,   0.23600,
,,,0.422160000000,   0.23600,
,,,0.422180000000,   0.23600,
,,,0.422200000000,   0.23600,
,,,0.422220000000,   0.23520,
,,,0.422240000000,   0.23520,
,,,0.422260000000,   0.23680,
,,,0.422280000000,   0.23520,
,,,0.422300000000,   0.23600,
,,,0.422320000000,   0.23440,
,,,0.422340000000,   0.23440,
,,,0.422360000000,   0.23440,
,,,0.422380000000,   0.23520,
,,,0.422400000000,   0.23520,
,,,0.422420000000,   0.23440,
,,,0.422440000000,   0.23360,
,,,0.422460000000,   0.23360,
,,,0.422480000000,   0.23440,
,,,0.422500000000,   0.23520,
,,,0.422520000000,   0.23360,
,,,0.422540000000,   0.23360,
,,,0.422560000000,   0.23440,
,,,0.422580000000,   0.23360,
,,,0.422600000000,   0.23440,
,,,0.422620000000,   0.23360,
,,,0.422640000000,   0.23440,
,,,0.422660000000,   0.23360,
,,,0.422680000000,   0.23280,
,,,0.422700000000,   0.23360,
,,,0.422720000000,   0.23360,
,,,0.422740000000,   0.23280,
,,,0.422760000000,   0.23280,
,,,0.422780000000,   0.23360,
,,,0.422800000000,   0.23200,
,,,0.422820000000,   0.23200,
,,,0.422840000000,   0.23360,
,,,0.422860000000,   0.23200,
,,,0.422880000000,   0.23360,
,,,0.422900000000,   0.23360,
,,,0.422920000000,   0.23360,
,,,0.422940000000,   0.23200,
,,,0.422960000000,   0.23280,
,,,0.422980000000,   0.23360,
,,,0.423000000000,   0.23280,
,,,0.423020000000,   0.23280,
,,,0.423040000000,   0.23200,
,,,0.423060000000,   0.23200,
,,,0.423080000000,   0.23200,
,,,0.423100000000,   0.23200,
,,,0.423120000000,   0.23360,
,,,0.423140000000,   0.23120,
,,,0.423160000000,   0.23200,
,,,0.423180000000,   0.23200,
,,,0.423200000000,   0.23120,
,,,0.423220000000,   0.23120,
,,,0.423240000000,   0.23040,
,,,0.423260000000,   0.23040,
,,,0.423280000000,   0.23200,
,,,0.423300000000,   0.23120,
,,,0.423320000000,   0.23040,
,,,0.423340000000,   0.23120,
,,,0.423360000000,   0.23120,
,,,0.423380000000,   0.23040,
,,,0.423400000000,   0.23120,
,,,0.423420000000,   0.23120,
,,,0.423440000000,   0.22960,
,,,0.423460000000,   0.23120,
,,,0.423480000000,   0.23040,
,,,0.423500000000,   0.22960,
,,,0.423520000000,   0.23120,
,,,0.423540000000,   0.23040,
,,,0.423560000000,   0.23040,
,,,0.423580000000,   0.23040,
,,,0.423600000000,   0.22960,
,,,0.423620000000,   0.22880,
,,,0.423640000000,   0.23040,
,,,0.423660000000,   0.22960,
,,,0.423680000000,   0.23120,
,,,0.423700000000,   0.22960,
,,,0.423720000000,   0.22960,
,,,0.423740000000,   0.22960,
,,,0.423760000000,   0.22960,
,,,0.423780000000,   0.22880,
,,,0.423800000000,   0.23120,
,,,0.423820000000,   0.22960,
,,,0.423840000000,   0.23040,
,,,0.423860000000,   0.22880,
,,,0.423880000000,   0.22960,
,,,0.423900000000,   0.22800,
,,,0.423920000000,   0.22880,
,,,0.423940000000,   0.22880,
,,,0.423960000000,   0.22880,
,,,0.423980000000,   0.22880,
,,,0.424000000000,   0.22800,
,,,0.424020000000,   0.22880,
,,,0.424040000000,   0.22800,
,,,0.424060000000,   0.22800,
,,,0.424080000000,   0.22880,
,,,0.424100000000,   0.22880,
,,,0.424120000000,   0.22800,
,,,0.424140000000,   0.22960,
,,,0.424160000000,   0.22880,
,,,0.424180000000,   0.22880,
,,,0.424200000000,   0.22720,
,,,0.424220000000,   0.22720,
,,,0.424240000000,   0.22800,
,,,0.424260000000,   0.22800,
,,,0.424280000000,   0.22640,
,,,0.424300000000,   0.22720,
,,,0.424320000000,   0.22800,
,,,0.424340000000,   0.22800,
,,,0.424360000000,   0.22720,
,,,0.424380000000,   0.22640,
,,,0.424400000000,   0.22640,
,,,0.424420000000,   0.22800,
,,,0.424440000000,   0.22800,
,,,0.424460000000,   0.22720,
,,,0.424480000000,   0.22720,
,,,0.424500000000,   0.22640,
,,,0.424520000000,   0.22720,
,,,0.424540000000,   0.22720,
,,,0.424560000000,   0.22640,
,,,0.424580000000,   0.22640,
,,,0.424600000000,   0.22640,
,,,0.424620000000,   0.22640,
,,,0.424640000000,   0.22640,
,,,0.424660000000,   0.22640,
,,,0.424680000000,   0.22560,
,,,0.424700000000,   0.22640,
,,,0.424720000000,   0.22640,
,,,0.424740000000,   0.22560,
,,,0.424760000000,   0.22640,
,,,0.424780000000,   0.22640,
,,,0.424800000000,   0.22480,
,,,0.424820000000,   0.22640,
,,,0.424840000000,   0.22640,
,,,0.424860000000,   0.22560,
,,,0.424880000000,   0.22480,
,,,0.424900000000,   0.22560,
,,,0.424920000000,   0.22560,
,,,0.424940000000,   0.22560,
,,,0.424960000000,   0.22480,
,,,0.424980000000,   0.22480,
,,,0.425000000000,   0.22480,
,,,0.425020000000,   0.22400,
,,,0.425040000000,   0.22480,
,,,0.425060000000,   0.22560,
,,,0.425080000000,   0.22480,
,,,0.425100000000,   0.22480,
,,,0.425120000000,   0.22480,
,,,0.425140000000,   0.22560,
,,,0.425160000000,   0.22320,
,,,0.425180000000,   0.22400,
,,,0.425200000000,   0.22480,
,,,0.425220000000,   0.22480,
,,,0.425240000000,   0.22400,
,,,0.425260000000,   0.22400,
,,,0.425280000000,   0.22320,
,,,0.425300000000,   0.22400,
,,,0.425320000000,   0.22400,
,,,0.425340000000,   0.22400,
,,,0.425360000000,   0.22320,
,,,0.425380000000,   0.22400,
,,,0.425400000000,   0.22320,
,,,0.425420000000,   0.22240,
,,,0.425440000000,   0.22320,
,,,0.425460000000,   0.22480,
,,,0.425480000000,   0.22320,
,,,0.425500000000,   0.22320,
,,,0.425520000000,   0.22320,
,,,0.425540000000,   0.22320,
,,,0.425560000000,   0.22400,
,,,0.425580000000,   0.22240,
,,,0.425600000000,   0.22160,
,,,0.425620000000,   0.22400,
,,,0.425640000000,   0.22320,
,,,0.425660000000,   0.22240,
,,,0.425680000000,   0.22320,
,,,0.425700000000,   0.22160,
,,,0.425720000000,   0.22240,
,,,0.425740000000,   0.22160,
,,,0.425760000000,   0.22240,
,,,0.425780000000,   0.22160,
,,,0.425800000000,   0.22320,
,,,0.425820000000,   0.22160,
,,,0.425840000000,   0.22240,
,,,0.425860000000,   0.22160,
,,,0.425880000000,   0.22080,
,,,0.425900000000,   0.22160,
,,,0.425920000000,   0.22240,
,,,0.425940000000,   0.22240,
,,,0.425960000000,   0.22160,
,,,0.425980000000,   0.22080,
,,,0.426000000000,   0.22000,
,,,0.426020000000,   0.22080,
,,,0.426040000000,   0.22080,
,,,0.426060000000,   0.22080,
,,,0.426080000000,   0.22080,
,,,0.426100000000,   0.22080,
,,,0.426120000000,   0.22000,
,,,0.426140000000,   0.22000,
,,,0.426160000000,   0.22080,
,,,0.426180000000,   0.22160,
,,,0.426200000000,   0.22080,
,,,0.426220000000,   0.21920,
,,,0.426240000000,   0.22000,
,,,0.426260000000,   0.22000,
,,,0.426280000000,   0.21920,
,,,0.426300000000,   0.22080,
,,,0.426320000000,   0.22000,
,,,0.426340000000,   0.21920,
,,,0.426360000000,   0.22000,
,,,0.426380000000,   0.21920,
,,,0.426400000000,   0.22000,
,,,0.426420000000,   0.22000,
,,,0.426440000000,   0.22080,
,,,0.426460000000,   0.21920,
,,,0.426480000000,   0.21920,
,,,0.426500000000,   0.21920,
,,,0.426520000000,   0.21920,
,,,0.426540000000,   0.21920,
,,,0.426560000000,   0.21920,
,,,0.426580000000,   0.21840,
,,,0.426600000000,   0.22000,
,,,0.426620000000,   0.21920,
,,,0.426640000000,   0.21840,
,,,0.426660000000,   0.21920,
,,,0.426680000000,   0.21760,
,,,0.426700000000,   0.21840,
,,,0.426720000000,   0.21920,
,,,0.426740000000,   0.21840,
,,,0.426760000000,   0.21840,
,,,0.426780000000,   0.21760,
,,,0.426800000000,   0.21760,
,,,0.426820000000,   0.21760,
,,,0.426840000000,   0.21840,
,,,0.426860000000,   0.21680,
,,,0.426880000000,   0.21840,
,,,0.426900000000,   0.21760,
,,,0.426920000000,   0.21760,
,,,0.426940000000,   0.21760,
,,,0.426960000000,   0.21680,
,,,0.426980000000,   0.21760,
,,,0.427000000000,   0.21680,
,,,0.427020000000,   0.21680,
,,,0.427040000000,   0.21760,
,,,0.427060000000,   0.21760,
,,,0.427080000000,   0.21680,
,,,0.427100000000,   0.21680,
,,,0.427120000000,   0.21760,
,,,0.427140000000,   0.21680,
,,,0.427160000000,   0.21680,
,,,0.427180000000,   0.21680,
,,,0.427200000000,   0.21760,
,,,0.427220000000,   0.21680,
,,,0.427240000000,   0.21760,
,,,0.427260000000,   0.21680,
,,,0.427280000000,   0.21680,
,,,0.427300000000,   0.21680,
,,,0.427320000000,   0.21600,
,,,0.427340000000,   0.21680,
,,,0.427360000000,   0.21680,
,,,0.427380000000,   0.21600,
,,,0.427400000000,   0.21600,
,,,0.427420000000,   0.21680,
,,,0.427440000000,   0.21680,
,,,0.427460000000,   0.21520,
,,,0.427480000000,   0.21680,
,,,0.427500000000,   0.21440,
,,,0.427520000000,   0.21520,
,,,0.427540000000,   0.21520,
,,,0.427560000000,   0.21520,
,,,0.427580000000,   0.21600,
,,,0.427600000000,   0.21520,
,,,0.427620000000,   0.21440,
,,,0.427640000000,   0.21680,
,,,0.427660000000,   0.21440,
,,,0.427680000000,   0.21440,
,,,0.427700000000,   0.21440,
,,,0.427720000000,   0.21520,
,,,0.427740000000,   0.21440,
,,,0.427760000000,   0.21360,
,,,0.427780000000,   0.21360,
,,,0.427800000000,   0.21360,
,,,0.427820000000,   0.21440,
,,,0.427840000000,   0.21440,
,,,0.427860000000,   0.21360,
,,,0.427880000000,   0.21440,
,,,0.427900000000,   0.21360,
,,,0.427920000000,   0.21520,
,,,0.427940000000,   0.21520,
,,,0.427960000000,   0.21280,
,,,0.427980000000,   0.21440,
,,,0.428000000000,   0.21360,
,,,0.428020000000,   0.21440,
,,,0.428040000000,   0.21440,
,,,0.428060000000,   0.21360,
,,,0.428080000000,   0.21280,
,,,0.428100000000,   0.21280,
,,,0.428120000000,   0.21280,
,,,0.428140000000,   0.21280,
,,,0.428160000000,   0.21280,
,,,0.428180000000,   0.21280,
,,,0.428200000000,   0.21360,
,,,0.428220000000,   0.21280,
,,,0.428240000000,   0.21280,
,,,0.428260000000,   0.21360,
,,,0.428280000000,   0.21280,
,,,0.428300000000,   0.21280,
,,,0.428320000000,   0.21280,
,,,0.428340000000,   0.21280,
,,,0.428360000000,   0.21280,
,,,0.428380000000,   0.21360,
,,,0.428400000000,   0.21120,
,,,0.428420000000,   0.21200,
,,,0.428440000000,   0.21280,
,,,0.428460000000,   0.21120,
,,,0.428480000000,   0.21200,
,,,0.428500000000,   0.21120,
,,,0.428520000000,   0.21120,
,,,0.428540000000,   0.21120,
,,,0.428560000000,   0.21120,
,,,0.428580000000,   0.21120,
,,,0.428600000000,   0.21200,
,,,0.428620000000,   0.21120,
,,,0.428640000000,   0.21040,
,,,0.428660000000,   0.21120,
,,,0.428680000000,   0.21120,
,,,0.428700000000,   0.21040,
,,,0.428720000000,   0.21200,
,,,0.428740000000,   0.21280,
,,,0.428760000000,   0.21200,
,,,0.428780000000,   0.21200,
,,,0.428800000000,   0.21040,
,,,0.428820000000,   0.21040,
,,,0.428840000000,   0.21200,
,,,0.428860000000,   0.21120,
,,,0.428880000000,   0.21200,
,,,0.428900000000,   0.21040,
,,,0.428920000000,   0.21040,
,,,0.428940000000,   0.21040,
,,,0.428960000000,   0.21200,
,,,0.428980000000,   0.21040,
,,,0.429000000000,   0.21040,
,,,0.429020000000,   0.20880,
,,,0.429040000000,   0.20960,
,,,0.429060000000,   0.20960,
,,,0.429080000000,   0.20960,
,,,0.429100000000,   0.20960,
,,,0.429120000000,   0.20960,
,,,0.429140000000,   0.20880,
,,,0.429160000000,   0.20960,
,,,0.429180000000,   0.20880,
,,,0.429200000000,   0.20800,
,,,0.429220000000,   0.20880,
,,,0.429240000000,   0.20960,
,,,0.429260000000,   0.20800,
,,,0.429280000000,   0.20800,
,,,0.429300000000,   0.20880,
,,,0.429320000000,   0.20880,
,,,0.429340000000,   0.20800,
,,,0.429360000000,   0.20800,
,,,0.429380000000,   0.20880,
,,,0.429400000000,   0.20880,
,,,0.429420000000,   0.20800,
,,,0.429440000000,   0.20880,
,,,0.429460000000,   0.20880,
,,,0.429480000000,   0.20960,
,,,0.429500000000,   0.20880,
,,,0.429520000000,   0.20720,
,,,0.429540000000,   0.20800,
,,,0.429560000000,   0.20880,
,,,0.429580000000,   0.20720,
,,,0.429600000000,   0.20800,
,,,0.429620000000,   0.20640,
,,,0.429640000000,   0.20720,
,,,0.429660000000,   0.20720,
,,,0.429680000000,   0.20720,
,,,0.429700000000,   0.20800,
,,,0.429720000000,   0.20720,
,,,0.429740000000,   0.20720,
,,,0.429760000000,   0.20720,
,,,0.429780000000,   0.20720,
,,,0.429800000000,   0.20640,
,,,0.429820000000,   0.20560,
,,,0.429840000000,   0.20720,
,,,0.429860000000,   0.20560,
,,,0.429880000000,   0.20720,
,,,0.429900000000,   0.20640,
,,,0.429920000000,   0.20640,
,,,0.429940000000,   0.20720,
,,,0.429960000000,   0.20560,
,,,0.429980000000,   0.20640,
,,,0.430000000000,   0.20560,
,,,0.430020000000,   0.20560,
,,,0.430040000000,   0.20560,
,,,0.430060000000,   0.20560,
,,,0.430080000000,   0.20560,
,,,0.430100000000,   0.20480,
,,,0.430120000000,   0.20560,
,,,0.430140000000,   0.20560,
,,,0.430160000000,   0.20560,
,,,0.430180000000,   0.20560,
,,,0.430200000000,   0.20480,
,,,0.430220000000,   0.20480,
,,,0.430240000000,   0.20560,
,,,0.430260000000,   0.20480,
,,,0.430280000000,   0.20480,
,,,0.430300000000,   0.20560,
,,,0.430320000000,   0.20560,
,,,0.430340000000,   0.20400,
,,,0.430360000000,   0.20480,
,,,0.430380000000,   0.20400,
,,,0.430400000000,   0.20560,
,,,0.430420000000,   0.20400,
,,,0.430440000000,   0.20400,
,,,0.430460000000,   0.20480,
,,,0.430480000000,   0.20320,
,,,0.430500000000,   0.20320,
,,,0.430520000000,   0.20480,
,,,0.430540000000,   0.20400,
,,,0.430560000000,   0.20320,
,,,0.430580000000,   0.20320,
,,,0.430600000000,   0.20320,
,,,0.430620000000,   0.20320,
,,,0.430640000000,   0.20240,
,,,0.430660000000,   0.20240,
,,,0.430680000000,   0.20160,
,,,0.430700000000,   0.20320,
,,,0.430720000000,   0.20400,
,,,0.430740000000,   0.20320,
,,,0.430760000000,   0.20240,
,,,0.430780000000,   0.20240,
,,,0.430800000000,   0.20240,
,,,0.430820000000,   0.20240,
,,,0.430840000000,   0.20160,
,,,0.430860000000,   0.20240,
,,,0.430880000000,   0.20160,
,,,0.430900000000,   0.20160,
,,,0.430920000000,   0.20080,
,,,0.430940000000,   0.20240,
,,,0.430960000000,   0.20160,
,,,0.430980000000,   0.20080,
,,,0.431000000000,   0.20160,
,,,0.431020000000,   0.20080,
,,,0.431040000000,   0.20160,
,,,0.431060000000,   0.20160,
,,,0.431080000000,   0.20000,
,,,0.431100000000,   0.20080,
,,,0.431120000000,   0.20080,
,,,0.431140000000,   0.20000,
,,,0.431160000000,   0.20080,
,,,0.431180000000,   0.20000,
,,,0.431200000000,   0.20080,
,,,0.431220000000,   0.20000,
,,,0.431240000000,   0.20080,
,,,0.431260000000,   0.20000,
,,,0.431280000000,   0.20000,
,,,0.431300000000,   0.19920,
,,,0.431320000000,   0.20000,
,,,0.431340000000,   0.20080,
,,,0.431360000000,   0.19840,
,,,0.431380000000,   0.20000,
,,,0.431400000000,   0.20000,
,,,0.431420000000,   0.19920,
,,,0.431440000000,   0.19920,
,,,0.431460000000,   0.19920,
,,,0.431480000000,   0.19840,
,,,0.431500000000,   0.19840,
,,,0.431520000000,   0.20080,
,,,0.431540000000,   0.19840,
,,,0.431560000000,   0.19760,
,,,0.431580000000,   0.19760,
,,,0.431600000000,   0.19760,
,,,0.431620000000,   0.19920,
,,,0.431640000000,   0.19680,
,,,0.431660000000,   0.19760,
,,,0.431680000000,   0.19840,
,,,0.431700000000,   0.19840,
,,,0.431720000000,   0.19760,
,,,0.431740000000,   0.19760,
,,,0.431760000000,   0.19760,
,,,0.431780000000,   0.19600,
,,,0.431800000000,   0.19760,
,,,0.431820000000,   0.19600,
,,,0.431840000000,   0.19600,
,,,0.431860000000,   0.19680,
,,,0.431880000000,   0.19600,
,,,0.431900000000,   0.19600,
,,,0.431920000000,   0.19440,
,,,0.431940000000,   0.19600,
,,,0.431960000000,   0.19520,
,,,0.431980000000,   0.19520,
,,,0.432000000000,   0.19440,
,,,0.432020000000,   0.19440,
,,,0.432040000000,   0.19440,
,,,0.432060000000,   0.19440,
,,,0.432080000000,   0.19520,
,,,0.432100000000,   0.19440,
,,,0.432120000000,   0.19520,
,,,0.432140000000,   0.19440,
,,,0.432160000000,   0.19360,
,,,0.432180000000,   0.19440,
,,,0.432200000000,   0.19360,
,,,0.432220000000,   0.19440,
,,,0.432240000000,   0.19360,
,,,0.432260000000,   0.19440,
,,,0.432280000000,   0.19360,
,,,0.432300000000,   0.19360,
,,,0.432320000000,   0.19200,
,,,0.432340000000,   0.19200,
,,,0.432360000000,   0.19200,
,,,0.432380000000,   0.19280,
,,,0.432400000000,   0.19280,
,,,0.432420000000,   0.19200,
,,,0.432440000000,   0.19280,
,,,0.432460000000,   0.19200,
,,,0.432480000000,   0.19200,
,,,0.432500000000,   0.19280,
,,,0.432520000000,   0.19120,
,,,0.432540000000,   0.19040,
,,,0.432560000000,   0.19200,
,,,0.432580000000,   0.19120,
,,,0.432600000000,   0.19200,
,,,0.432620000000,   0.19120,
,,,0.432640000000,   0.19120,
,,,0.432660000000,   0.19200,
,,,0.432680000000,   0.19120,
,,,0.432700000000,   0.19120,
,,,0.432720000000,   0.19200,
,,,0.432740000000,   0.19200,
,,,0.432760000000,   0.19040,
,,,0.432780000000,   0.19040,
,,,0.432800000000,   0.19040,
,,,0.432820000000,   0.19040,
,,,0.432840000000,   0.19120,
,,,0.432860000000,   0.19120,
,,,0.432880000000,   0.19040,
,,,0.432900000000,   0.18800,
,,,0.432920000000,   0.19040,
,,,0.432940000000,   0.18960,
,,,0.432960000000,   0.19040,
,,,0.432980000000,   0.19040,
,,,0.433000000000,   0.19120,
,,,0.433020000000,   0.18960,
,,,0.433040000000,   0.18960,
,,,0.433060000000,   0.19040,
,,,0.433080000000,   0.19040,
,,,0.433100000000,   0.18960,
,,,0.433120000000,   0.18880,
,,,0.433140000000,   0.18800,
,,,0.433160000000,   0.18960,
,,,0.433180000000,   0.18720,
,,,0.433200000000,   0.18720,
,,,0.433220000000,   0.18640,
,,,0.433240000000,   0.18640,
,,,0.433260000000,   0.18720,
,,,0.433280000000,   0.18560,
,,,0.433300000000,   0.18480,
,,,0.433320000000,   0.18480,
,,,0.433340000000,   0.18400,
,,,0.433360000000,   0.18320,
,,,0.433380000000,   0.18400,
,,,0.433400000000,   0.18240,
,,,0.433420000000,   0.18320,
,,,0.433440000000,   0.18240,
,,,0.433460000000,   0.18240,
,,,0.433480000000,   0.18240,
,,,0.433500000000,   0.18240,
,,,0.433520000000,   0.18160,
,,,0.433540000000,   0.18240,
,,,0.433560000000,   0.18240,
,,,0.433580000000,   0.18240,
,,,0.433600000000,   0.18080,
,,,0.433620000000,   0.18160,
,,,0.433640000000,   0.18000,
,,,0.433660000000,   0.18000,
