Measurements/15-6/Ratios/12/12.Doppler Free/F0001CH1.CSV

Record Length,2.500000e+03,,   0.514500000000,   3.58000,
Sample Interval,1.000000e-05,,   0.514510000000,   3.58000,
Trigger Point,-5.145000000000e+04,,   0.514520000000,   3.58000,
,,,   0.514530000000,   3.58000,
,,,   0.514540000000,   3.58000,
,,,   0.514550000000,   3.58000,
Source,CH1,,   0.514560000000,   3.58000,
Vertical Units,V,,   0.514570000000,   3.58000,
Vertical Scale,5.000000e-01,,   0.514580000000,   3.58000,
Vertical Offset,-3.300000e+00,,   0.514590000000,   3.58000,
Horizontal Units,s,,   0.514600000000,   3.58000,
Horizontal Scale,2.500000e-03,,   0.514610000000,   3.58000,
Pt Fmt,Y,,   0.514620000000,   3.58000,
Yzero,0.000000e+00,,   0.514630000000,   3.58000,
Probe Atten,1.000000e+00,,   0.514640000000,   3.58000,
Model Number,TDS2024B,,   0.514650000000,   3.58000,
Serial Number,C104833,,   0.514660000000,   3.58000,
Firmware Version,FV:v24.02,,   0.514670000000,   3.58000,
,,,0.514680000000,   3.58000,
,,,0.514690000000,   3.58000,
,,,0.514700000000,   3.58000,
,,,0.514710000000,   3.58000,
,,,0.514720000000,   3.58000,
,,,0.514730000000,   3.58000,
,,,0.514740000000,   3.58000,
,,,0.514750000000,   3.58000,
,,,0.514760000000,   3.58000,
,,,0.514770000000,   3.58000,
,,,0.514780000000,   3.58000,
,,,0.514790000000,   3.58000,
,,,0.514800000000,   3.58000,
,,,0.514810000000,   3.58000,
,,,0.514820000000,   3.58000,
,,,0.514830000000,   3.58000,
,,,0.514840000000,   3.58000,
,,,0.514850000000,   3.58000,
,,,0.514860000000,   3.58000,
,,,0.514870000000,   3.58000,
,,,0.514880000000,   3.56000,
,,,0.514890000000,   3.58000,
,,,0.514900000000,   3.58000,
,,,0.514910000000,   3.58000,
,,,0.514920000000,   3.58000,
,,,0.514930000000,   3.56000,
,,,0.514940000000,   3.58000,
,,,0.514950000000,   3.56000,
,,,0.514960000000,   3.56000,
,,,0.514970000000,   3.58000,
,,,0.514980000000,   3.56000,
,,,0.514990000000,   3.56000,
,,,0.515000000000,   3.56000,
,,,0.515010000000,   3.58000,
,,,0.515020000000,   3.58000,
,,,0.515030000000,   3.56000,
,,,0.515040000000,   3.56000,
,,,0.515050000000,   3.56000,
,,,0.515060000000,   3.56000,
,,,0.515070000000,   3.56000,
,,,0.515080000000,   3.56000,
,,,0.515090000000,   3.56000,
,,,0.515100000000,   3.56000,
,,,0.515110000000,   3.58000,
,,,0.515120000000,   3.56000,
,,,0.515130000000,   3.56000,
,,,0.515140000000,   3.56000,
,,,0.515150000000,   3.56000,
,,,0.515160000000,   3.56000,
,,,0.515170000000,   3.56000,
,,,0.515180000000,   3.56000,
,,,0.515190000000,   3.56000,
,,,0.515200000000,   3.56000,
,,,0.515210000000,   3.56000,
,,,0.515220000000,   3.56000,
,,,0.515230000000,   3.56000,
,,,0.515240000000,   3.56000,
,,,0.515250000000,   3.56000,
,,,0.515260000000,   3.56000,
,,,0.515270000000,   3.56000,
,,,0.515280000000,   3.56000,
,,,0.515290000000,   3.56000,
,,,0.515300000000,   3.56000,
,,,0.515310000000,   3.56000,
,,,0.515320000000,   3.56000,
,,,0.515330000000,   3.56000,
,,,0.515340000000,   3.56000,
,,,0.515350000000,   3.56000,
,,,0.515360000000,   3.56000,
,,,0.515370000000,   3.56000,
,,,0.515380000000,   3.56000,
,,,0.515390000000,   3.56000,
,,,0.515400000000,   3.56000,
,,,0.515410000000,   3.56000,
,,,0.515420000000,   3.56000,
,,,0.515430000000,   3.56000,
,,,0.515440000000,   3.56000,
,,,0.515450000000,   3.56000,
,,,0.515460000000,   3.56000,
,,,0.515470000000,   3.56000,
,,,0.515480000000,   3.56000,
,,,0.515490000000,   3.56000,
,,,0.515500000000,   3.56000,
,,,0.515510000000,   3.56000,
,,,0.515520000000,   3.56000,
,,,0.515530000000,   3.56000,
,,,0.515540000000,   3.56000,
,,,0.515550000000,   3.56000,
,,,0.515560000000,   3.56000,
,,,0.515570000000,   3.56000,
,,,0.515580000000,   3.56000,
,,,0.515590000000,   3.56000,
,,,0.515600000000,   3.56000,
,,,0.515610000000,   3.56000,
,,,0.515620000000,   3.56000,
,,,0.515630000000,   3.56000,
,,,0.515640000000,   3.56000,
,,,0.515650000000,   3.56000,
,,,0.515660000000,   3.56000,
,,,0.515670000000,   3.56000,
,,,0.515680000000,   3.56000,
,,,0.515690000000,   3.56000,
,,,0.515700000000,   3.56000,
,,,0.515710000000,   3.56000,
,,,0.515720000000,   3.56000,
,,,0.515730000000,   3.56000,
,,,0.515740000000,   3.56000,
,,,0.515750000000,   3.56000,
,,,0.515760000000,   3.56000,
,,,0.515770000000,   3.56000,
,,,0.515780000000,   3.56000,
,,,0.515790000000,   3.56000,
,,,0.515800000000,   3.56000,
,,,0.515810000000,   3.56000,
,,,0.515820000000,   3.56000,
,,,0.515830000000,   3.54000,
,,,0.515840000000,   3.56000,
,,,0.515850000000,   3.56000,
,,,0.515860000000,   3.54000,
,,,0.515870000000,   3.56000,
,,,0.515880000000,   3.56000,
,,,0.515890000000,   3.56000,
,,,0.515900000000,   3.54000,
,,,0.515910000000,   3.56000,
,,,0.515920000000,   3.54000,
,,,0.515930000000,   3.56000,
,,,0.515940000000,   3.54000,
,,,0.515950000000,   3.56000,
,,,0.515960000000,   3.56000,
,,,0.515970000000,   3.56000,
,,,0.515980000000,   3.56000,
,,,0.515990000000,   3.56000,
,,,0.516000000000,   3.54000,
,,,0.516010000000,   3.56000,
,,,0.516020000000,   3.54000,
,,,0.516030000000,   3.54000,
,,,0.516040000000,   3.54000,
,,,0.516050000000,   3.56000,
,,,0.516060000000,   3.54000,
,,,0.516070000000,   3.54000,
,,,0.516080000000,   3.54000,
,,,0.516090000000,   3.56000,
,,,0.516100000000,   3.56000,
,,,0.516110000000,   3.54000,
,,,0.516120000000,   3.54000,
,,,0.516130000000,   3.54000,
,,,0.516140000000,   3.54000,
,,,0.516150000000,   3.54000,
,,,0.516160000000,   3.54000,
,,,0.516170000000,   3.54000,
,,,0.516180000000,   3.54000,
,,,0.516190000000,   3.54000,
,,,0.516200000000,   3.54000,
,,,0.516210000000,   3.54000,
,,,0.516220000000,   3.54000,
,,,0.516230000000,   3.54000,
,,,0.516240000000,   3.54000,
,,,0.516250000000,   3.54000,
,,,0.516260000000,   3.54000,
,,,0.516270000000,   3.54000,
,,,0.516280000000,   3.54000,
,,,0.516290000000,   3.54000,
,,,0.516300000000,   3.54000,
,,,0.516310000000,   3.54000,
,,,0.516320000000,   3.54000,
,,,0.516330000000,   3.54000,
,,,0.516340000000,   3.54000,
,,,0.516350000000,   3.54000,
,,,0.516360000000,   3.54000,
,,,0.516370000000,   3.54000,
,,,0.516380000000,   3.54000,
,,,0.516390000000,   3.54000,
,,,0.516400000000,   3.54000,
,,,0.516410000000,   3.54000,
,,,0.516420000000,   3.54000,
,,,0.516430000000,   3.54000,
,,,0.516440000000,   3.54000,
,,,0.516450000000,   3.54000,
,,,0.516460000000,   3.54000,
,,,0.516470000000,   3.54000,
,,,0.516480000000,   3.54000,
,,,0.516490000000,   3.54000,
,,,0.516500000000,   3.54000,
,,,0.516510000000,   3.54000,
,,,0.516520000000,   3.54000,
,,,0.516530000000,   3.54000,
,,,0.516540000000,   3.54000,
,,,0.516550000000,   3.54000,
,,,0.516560000000,   3.54000,
,,,0.516570000000,   3.54000,
,,,0.516580000000,   3.54000,
,,,0.516590000000,   3.54000,
,,,0.516600000000,   3.54000,
,,,0.516610000000,   3.54000,
,,,0.516620000000,   3.54000,
,,,0.516630000000,   3.54000,
,,,0.516640000000,   3.54000,
,,,0.516650000000,   3.54000,
,,,0.516660000000,   3.54000,
,,,0.516670000000,   3.54000,
,,,0.516680000000,   3.54000,
,,,0.516690000000,   3.54000,
,,,0.516700000000,   3.54000,
,,,0.516710000000,   3.54000,
,,,0.516720000000,   3.54000,
,,,0.516730000000,   3.54000,
,,,0.516740000000,   3.54000,
,,,0.516750000000,   3.54000,
,,,0.516760000000,   3.54000,
,,,0.516770000000,   3.54000,
,,,0.516780000000,   3.54000,
,,,0.516790000000,   3.54000,
,,,0.516800000000,   3.54000,
,,,0.516810000000,   3.54000,
,,,0.516820000000,   3.54000,
,,,0.516830000000,   3.54000,
,,,0.516840000000,   3.54000,
,,,0.516850000000,   3.54000,
,,,0.516860000000,   3.54000,
,,,0.516870000000,   3.54000,
,,,0.516880000000,   3.54000,
,,,0.516890000000,   3.54000,
,,,0.516900000000,   3.54000,
,,,0.516910000000,   3.54000,
,,,0.516920000000,   3.54000,
,,,0.516930000000,   3.54000,
,,,0.516940000000,   3.54000,
,,,0.516950000000,   3.54000,
,,,0.516960000000,   3.54000,
,,,0.516970000000,   3.54000,
,,,0.516980000000,   3.54000,
,,,0.516990000000,   3.54000,
,,,0.517000000000,   3.54000,
,,,0.517010000000,   3.54000,
,,,0.517020000000,   3.54000,
,,,0.517030000000,   3.54000,
,,,0.517040000000,   3.54000,
,,,0.517050000000,   3.54000,
,,,0.517060000000,   3.54000,
,,,0.517070000000,   3.54000,
,,,0.517080000000,   3.54000,
,,,0.517090000000,   3.54000,
,,,0.517100000000,   3.54000,
,,,0.517110000000,   3.54000,
,,,0.517120000000,   3.54000,
,,,0.517130000000,   3.54000,
,,,0.517140000000,   3.54000,
,,,0.517150000000,   3.54000,
,,,0.517160000000,   3.54000,
,,,0.517170000000,   3.52000,
,,,0.517180000000,   3.54000,
,,,0.517190000000,   3.54000,
,,,0.517200000000,   3.54000,
,,,0.517210000000,   3.52000,
,,,0.517220000000,   3.54000,
,,,0.517230000000,   3.52000,
,,,0.517240000000,   3.54000,
,,,0.517250000000,   3.52000,
,,,0.517260000000,   3.52000,
,,,0.517270000000,   3.54000,
,,,0.517280000000,   3.52000,
,,,0.517290000000,   3.52000,
,,,0.517300000000,   3.52000,
,,,0.517310000000,   3.52000,
,,,0.517320000000,   3.52000,
,,,0.517330000000,   3.54000,
,,,0.517340000000,   3.52000,
,,,0.517350000000,   3.52000,
,,,0.517360000000,   3.52000,
,,,0.517370000000,   3.52000,
,,,0.517380000000,   3.52000,
,,,0.517390000000,   3.52000,
,,,0.517400000000,   3.52000,
,,,0.517410000000,   3.52000,
,,,0.517420000000,   3.52000,
,,,0.517430000000,   3.52000,
,,,0.517440000000,   3.52000,
,,,0.517450000000,   3.52000,
,,,0.517460000000,   3.52000,
,,,0.517470000000,   3.52000,
,,,0.517480000000,   3.52000,
,,,0.517490000000,   3.52000,
,,,0.517500000000,   3.52000,
,,,0.517510000000,   3.52000,
,,,0.517520000000,   3.52000,
,,,0.517530000000,   3.52000,
,,,0.517540000000,   3.52000,
,,,0.517550000000,   3.52000,
,,,0.517560000000,   3.52000,
,,,0.517570000000,   3.52000,
,,,0.517580000000,   3.52000,
,,,0.517590000000,   3.52000,
,,,0.517600000000,   3.52000,
,,,0.517610000000,   3.52000,
,,,0.517620000000,   3.52000,
,,,0.517630000000,   3.52000,
,,,0.517640000000,   3.52000,
,,,0.517650000000,   3.52000,
,,,0.517660000000,   3.52000,
,,,0.517670000000,   3.52000,
,,,0.517680000000,   3.52000,
,,,0.517690000000,   3.52000,
,,,0.517700000000,   3.52000,
,,,0.517710000000,   3.52000,
,,,0.517720000000,   3.52000,
,,,0.517730000000,   3.52000,
,,,0.517740000000,   3.52000,
,,,0.517750000000,   3.52000,
,,,0.517760000000,   3.52000,
,,,0.517770000000,   3.52000,
,,,0.517780000000,   3.52000,
,,,0.517790000000,   3.52000,
,,,0.517800000000,   3.52000,
,,,0.517810000000,   3.52000,
,,,0.517820000000,   3.52000,
,,,0.517830000000,   3.52000,
,,,0.517840000000,   3.52000,
,,,0.517850000000,   3.52000,
,,,0.517860000000,   3.52000,
,,,0.517870000000,   3.52000,
,,,0.517880000000,   3.52000,
,,,0.517890000000,   3.52000,
,,,0.517900000000,   3.52000,
,,,0.517910000000,   3.52000,
,,,0.517920000000,   3.52000,
,,,0.517930000000,   3.52000,
,,,0.517940000000,   3.52000,
,,,0.517950000000,   3.52000,
,,,0.517960000000,   3.50000,
,,,0.517970000000,   3.52000,
,,,0.517980000000,   3.52000,
,,,0.517990000000,   3.50000,
,,,0.518000000000,   3.52000,
,,,0.518010000000,   3.52000,
,,,0.518020000000,   3.52000,
,,,0.518030000000,   3.50000,
,,,0.518040000000,   3.50000,
,,,0.518050000000,   3.50000,
,,,0.518060000000,   3.52000,
,,,0.518070000000,   3.50000,
,,,0.518080000000,   3.50000,
,,,0.518090000000,   3.50000,
,,,0.518100000000,   3.52000,
,,,0.518110000000,   3.50000,
,,,0.518120000000,   3.50000,
,,,0.518130000000,   3.50000,
,,,0.518140000000,   3.52000,
,,,0.518150000000,   3.50000,
,,,0.518160000000,   3.50000,
,,,0.518170000000,   3.50000,
,,,0.518180000000,   3.50000,
,,,0.518190000000,   3.50000,
,,,0.518200000000,   3.50000,
,,,0.518210000000,   3.50000,
,,,0.518220000000,   3.50000,
,,,0.518230000000,   3.50000,
,,,0.518240000000,   3.50000,
,,,0.518250000000,   3.50000,
,,,0.518260000000,   3.50000,
,,,0.518270000000,   3.50000,
,,,0.518280000000,   3.50000,
,,,0.518290000000,   3.50000,
,,,0.518300000000,   3.50000,
,,,0.518310000000,   3.50000,
,,,0.518320000000,   3.50000,
,,,0.518330000000,   3.50000,
,,,0.518340000000,   3.50000,
,,,0.518350000000,   3.50000,
,,,0.518360000000,   3.50000,
,,,0.518370000000,   3.50000,
,,,0.518380000000,   3.50000,
,,,0.518390000000,   3.50000,
,,,0.518400000000,   3.50000,
,,,0.518410000000,   3.50000,
,,,0.518420000000,   3.50000,
,,,0.518430000000,   3.50000,
,,,0.518440000000,   3.50000,
,,,0.518450000000,   3.50000,
,,,0.518460000000,   3.50000,
,,,0.518470000000,   3.50000,
,,,0.518480000000,   3.50000,
,,,0.518490000000,   3.50000,
,,,0.518500000000,   3.50000,
,,,0.518510000000,   3.50000,
,,,0.518520000000,   3.50000,
,,,0.518530000000,   3.50000,
,,,0.518540000000,   3.50000,
,,,0.518550000000,   3.50000,
,,,0.518560000000,   3.50000,
,,,0.518570000000,   3.50000,
,,,0.518580000000,   3.50000,
,,,0.518590000000,   3.50000,
,,,0.518600000000,   3.50000,
,,,0.518610000000,   3.50000,
,,,0.518620000000,   3.50000,
,,,0.518630000000,   3.50000,
,,,0.518640000000,   3.50000,
,,,0.518650000000,   3.50000,
,,,0.518660000000,   3.50000,
,,,0.518670000000,   3.50000,
,,,0.518680000000,   3.50000,
,,,0.518690000000,   3.50000,
,,,0.518700000000,   3.50000,
,,,0.518710000000,   3.50000,
,,,0.518720000000,   3.48000,
,,,0.518730000000,   3.50000,
,,,0.518740000000,   3.50000,
,,,0.518750000000,   3.50000,
,,,0.518760000000,   3.50000,
,,,0.518770000000,   3.50000,
,,,0.518780000000,   3.50000,
,,,0.518790000000,   3.48000,
,,,0.518800000000,   3.50000,
,,,0.518810000000,   3.50000,
,,,0.518820000000,   3.48000,
,,,0.518830000000,   3.48000,
,,,0.518840000000,   3.48000,
,,,0.518850000000,   3.48000,
,,,0.518860000000,   3.50000,
,,,0.518870000000,   3.50000,
,,,0.518880000000,   3.50000,
,,,0.518890000000,   3.50000,
,,,0.518900000000,   3.50000,
,,,0.518910000000,   3.48000,
,,,0.518920000000,   3.48000,
,,,0.518930000000,   3.48000,
,,,0.518940000000,   3.50000,
,,,0.518950000000,   3.48000,
,,,0.518960000000,   3.48000,
,,,0.518970000000,   3.48000,
,,,0.518980000000,   3.50000,
,,,0.518990000000,   3.48000,
,,,0.519000000000,   3.48000,
,,,0.519010000000,   3.48000,
,,,0.519020000000,   3.48000,
,,,0.519030000000,   3.48000,
,,,0.519040000000,   3.48000,
,,,0.519050000000,   3.48000,
,,,0.519060000000,   3.50000,
,,,0.519070000000,   3.48000,
,,,0.519080000000,   3.48000,
,,,0.519090000000,   3.48000,
,,,0.519100000000,   3.48000,
,,,0.519110000000,   3.48000,
,,,0.519120000000,   3.48000,
,,,0.519130000000,   3.48000,
,,,0.519140000000,   3.48000,
,,,0.519150000000,   3.48000,
,,,0.519160000000,   3.48000,
,,,0.519170000000,   3.48000,
,,,0.519180000000,   3.48000,
,,,0.519190000000,   3.48000,
,,,0.519200000000,   3.48000,
,,,0.519210000000,   3.48000,
,,,0.519220000000,   3.48000,
,,,0.519230000000,   3.48000,
,,,0.519240000000,   3.48000,
,,,0.519250000000,   3.48000,
,,,0.519260000000,   3.48000,
,,,0.519270000000,   3.48000,
,,,0.519280000000,   3.48000,
,,,0.519290000000,   3.48000,
,,,0.519300000000,   3.48000,
,,,0.519310000000,   3.48000,
,,,0.519320000000,   3.48000,
,,,0.519330000000,   3.48000,
,,,0.519340000000,   3.48000,
,,,0.519350000000,   3.48000,
,,,0.519360000000,   3.48000,
,,,0.519370000000,   3.48000,
,,,0.519380000000,   3.48000,
,,,0.519390000000,   3.48000,
,,,0.519400000000,   3.48000,
,,,0.519410000000,   3.48000,
,,,0.519420000000,   3.48000,
,,,0.519430000000,   3.48000,
,,,0.519440000000,   3.48000,
,,,0.519450000000,   3.48000,
,,,0.519460000000,   3.48000,
,,,0.519470000000,   3.48000,
,,,0.519480000000,   3.48000,
,,,0.519490000000,   3.48000,
,,,0.519500000000,   3.48000,
,,,0.519510000000,   3.48000,
,,,0.519520000000,   3.48000,
,,,0.519530000000,   3.48000,
,,,0.519540000000,   3.48000,
,,,0.519550000000,   3.48000,
,,,0.519560000000,   3.48000,
,,,0.519570000000,   3.48000,
,,,0.519580000000,   3.48000,
,,,0.519590000000,   3.48000,
,,,0.519600000000,   3.48000,
,,,0.519610000000,   3.48000,
,,,0.519620000000,   3.48000,
,,,0.519630000000,   3.48000,
,,,0.519640000000,   3.48000,
,,,0.519650000000,   3.48000,
,,,0.519660000000,   3.48000,
,,,0.519670000000,   3.48000,
,,,0.519680000000,   3.48000,
,,,0.519690000000,   3.48000,
,,,0.519700000000,   3.48000,
,,,0.519710000000,   3.48000,
,,,0.519720000000,   3.48000,
,,,0.519730000000,   3.48000,
,,,0.519740000000,   3.48000,
,,,0.519750000000,   3.48000,
,,,0.519760000000,   3.48000,
,,,0.519770000000,   3.48000,
,,,0.519780000000,   3.48000,
,,,0.519790000000,   3.48000,
,,,0.519800000000,   3.48000,
,,,0.519810000000,   3.48000,
,,,0.519820000000,   3.46000,
,,,0.519830000000,   3.48000,
,,,0.519840000000,   3.48000,
,,,0.519850000000,   3.48000,
,,,0.519860000000,   3.48000,
,,,0.519870000000,   3.48000,
,,,0.519880000000,   3.48000,
,,,0.519890000000,   3.48000,
,,,0.519900000000,   3.48000,
,,,0.519910000000,   3.48000,
,,,0.519920000000,   3.48000,
,,,0.519930000000,   3.46000,
,,,0.519940000000,   3.48000,
,,,0.519950000000,   3.48000,
,,,0.519960000000,   3.48000,
,,,0.519970000000,   3.48000,
,,,0.519980000000,   3.46000,
,,,0.519990000000,   3.46000,
,,,0.520000000000,   3.48000,
,,,0.520010000000,   3.48000,
,,,0.520020000000,   3.48000,
,,,0.520030000000,   3.46000,
,,,0.520040000000,   3.48000,
,,,0.520050000000,   3.48000,
,,,0.520060000000,   3.48000,
,,,0.520070000000,   3.48000,
,,,0.520080000000,   3.46000,
,,,0.520090000000,   3.46000,
,,,0.520100000000,   3.46000,
,,,0.520110000000,   3.46000,
,,,0.520120000000,   3.48000,
,,,0.520130000000,   3.46000,
,,,0.520140000000,   3.46000,
,,,0.520150000000,   3.48000,
,,,0.520160000000,   3.46000,
,,,0.520170000000,   3.46000,
,,,0.520180000000,   3.46000,
,,,0.520190000000,   3.46000,
,,,0.520200000000,   3.46000,
,,,0.520210000000,   3.46000,
,,,0.520220000000,   3.46000,
,,,0.520230000000,   3.46000,
,,,0.520240000000,   3.46000,
,,,0.520250000000,   3.46000,
,,,0.520260000000,   3.46000,
,,,0.520270000000,   3.46000,
,,,0.520280000000,   3.46000,
,,,0.520290000000,   3.46000,
,,,0.520300000000,   3.46000,
,,,0.520310000000,   3.46000,
,,,0.520320000000,   3.46000,
,,,0.520330000000,   3.46000,
,,,0.520340000000,   3.46000,
,,,0.520350000000,   3.46000,
,,,0.520360000000,   3.46000,
,,,0.520370000000,   3.46000,
,,,0.520380000000,   3.46000,
,,,0.520390000000,   3.46000,
,,,0.520400000000,   3.46000,
,,,0.520410000000,   3.46000,
,,,0.520420000000,   3.46000,
,,,0.520430000000,   3.46000,
,,,0.520440000000,   3.46000,
,,,0.520450000000,   3.46000,
,,,0.520460000000,   3.46000,
,,,0.520470000000,   3.46000,
,,,0.520480000000,   3.46000,
,,,0.520490000000,   3.46000,
,,,0.520500000000,   3.46000,
,,,0.520510000000,   3.46000,
,,,0.520520000000,   3.46000,
,,,0.520530000000,   3.46000,
,,,0.520540000000,   3.46000,
,,,0.520550000000,   3.46000,
,,,0.520560000000,   3.46000,
,,,0.520570000000,   3.46000,
,,,0.520580000000,   3.46000,
,,,0.520590000000,   3.46000,
,,,0.520600000000,   3.46000,
,,,0.520610000000,   3.46000,
,,,0.520620000000,   3.46000,
,,,0.520630000000,   3.46000,
,,,0.520640000000,   3.46000,
,,,0.520650000000,   3.46000,
,,,0.520660000000,   3.46000,
,,,0.520670000000,   3.46000,
,,,0.520680000000,   3.46000,
,,,0.520690000000,   3.46000,
,,,0.520700000000,   3.46000,
,,,0.520710000000,   3.46000,
,,,0.520720000000,   3.46000,
,,,0.520730000000,   3.46000,
,,,0.520740000000,   3.46000,
,,,0.520750000000,   3.46000,
,,,0.520760000000,   3.46000,
,,,0.520770000000,   3.46000,
,,,0.520780000000,   3.46000,
,,,0.520790000000,   3.46000,
,,,0.520800000000,   3.46000,
,,,0.520810000000,   3.46000,
,,,0.520820000000,   3.46000,
,,,0.520830000000,   3.46000,
,,,0.520840000000,   3.46000,
,,,0.520850000000,   3.46000,
,,,0.520860000000,   3.46000,
,,,0.520870000000,   3.46000,
,,,0.520880000000,   3.46000,
,,,0.520890000000,   3.46000,
,,,0.520900000000,   3.46000,
,,,0.520910000000,   3.46000,
,,,0.520920000000,   3.46000,
,,,0.520930000000,   3.46000,
,,,0.520940000000,   3.46000,
,,,0.520950000000,   3.46000,
,,,0.520960000000,   3.44000,
,,,0.520970000000,   3.46000,
,,,0.520980000000,   3.46000,
,,,0.520990000000,   3.46000,
,,,0.521000000000,   3.46000,
,,,0.521010000000,   3.46000,
,,,0.521020000000,   3.44000,
,,,0.521030000000,   3.44000,
