Measurements/10-6/Peak 1, Doppler/ALL0004/F0004CH1.CSV

Record Length,2.500000e+03,,   0.422860000000,   0.15120,
Sample Interval,2.000000e-06,,   0.422862000000,   0.15160,
Trigger Point,-2.114300000000e+05,,   0.422864000000,   0.15120,
,,,   0.422866000000,   0.15080,
,,,   0.422868000000,   0.15080,
,,,   0.422870000000,   0.15080,
Source,CH1,,   0.422872000000,   0.15080,
Vertical Units,V,,   0.422874000000,   0.15160,
Vertical Scale,1.000000e-02,,   0.422876000000,   0.15120,
Vertical Offset,-1.340000e-01,,   0.422878000000,   0.15120,
Horizontal Units,s,,   0.422880000000,   0.15040,
Horizontal Scale,5.000000e-04,,   0.422882000000,   0.15160,
Pt Fmt,Y,,   0.422884000000,   0.15200,
Yzero,0.000000e+00,,   0.422886000000,   0.15160,
Probe Atten,1.000000e+00,,   0.422888000000,   0.15120,
Model Number,TDS2024B,,   0.422890000000,   0.15160,
Serial Number,C104833,,   0.422892000000,   0.15120,
Firmware Version,FV:v24.02,,   0.422894000000,   0.15120,
,,,0.422896000000,   0.15080,
,,,0.422898000000,   0.15160,
,,,0.422900000000,   0.15120,
,,,0.422902000000,   0.15080,
,,,0.422904000000,   0.15200,
,,,0.422906000000,   0.15120,
,,,0.422908000000,   0.15080,
,,,0.422910000000,   0.15160,
,,,0.422912000000,   0.15160,
,,,0.422914000000,   0.15120,
,,,0.422916000000,   0.15080,
,,,0.422918000000,   0.15080,
,,,0.422920000000,   0.14960,
,,,0.422922000000,   0.15120,
,,,0.422924000000,   0.15160,
,,,0.422926000000,   0.15120,
,,,0.422928000000,   0.15040,
,,,0.422930000000,   0.15160,
,,,0.422932000000,   0.15040,
,,,0.422934000000,   0.15040,
,,,0.422936000000,   0.15080,
,,,0.422938000000,   0.15040,
,,,0.422940000000,   0.15000,
,,,0.422942000000,   0.14960,
,,,0.422944000000,   0.15040,
,,,0.422946000000,   0.15000,
,,,0.422948000000,   0.15040,
,,,0.422950000000,   0.15040,
,,,0.422952000000,   0.15080,
,,,0.422954000000,   0.15000,
,,,0.422956000000,   0.14960,
,,,0.422958000000,   0.15040,
,,,0.422960000000,   0.15000,
,,,0.422962000000,   0.15040,
,,,0.422964000000,   0.15040,
,,,0.422966000000,   0.15160,
,,,0.422968000000,   0.15040,
,,,0.422970000000,   0.15080,
,,,0.422972000000,   0.15040,
,,,0.422974000000,   0.15120,
,,,0.422976000000,   0.15080,
,,,0.422978000000,   0.15040,
,,,0.422980000000,   0.15120,
,,,0.422982000000,   0.15080,
,,,0.422984000000,   0.15080,
,,,0.422986000000,   0.15160,
,,,0.422988000000,   0.15080,
,,,0.422990000000,   0.15000,
,,,0.422992000000,   0.15080,
,,,0.422994000000,   0.15040,
,,,0.422996000000,   0.15080,
,,,0.422998000000,   0.15160,
,,,0.423000000000,   0.15040,
,,,0.423002000000,   0.15120,
,,,0.423004000000,   0.15080,
,,,0.423006000000,   0.15040,
,,,0.423008000000,   0.15040,
,,,0.423010000000,   0.15080,
,,,0.423012000000,   0.15120,
,,,0.423014000000,   0.15120,
,,,0.423016000000,   0.15040,
,,,0.423018000000,   0.15040,
,,,0.423020000000,   0.14960,
,,,0.423022000000,   0.15000,
,,,0.423024000000,   0.15080,
,,,0.423026000000,   0.15160,
,,,0.423028000000,   0.14960,
,,,0.423030000000,   0.14960,
,,,0.423032000000,   0.14960,
,,,0.423034000000,   0.15040,
,,,0.423036000000,   0.15120,
,,,0.423038000000,   0.14960,
,,,0.423040000000,   0.15040,
,,,0.423042000000,   0.15080,
,,,0.423044000000,   0.14920,
,,,0.423046000000,   0.15040,
,,,0.423048000000,   0.15040,
,,,0.423050000000,   0.14960,
,,,0.423052000000,   0.15040,
,,,0.423054000000,   0.15040,
,,,0.423056000000,   0.14960,
,,,0.423058000000,   0.15040,
,,,0.423060000000,   0.15000,
,,,0.423062000000,   0.15040,
,,,0.423064000000,   0.14960,
,,,0.423066000000,   0.15000,
,,,0.423068000000,   0.15040,
,,,0.423070000000,   0.15040,
,,,0.423072000000,   0.15080,
,,,0.423074000000,   0.15000,
,,,0.423076000000,   0.15040,
,,,0.423078000000,   0.15000,
,,,0.423080000000,   0.15040,
,,,0.423082000000,   0.14920,
,,,0.423084000000,   0.15000,
,,,0.423086000000,   0.15000,
,,,0.423088000000,   0.15040,
,,,0.423090000000,   0.14920,
,,,0.423092000000,   0.15000,
,,,0.423094000000,   0.15000,
,,,0.423096000000,   0.15040,
,,,0.423098000000,   0.15040,
,,,0.423100000000,   0.15040,
,,,0.423102000000,   0.15040,
,,,0.423104000000,   0.14960,
,,,0.423106000000,   0.15160,
,,,0.423108000000,   0.14920,
,,,0.423110000000,   0.15040,
,,,0.423112000000,   0.15000,
,,,0.423114000000,   0.15040,
,,,0.423116000000,   0.14960,
,,,0.423118000000,   0.15000,
,,,0.423120000000,   0.14960,
,,,0.423122000000,   0.14960,
,,,0.423124000000,   0.15000,
,,,0.423126000000,   0.15000,
,,,0.423128000000,   0.15080,
,,,0.423130000000,   0.14960,
,,,0.423132000000,   0.15000,
,,,0.423134000000,   0.15000,
,,,0.423136000000,   0.14960,
,,,0.423138000000,   0.14920,
,,,0.423140000000,   0.14960,
,,,0.423142000000,   0.15000,
,,,0.423144000000,   0.14960,
,,,0.423146000000,   0.15040,
,,,0.423148000000,   0.15000,
,,,0.423150000000,   0.14920,
,,,0.423152000000,   0.14920,
,,,0.423154000000,   0.15080,
,,,0.423156000000,   0.15040,
,,,0.423158000000,   0.15000,
,,,0.423160000000,   0.15040,
,,,0.423162000000,   0.14920,
,,,0.423164000000,   0.14920,
,,,0.423166000000,   0.14920,
,,,0.423168000000,   0.14960,
,,,0.423170000000,   0.14960,
,,,0.423172000000,   0.14920,
,,,0.423174000000,   0.14920,
,,,0.423176000000,   0.14920,
,,,0.423178000000,   0.15000,
,,,0.423180000000,   0.15000,
,,,0.423182000000,   0.14920,
,,,0.423184000000,   0.14920,
,,,0.423186000000,   0.14920,
,,,0.423188000000,   0.15040,
,,,0.423190000000,   0.14920,
,,,0.423192000000,   0.15000,
,,,0.423194000000,   0.15000,
,,,0.423196000000,   0.14920,
,,,0.423198000000,   0.14960,
,,,0.423200000000,   0.14960,
,,,0.423202000000,   0.15000,
,,,0.423204000000,   0.14920,
,,,0.423206000000,   0.14920,
,,,0.423208000000,   0.14960,
,,,0.423210000000,   0.15000,
,,,0.423212000000,   0.14960,
,,,0.423214000000,   0.15000,
,,,0.423216000000,   0.14920,
,,,0.423218000000,   0.14920,
,,,0.423220000000,   0.15000,
,,,0.423222000000,   0.14920,
,,,0.423224000000,   0.15000,
,,,0.423226000000,   0.14960,
,,,0.423228000000,   0.15000,
,,,0.423230000000,   0.14960,
,,,0.423232000000,   0.15000,
,,,0.423234000000,   0.14880,
,,,0.423236000000,   0.14920,
,,,0.423238000000,   0.14840,
,,,0.423240000000,   0.14920,
,,,0.423242000000,   0.14920,
,,,0.423244000000,   0.14920,
,,,0.423246000000,   0.14960,
,,,0.423248000000,   0.14920,
,,,0.423250000000,   0.14920,
,,,0.423252000000,   0.14920,
,,,0.423254000000,   0.14960,
,,,0.423256000000,   0.15000,
,,,0.423258000000,   0.14840,
,,,0.423260000000,   0.14920,
,,,0.423262000000,   0.14920,
,,,0.423264000000,   0.14960,
,,,0.423266000000,   0.14920,
,,,0.423268000000,   0.14880,
,,,0.423270000000,   0.15000,
,,,0.423272000000,   0.14920,
,,,0.423274000000,   0.14920,
,,,0.423276000000,   0.14840,
,,,0.423278000000,   0.15000,
,,,0.423280000000,   0.15000,
,,,0.423282000000,   0.14920,
,,,0.423284000000,   0.14960,
,,,0.423286000000,   0.14880,
,,,0.423288000000,   0.14920,
,,,0.423290000000,   0.15000,
,,,0.423292000000,   0.14920,
,,,0.423294000000,   0.15040,
,,,0.423296000000,   0.14920,
,,,0.423298000000,   0.14920,
,,,0.423300000000,   0.15000,
,,,0.423302000000,   0.14840,
,,,0.423304000000,   0.14880,
,,,0.423306000000,   0.14960,
,,,0.423308000000,   0.14960,
,,,0.423310000000,   0.14880,
,,,0.423312000000,   0.14840,
,,,0.423314000000,   0.14920,
,,,0.423316000000,   0.14840,
,,,0.423318000000,   0.14960,
,,,0.423320000000,   0.14840,
,,,0.423322000000,   0.14960,
,,,0.423324000000,   0.14840,
,,,0.423326000000,   0.15000,
,,,0.423328000000,   0.14960,
,,,0.423330000000,   0.14920,
,,,0.423332000000,   0.14960,
,,,0.423334000000,   0.15000,
,,,0.423336000000,   0.14920,
,,,0.423338000000,   0.14880,
,,,0.423340000000,   0.14920,
,,,0.423342000000,   0.14920,
,,,0.423344000000,   0.14920,
,,,0.423346000000,   0.14840,
,,,0.423348000000,   0.15080,
,,,0.423350000000,   0.14920,
,,,0.423352000000,   0.14920,
,,,0.423354000000,   0.14840,
,,,0.423356000000,   0.14840,
,,,0.423358000000,   0.14840,
,,,0.423360000000,   0.14960,
,,,0.423362000000,   0.14880,
,,,0.423364000000,   0.14800,
,,,0.423366000000,   0.14920,
,,,0.423368000000,   0.14880,
,,,0.423370000000,   0.14840,
,,,0.423372000000,   0.14960,
,,,0.423374000000,   0.14920,
,,,0.423376000000,   0.14880,
,,,0.423378000000,   0.14960,
,,,0.423380000000,   0.14840,
,,,0.423382000000,   0.14920,
,,,0.423384000000,   0.15000,
,,,0.423386000000,   0.14960,
,,,0.423388000000,   0.14800,
,,,0.423390000000,   0.14800,
,,,0.423392000000,   0.14920,
,,,0.423394000000,   0.14960,
,,,0.423396000000,   0.14840,
,,,0.423398000000,   0.14760,
,,,0.423400000000,   0.14880,
,,,0.423402000000,   0.14800,
,,,0.423404000000,   0.14880,
,,,0.423406000000,   0.14920,
,,,0.423408000000,   0.14920,
,,,0.423410000000,   0.14960,
,,,0.423412000000,   0.14920,
,,,0.423414000000,   0.14880,
,,,0.423416000000,   0.14920,
,,,0.423418000000,   0.14920,
,,,0.423420000000,   0.14880,
,,,0.423422000000,   0.14880,
,,,0.423424000000,   0.14920,
,,,0.423426000000,   0.14800,
,,,0.423428000000,   0.14840,
,,,0.423430000000,   0.14920,
,,,0.423432000000,   0.14920,
,,,0.423434000000,   0.14840,
,,,0.423436000000,   0.14760,
,,,0.423438000000,   0.14920,
,,,0.423440000000,   0.14880,
,,,0.423442000000,   0.14880,
,,,0.423444000000,   0.14920,
,,,0.423446000000,   0.14880,
,,,0.423448000000,   0.14920,
,,,0.423450000000,   0.14920,
,,,0.423452000000,   0.14800,
,,,0.423454000000,   0.14920,
,,,0.423456000000,   0.14960,
,,,0.423458000000,   0.14920,
,,,0.423460000000,   0.14800,
,,,0.423462000000,   0.14960,
,,,0.423464000000,   0.14960,
,,,0.423466000000,   0.14960,
,,,0.423468000000,   0.14760,
,,,0.423470000000,   0.14920,
,,,0.423472000000,   0.14920,
,,,0.423474000000,   0.14760,
,,,0.423476000000,   0.14840,
,,,0.423478000000,   0.14800,
,,,0.423480000000,   0.14920,
,,,0.423482000000,   0.14720,
,,,0.423484000000,   0.14800,
,,,0.423486000000,   0.14920,
,,,0.423488000000,   0.14720,
,,,0.423490000000,   0.14880,
,,,0.423492000000,   0.14800,
,,,0.423494000000,   0.14800,
,,,0.423496000000,   0.14880,
,,,0.423498000000,   0.14840,
,,,0.423500000000,   0.14840,
,,,0.423502000000,   0.14840,
,,,0.423504000000,   0.14760,
,,,0.423506000000,   0.14760,
,,,0.423508000000,   0.14800,
,,,0.423510000000,   0.14920,
,,,0.423512000000,   0.14840,
,,,0.423514000000,   0.14800,
,,,0.423516000000,   0.14800,
,,,0.423518000000,   0.14840,
,,,0.423520000000,   0.14800,
,,,0.423522000000,   0.14880,
,,,0.423524000000,   0.14800,
,,,0.423526000000,   0.14800,
,,,0.423528000000,   0.14800,
,,,0.423530000000,   0.14720,
,,,0.423532000000,   0.14840,
,,,0.423534000000,   0.14840,
,,,0.423536000000,   0.14720,
,,,0.423538000000,   0.14800,
,,,0.423540000000,   0.14800,
,,,0.423542000000,   0.14880,
,,,0.423544000000,   0.14840,
,,,0.423546000000,   0.14880,
,,,0.423548000000,   0.14680,
,,,0.423550000000,   0.14720,
,,,0.423552000000,   0.14880,
,,,0.423554000000,   0.14760,
,,,0.423556000000,   0.14720,
,,,0.423558000000,   0.14840,
,,,0.423560000000,   0.14880,
,,,0.423562000000,   0.14840,
,,,0.423564000000,   0.14800,
,,,0.423566000000,   0.14840,
,,,0.423568000000,   0.14840,
,,,0.423570000000,   0.14800,
,,,0.423572000000,   0.14800,
,,,0.423574000000,   0.14880,
,,,0.423576000000,   0.14840,
,,,0.423578000000,   0.14840,
,,,0.423580000000,   0.14840,
,,,0.423582000000,   0.14800,
,,,0.423584000000,   0.14840,
,,,0.423586000000,   0.14760,
,,,0.423588000000,   0.14840,
,,,0.423590000000,   0.14840,
,,,0.423592000000,   0.14840,
,,,0.423594000000,   0.14880,
,,,0.423596000000,   0.14800,
,,,0.423598000000,   0.14800,
,,,0.423600000000,   0.14800,
,,,0.423602000000,   0.14720,
,,,0.423604000000,   0.14880,
,,,0.423606000000,   0.14800,
,,,0.423608000000,   0.14920,
,,,0.423610000000,   0.14880,
,,,0.423612000000,   0.14760,
,,,0.423614000000,   0.14720,
,,,0.423616000000,   0.14760,
,,,0.423618000000,   0.14880,
,,,0.423620000000,   0.14760,
,,,0.423622000000,   0.14760,
,,,0.423624000000,   0.14760,
,,,0.423626000000,   0.14800,
,,,0.423628000000,   0.14880,
,,,0.423630000000,   0.14640,
,,,0.423632000000,   0.14720,
,,,0.423634000000,   0.14840,
,,,0.423636000000,   0.14840,
,,,0.423638000000,   0.14760,
,,,0.423640000000,   0.14800,
,,,0.423642000000,   0.14760,
,,,0.423644000000,   0.14720,
,,,0.423646000000,   0.14840,
,,,0.423648000000,   0.14720,
,,,0.423650000000,   0.14680,
,,,0.423652000000,   0.14880,
,,,0.423654000000,   0.14800,
,,,0.423656000000,   0.14800,
,,,0.423658000000,   0.14760,
,,,0.423660000000,   0.14760,
,,,0.423662000000,   0.14760,
,,,0.423664000000,   0.14720,
,,,0.423666000000,   0.14800,
,,,0.423668000000,   0.14800,
,,,0.423670000000,   0.14800,
,,,0.423672000000,   0.14760,
,,,0.423674000000,   0.14760,
,,,0.423676000000,   0.14840,
,,,0.423678000000,   0.14760,
,,,0.423680000000,   0.14640,
,,,0.423682000000,   0.14800,
,,,0.423684000000,   0.14800,
,,,0.423686000000,   0.14800,
,,,0.423688000000,   0.14760,
,,,0.423690000000,   0.14720,
,,,0.423692000000,   0.14720,
,,,0.423694000000,   0.14800,
,,,0.423696000000,   0.14680,
,,,0.423698000000,   0.14760,
,,,0.423700000000,   0.14680,
,,,0.423702000000,   0.14760,
,,,0.423704000000,   0.14680,
,,,0.423706000000,   0.14680,
,,,0.423708000000,   0.14840,
,,,0.423710000000,   0.14800,
,,,0.423712000000,   0.14720,
,,,0.423714000000,   0.14800,
,,,0.423716000000,   0.14800,
,,,0.423718000000,   0.14760,
,,,0.423720000000,   0.14640,
,,,0.423722000000,   0.14760,
,,,0.423724000000,   0.14800,
,,,0.423726000000,   0.14800,
,,,0.423728000000,   0.14800,
,,,0.423730000000,   0.14680,
,,,0.423732000000,   0.14760,
,,,0.423734000000,   0.14720,
,,,0.423736000000,   0.14680,
,,,0.423738000000,   0.14760,
,,,0.423740000000,   0.14800,
,,,0.423742000000,   0.14720,
,,,0.423744000000,   0.14680,
,,,0.423746000000,   0.14720,
,,,0.423748000000,   0.14800,
,,,0.423750000000,   0.14640,
,,,0.423752000000,   0.14880,
,,,0.423754000000,   0.14600,
,,,0.423756000000,   0.14680,
,,,0.423758000000,   0.14880,
,,,0.423760000000,   0.14720,
,,,0.423762000000,   0.14680,
,,,0.423764000000,   0.14680,
,,,0.423766000000,   0.14720,
,,,0.423768000000,   0.14720,
,,,0.423770000000,   0.14760,
,,,0.423772000000,   0.14680,
,,,0.423774000000,   0.14680,
,,,0.423776000000,   0.14760,
,,,0.423778000000,   0.14760,
,,,0.423780000000,   0.14680,
,,,0.423782000000,   0.14720,
,,,0.423784000000,   0.14680,
,,,0.423786000000,   0.14720,
,,,0.423788000000,   0.14720,
,,,0.423790000000,   0.14720,
,,,0.423792000000,   0.14720,
,,,0.423794000000,   0.14680,
,,,0.423796000000,   0.14680,
,,,0.423798000000,   0.14680,
,,,0.423800000000,   0.14720,
,,,0.423802000000,   0.14640,
,,,0.423804000000,   0.14720,
,,,0.423806000000,   0.14640,
,,,0.423808000000,   0.14680,
,,,0.423810000000,   0.14640,
,,,0.423812000000,   0.14680,
,,,0.423814000000,   0.14680,
,,,0.423816000000,   0.14680,
,,,0.423818000000,   0.14720,
,,,0.423820000000,   0.14720,
,,,0.423822000000,   0.14600,
,,,0.423824000000,   0.14720,
,,,0.423826000000,   0.14760,
,,,0.423828000000,   0.14640,
,,,0.423830000000,   0.14680,
,,,0.423832000000,   0.14680,
,,,0.423834000000,   0.14680,
,,,0.423836000000,   0.14760,
,,,0.423838000000,   0.14640,
,,,0.423840000000,   0.14680,
,,,0.423842000000,   0.14600,
,,,0.423844000000,   0.14600,
,,,0.423846000000,   0.14680,
,,,0.423848000000,   0.14640,
,,,0.423850000000,   0.14800,
,,,0.423852000000,   0.14680,
,,,0.423854000000,   0.14800,
,,,0.423856000000,   0.14600,
,,,0.423858000000,   0.14680,
,,,0.423860000000,   0.14560,
,,,0.423862000000,   0.14720,
,,,0.423864000000,   0.14640,
,,,0.423866000000,   0.14680,
,,,0.423868000000,   0.14720,
,,,0.423870000000,   0.14680,
,,,0.423872000000,   0.14600,
,,,0.423874000000,   0.14680,
,,,0.423876000000,   0.14640,
,,,0.423878000000,   0.14760,
,,,0.423880000000,   0.14640,
,,,0.423882000000,   0.14640,
,,,0.423884000000,   0.14520,
,,,0.423886000000,   0.14560,
,,,0.423888000000,   0.14640,
,,,0.423890000000,   0.14640,
,,,0.423892000000,   0.14640,
,,,0.423894000000,   0.14640,
,,,0.423896000000,   0.14680,
,,,0.423898000000,   0.14600,
,,,0.423900000000,   0.14600,
,,,0.423902000000,   0.14640,
,,,0.423904000000,   0.14640,
,,,0.423906000000,   0.14600,
,,,0.423908000000,   0.14600,
,,,0.423910000000,   0.14720,
,,,0.423912000000,   0.14640,
,,,0.423914000000,   0.14680,
,,,0.423916000000,   0.14600,
,,,0.423918000000,   0.14720,
,,,0.423920000000,   0.14640,
,,,0.423922000000,   0.14640,
,,,0.423924000000,   0.14560,
,,,0.423926000000,   0.14640,
,,,0.423928000000,   0.14640,
,,,0.423930000000,   0.14680,
,,,0.423932000000,   0.14600,
,,,0.423934000000,   0.14640,
,,,0.423936000000,   0.14600,
,,,0.423938000000,   0.14640,
,,,0.423940000000,   0.14720,
,,,0.423942000000,   0.14480,
,,,0.423944000000,   0.14560,
,,,0.423946000000,   0.14560,
,,,0.423948000000,   0.14600,
,,,0.423950000000,   0.14600,
,,,0.423952000000,   0.14680,
,,,0.423954000000,   0.14560,
,,,0.423956000000,   0.14560,
,,,0.423958000000,   0.14600,
,,,0.423960000000,   0.14600,
,,,0.423962000000,   0.14600,
,,,0.423964000000,   0.14560,
,,,0.423966000000,   0.14600,
,,,0.423968000000,   0.14600,
,,,0.423970000000,   0.14560,
,,,0.423972000000,   0.14520,
,,,0.423974000000,   0.14560,
,,,0.423976000000,   0.14560,
,,,0.423978000000,   0.14680,
,,,0.423980000000,   0.14680,
,,,0.423982000000,   0.14560,
,,,0.423984000000,   0.14600,
,,,0.423986000000,   0.14560,
,,,0.423988000000,   0.14440,
,,,0.423990000000,   0.14520,
,,,0.423992000000,   0.14480,
,,,0.423994000000,   0.14520,
,,,0.423996000000,   0.14560,
,,,0.423998000000,   0.14560,
,,,0.424000000000,   0.14440,
,,,0.424002000000,   0.14560,
,,,0.424004000000,   0.14560,
,,,0.424006000000,   0.14640,
,,,0.424008000000,   0.14600,
,,,0.424010000000,   0.14520,
,,,0.424012000000,   0.14640,
,,,0.424014000000,   0.14640,
,,,0.424016000000,   0.14560,
,,,0.424018000000,   0.14520,
,,,0.424020000000,   0.14480,
,,,0.424022000000,   0.14560,
,,,0.424024000000,   0.14520,
,,,0.424026000000,   0.14560,
,,,0.424028000000,   0.14520,
,,,0.424030000000,   0.14480,
,,,0.424032000000,   0.14560,
,,,0.424034000000,   0.14560,
,,,0.424036000000,   0.14560,
,,,0.424038000000,   0.14600,
,,,0.424040000000,   0.14560,
,,,0.424042000000,   0.14680,
,,,0.424044000000,   0.14560,
,,,0.424046000000,   0.14560,
,,,0.424048000000,   0.14720,
,,,0.424050000000,   0.14600,
,,,0.424052000000,   0.14520,
,,,0.424054000000,   0.14600,
,,,0.424056000000,   0.14560,
,,,0.424058000000,   0.14560,
,,,0.424060000000,   0.14560,
,,,0.424062000000,   0.14560,
,,,0.424064000000,   0.14520,
,,,0.424066000000,   0.14680,
,,,0.424068000000,   0.14560,
,,,0.424070000000,   0.14480,
,,,0.424072000000,   0.14560,
,,,0.424074000000,   0.14480,
,,,0.424076000000,   0.14560,
,,,0.424078000000,   0.14560,
,,,0.424080000000,   0.14400,
,,,0.424082000000,   0.14480,
,,,0.424084000000,   0.14560,
,,,0.424086000000,   0.14440,
,,,0.424088000000,   0.14520,
,,,0.424090000000,   0.14640,
,,,0.424092000000,   0.14560,
,,,0.424094000000,   0.14560,
,,,0.424096000000,   0.14560,
,,,0.424098000000,   0.14520,
,,,0.424100000000,   0.14520,
,,,0.424102000000,   0.14520,
,,,0.424104000000,   0.14520,
,,,0.424106000000,   0.14600,
,,,0.424108000000,   0.14440,
,,,0.424110000000,   0.14440,
,,,0.424112000000,   0.14440,
,,,0.424114000000,   0.14400,
,,,0.424116000000,   0.14480,
,,,0.424118000000,   0.14440,
,,,0.424120000000,   0.14520,
,,,0.424122000000,   0.14440,
,,,0.424124000000,   0.14440,
,,,0.424126000000,   0.14520,
,,,0.424128000000,   0.14400,
,,,0.424130000000,   0.14480,
,,,0.424132000000,   0.14560,
,,,0.424134000000,   0.14520,
,,,0.424136000000,   0.14440,
,,,0.424138000000,   0.14520,
,,,0.424140000000,   0.14400,
,,,0.424142000000,   0.14560,
,,,0.424144000000,   0.14440,
,,,0.424146000000,   0.14480,
,,,0.424148000000,   0.14440,
,,,0.424150000000,   0.14560,
,,,0.424152000000,   0.14480,
,,,0.424154000000,   0.14440,
,,,0.424156000000,   0.14520,
,,,0.424158000000,   0.14400,
,,,0.424160000000,   0.14440,
,,,0.424162000000,   0.14400,
,,,0.424164000000,   0.14440,
,,,0.424166000000,   0.14480,
