Measurements/15-6/Ratios/6/6.Doppler Free/F0000CH1.CSV

Record Length,2.500000e+03,,   0.511100000000,   0.55920,
Sample Interval,1.000000e-05,,   0.511110000000,   0.55920,
Trigger Point,-5.111000000000e+04,,   0.511120000000,   0.55920,
,,,   0.511130000000,   0.55920,
,,,   0.511140000000,   0.55920,
,,,   0.511150000000,   0.55920,
Source,CH1,,   0.511160000000,   0.55920,
Vertical Units,V,,   0.511170000000,   0.55880,
Vertical Scale,1.000000e-02,,   0.511180000000,   0.55880,
Vertical Offset,-5.180000e-01,,   0.511190000000,   0.55880,
Horizontal Units,s,,   0.511200000000,   0.55880,
Horizontal Scale,2.500000e-03,,   0.511210000000,   0.55880,
Pt Fmt,Y,,   0.511220000000,   0.55880,
Yzero,0.000000e+00,,   0.511230000000,   0.55880,
Probe Atten,1.000000e+00,,   0.511240000000,   0.55880,
Model Number,TDS2024B,,   0.511250000000,   0.55880,
Serial Number,C104833,,   0.511260000000,   0.55880,
Firmware Version,FV:v24.02,,   0.511270000000,   0.55880,
,,,0.511280000000,   0.55880,
,,,0.511290000000,   0.55880,
,,,0.511300000000,   0.55880,
,,,0.511310000000,   0.55840,
,,,0.511320000000,   0.55880,
,,,0.511330000000,   0.55880,
,,,0.511340000000,   0.55840,
,,,0.511350000000,   0.55840,
,,,0.511360000000,   0.55840,
,,,0.511370000000,   0.55840,
,,,0.511380000000,   0.55880,
,,,0.511390000000,   0.55840,
,,,0.511400000000,   0.55840,
,,,0.511410000000,   0.55840,
,,,0.511420000000,   0.55840,
,,,0.511430000000,   0.55840,
,,,0.511440000000,   0.55800,
,,,0.511450000000,   0.55800,
,,,0.511460000000,   0.55800,
,,,0.511470000000,   0.55800,
,,,0.511480000000,   0.55800,
,,,0.511490000000,   0.55840,
,,,0.511500000000,   0.55800,
,,,0.511510000000,   0.55800,
,,,0.511520000000,   0.55800,
,,,0.511530000000,   0.55800,
,,,0.511540000000,   0.55800,
,,,0.511550000000,   0.55800,
,,,0.511560000000,   0.55800,
,,,0.511570000000,   0.55760,
,,,0.511580000000,   0.55800,
,,,0.511590000000,   0.55760,
,,,0.511600000000,   0.55760,
,,,0.511610000000,   0.55760,
,,,0.511620000000,   0.55800,
,,,0.511630000000,   0.55760,
,,,0.511640000000,   0.55760,
,,,0.511650000000,   0.55760,
,,,0.511660000000,   0.55760,
,,,0.511670000000,   0.55720,
,,,0.511680000000,   0.55760,
,,,0.511690000000,   0.55760,
,,,0.511700000000,   0.55760,
,,,0.511710000000,   0.55760,
,,,0.511720000000,   0.55760,
,,,0.511730000000,   0.55720,
,,,0.511740000000,   0.55720,
,,,0.511750000000,   0.55720,
,,,0.511760000000,   0.55720,
,,,0.511770000000,   0.55720,
,,,0.511780000000,   0.55720,
,,,0.511790000000,   0.55720,
,,,0.511800000000,   0.55680,
,,,0.511810000000,   0.55680,
,,,0.511820000000,   0.55680,
,,,0.511830000000,   0.55720,
,,,0.511840000000,   0.55680,
,,,0.511850000000,   0.55680,
,,,0.511860000000,   0.55680,
,,,0.511870000000,   0.55680,
,,,0.511880000000,   0.55680,
,,,0.511890000000,   0.55680,
,,,0.511900000000,   0.55680,
,,,0.511910000000,   0.55680,
,,,0.511920000000,   0.55680,
,,,0.511930000000,   0.55640,
,,,0.511940000000,   0.55640,
,,,0.511950000000,   0.55640,
,,,0.511960000000,   0.55640,
,,,0.511970000000,   0.55640,
,,,0.511980000000,   0.55640,
,,,0.511990000000,   0.55640,
,,,0.512000000000,   0.55640,
,,,0.512010000000,   0.55640,
,,,0.512020000000,   0.55640,
,,,0.512030000000,   0.55640,
,,,0.512040000000,   0.55600,
,,,0.512050000000,   0.55640,
,,,0.512060000000,   0.55600,
,,,0.512070000000,   0.55600,
,,,0.512080000000,   0.55600,
,,,0.512090000000,   0.55600,
,,,0.512100000000,   0.55600,
,,,0.512110000000,   0.55600,
,,,0.512120000000,   0.55600,
,,,0.512130000000,   0.55560,
,,,0.512140000000,   0.55600,
,,,0.512150000000,   0.55560,
,,,0.512160000000,   0.55560,
,,,0.512170000000,   0.55560,
,,,0.512180000000,   0.55560,
,,,0.512190000000,   0.55560,
,,,0.512200000000,   0.55560,
,,,0.512210000000,   0.55560,
,,,0.512220000000,   0.55560,
,,,0.512230000000,   0.55560,
,,,0.512240000000,   0.55560,
,,,0.512250000000,   0.55560,
,,,0.512260000000,   0.55520,
,,,0.512270000000,   0.55520,
,,,0.512280000000,   0.55560,
,,,0.512290000000,   0.55520,
,,,0.512300000000,   0.55520,
,,,0.512310000000,   0.55520,
,,,0.512320000000,   0.55520,
,,,0.512330000000,   0.55520,
,,,0.512340000000,   0.55520,
,,,0.512350000000,   0.55520,
,,,0.512360000000,   0.55520,
,,,0.512370000000,   0.55520,
,,,0.512380000000,   0.55520,
,,,0.512390000000,   0.55480,
,,,0.512400000000,   0.55520,
,,,0.512410000000,   0.55480,
,,,0.512420000000,   0.55480,
,,,0.512430000000,   0.55480,
,,,0.512440000000,   0.55480,
,,,0.512450000000,   0.55480,
,,,0.512460000000,   0.55480,
,,,0.512470000000,   0.55480,
,,,0.512480000000,   0.55480,
,,,0.512490000000,   0.55480,
,,,0.512500000000,   0.55480,
,,,0.512510000000,   0.55480,
,,,0.512520000000,   0.55440,
,,,0.512530000000,   0.55480,
,,,0.512540000000,   0.55480,
,,,0.512550000000,   0.55440,
,,,0.512560000000,   0.55440,
,,,0.512570000000,   0.55480,
,,,0.512580000000,   0.55440,
,,,0.512590000000,   0.55440,
,,,0.512600000000,   0.55440,
,,,0.512610000000,   0.55440,
,,,0.512620000000,   0.55400,
,,,0.512630000000,   0.55440,
,,,0.512640000000,   0.55440,
,,,0.512650000000,   0.55400,
,,,0.512660000000,   0.55400,
,,,0.512670000000,   0.55400,
,,,0.512680000000,   0.55400,
,,,0.512690000000,   0.55400,
,,,0.512700000000,   0.55440,
,,,0.512710000000,   0.55400,
,,,0.512720000000,   0.55400,
,,,0.512730000000,   0.55400,
,,,0.512740000000,   0.55400,
,,,0.512750000000,   0.55400,
,,,0.512760000000,   0.55400,
,,,0.512770000000,   0.55400,
,,,0.512780000000,   0.55400,
,,,0.512790000000,   0.55400,
,,,0.512800000000,   0.55400,
,,,0.512810000000,   0.55400,
,,,0.512820000000,   0.55360,
,,,0.512830000000,   0.55360,
,,,0.512840000000,   0.55360,
,,,0.512850000000,   0.55360,
,,,0.512860000000,   0.55360,
,,,0.512870000000,   0.55360,
,,,0.512880000000,   0.55360,
,,,0.512890000000,   0.55360,
,,,0.512900000000,   0.55360,
,,,0.512910000000,   0.55360,
,,,0.512920000000,   0.55360,
,,,0.512930000000,   0.55320,
,,,0.512940000000,   0.55320,
,,,0.512950000000,   0.55360,
,,,0.512960000000,   0.55320,
,,,0.512970000000,   0.55360,
,,,0.512980000000,   0.55320,
,,,0.512990000000,   0.55320,
,,,0.513000000000,   0.55320,
,,,0.513010000000,   0.55280,
,,,0.513020000000,   0.55320,
,,,0.513030000000,   0.55280,
,,,0.513040000000,   0.55280,
,,,0.513050000000,   0.55320,
,,,0.513060000000,   0.55320,
,,,0.513070000000,   0.55280,
,,,0.513080000000,   0.55320,
,,,0.513090000000,   0.55280,
,,,0.513100000000,   0.55320,
,,,0.513110000000,   0.55280,
,,,0.513120000000,   0.55280,
,,,0.513130000000,   0.55280,
,,,0.513140000000,   0.55280,
,,,0.513150000000,   0.55280,
,,,0.513160000000,   0.55280,
,,,0.513170000000,   0.55280,
,,,0.513180000000,   0.55280,
,,,0.513190000000,   0.55280,
,,,0.513200000000,   0.55280,
,,,0.513210000000,   0.55280,
,,,0.513220000000,   0.55240,
,,,0.513230000000,   0.55240,
,,,0.513240000000,   0.55240,
,,,0.513250000000,   0.55240,
,,,0.513260000000,   0.55240,
,,,0.513270000000,   0.55240,
,,,0.513280000000,   0.55240,
,,,0.513290000000,   0.55240,
,,,0.513300000000,   0.55240,
,,,0.513310000000,   0.55240,
,,,0.513320000000,   0.55200,
,,,0.513330000000,   0.55200,
,,,0.513340000000,   0.55240,
,,,0.513350000000,   0.55200,
,,,0.513360000000,   0.55200,
,,,0.513370000000,   0.55240,
,,,0.513380000000,   0.55240,
,,,0.513390000000,   0.55200,
,,,0.513400000000,   0.55200,
,,,0.513410000000,   0.55200,
,,,0.513420000000,   0.55200,
,,,0.513430000000,   0.55200,
,,,0.513440000000,   0.55200,
,,,0.513450000000,   0.55200,
,,,0.513460000000,   0.55160,
,,,0.513470000000,   0.55200,
,,,0.513480000000,   0.55160,
,,,0.513490000000,   0.55160,
,,,0.513500000000,   0.55160,
,,,0.513510000000,   0.55160,
,,,0.513520000000,   0.55160,
,,,0.513530000000,   0.55160,
,,,0.513540000000,   0.55200,
,,,0.513550000000,   0.55160,
,,,0.513560000000,   0.55160,
,,,0.513570000000,   0.55120,
,,,0.513580000000,   0.55160,
,,,0.513590000000,   0.55160,
,,,0.513600000000,   0.55120,
,,,0.513610000000,   0.55120,
,,,0.513620000000,   0.55120,
,,,0.513630000000,   0.55120,
,,,0.513640000000,   0.55120,
,,,0.513650000000,   0.55120,
,,,0.513660000000,   0.55120,
,,,0.513670000000,   0.55120,
,,,0.513680000000,   0.55120,
,,,0.513690000000,   0.55120,
,,,0.513700000000,   0.55080,
,,,0.513710000000,   0.55120,
,,,0.513720000000,   0.55120,
,,,0.513730000000,   0.55080,
,,,0.513740000000,   0.55080,
,,,0.513750000000,   0.55080,
,,,0.513760000000,   0.55080,
,,,0.513770000000,   0.55080,
,,,0.513780000000,   0.55080,
,,,0.513790000000,   0.55080,
,,,0.513800000000,   0.55080,
,,,0.513810000000,   0.55080,
,,,0.513820000000,   0.55040,
,,,0.513830000000,   0.55040,
,,,0.513840000000,   0.55040,
,,,0.513850000000,   0.55040,
,,,0.513860000000,   0.55040,
,,,0.513870000000,   0.55040,
,,,0.513880000000,   0.55040,
,,,0.513890000000,   0.55040,
,,,0.513900000000,   0.55040,
,,,0.513910000000,   0.55040,
,,,0.513920000000,   0.55040,
,,,0.513930000000,   0.55040,
,,,0.513940000000,   0.55000,
,,,0.513950000000,   0.55000,
,,,0.513960000000,   0.55000,
,,,0.513970000000,   0.55000,
,,,0.513980000000,   0.55000,
,,,0.513990000000,   0.55000,
,,,0.514000000000,   0.55000,
,,,0.514010000000,   0.55000,
,,,0.514020000000,   0.55000,
,,,0.514030000000,   0.54960,
,,,0.514040000000,   0.55000,
,,,0.514050000000,   0.55000,
,,,0.514060000000,   0.54960,
,,,0.514070000000,   0.54960,
,,,0.514080000000,   0.54960,
,,,0.514090000000,   0.54960,
,,,0.514100000000,   0.54960,
,,,0.514110000000,   0.54960,
,,,0.514120000000,   0.54960,
,,,0.514130000000,   0.54920,
,,,0.514140000000,   0.54920,
,,,0.514150000000,   0.54960,
,,,0.514160000000,   0.54920,
,,,0.514170000000,   0.54920,
,,,0.514180000000,   0.54960,
,,,0.514190000000,   0.54920,
,,,0.514200000000,   0.54920,
,,,0.514210000000,   0.54920,
,,,0.514220000000,   0.54920,
,,,0.514230000000,   0.54920,
,,,0.514240000000,   0.54920,
,,,0.514250000000,   0.54920,
,,,0.514260000000,   0.54880,
,,,0.514270000000,   0.54880,
,,,0.514280000000,   0.54880,
,,,0.514290000000,   0.54880,
,,,0.514300000000,   0.54880,
,,,0.514310000000,   0.54880,
,,,0.514320000000,   0.54880,
,,,0.514330000000,   0.54880,
,,,0.514340000000,   0.54880,
,,,0.514350000000,   0.54880,
,,,0.514360000000,   0.54880,
,,,0.514370000000,   0.54880,
,,,0.514380000000,   0.54840,
,,,0.514390000000,   0.54840,
,,,0.514400000000,   0.54880,
,,,0.514410000000,   0.54840,
,,,0.514420000000,   0.54840,
,,,0.514430000000,   0.54840,
,,,0.514440000000,   0.54840,
,,,0.514450000000,   0.54840,
,,,0.514460000000,   0.54840,
,,,0.514470000000,   0.54800,
,,,0.514480000000,   0.54840,
,,,0.514490000000,   0.54840,
,,,0.514500000000,   0.54840,
,,,0.514510000000,   0.54840,
,,,0.514520000000,   0.54840,
,,,0.514530000000,   0.54800,
,,,0.514540000000,   0.54800,
,,,0.514550000000,   0.54800,
,,,0.514560000000,   0.54840,
,,,0.514570000000,   0.54800,
,,,0.514580000000,   0.54800,
,,,0.514590000000,   0.54840,
,,,0.514600000000,   0.54800,
,,,0.514610000000,   0.54800,
,,,0.514620000000,   0.54800,
,,,0.514630000000,   0.54800,
,,,0.514640000000,   0.54800,
,,,0.514650000000,   0.54800,
,,,0.514660000000,   0.54800,
,,,0.514670000000,   0.54800,
,,,0.514680000000,   0.54800,
,,,0.514690000000,   0.54800,
,,,0.514700000000,   0.54800,
,,,0.514710000000,   0.54800,
,,,0.514720000000,   0.54760,
,,,0.514730000000,   0.54800,
,,,0.514740000000,   0.54760,
,,,0.514750000000,   0.54760,
,,,0.514760000000,   0.54800,
,,,0.514770000000,   0.54760,
,,,0.514780000000,   0.54800,
,,,0.514790000000,   0.54760,
,,,0.514800000000,   0.54760,
,,,0.514810000000,   0.54760,
,,,0.514820000000,   0.54760,
,,,0.514830000000,   0.54760,
,,,0.514840000000,   0.54720,
,,,0.514850000000,   0.54760,
,,,0.514860000000,   0.54760,
,,,0.514870000000,   0.54760,
,,,0.514880000000,   0.54760,
,,,0.514890000000,   0.54760,
,,,0.514900000000,   0.54760,
,,,0.514910000000,   0.54720,
,,,0.514920000000,   0.54720,
,,,0.514930000000,   0.54720,
,,,0.514940000000,   0.54720,
,,,0.514950000000,   0.54720,
,,,0.514960000000,   0.54720,
,,,0.514970000000,   0.54720,
,,,0.514980000000,   0.54720,
,,,0.514990000000,   0.54680,
,,,0.515000000000,   0.54720,
,,,0.515010000000,   0.54720,
,,,0.515020000000,   0.54720,
,,,0.515030000000,   0.54720,
,,,0.515040000000,   0.54720,
,,,0.515050000000,   0.54720,
,,,0.515060000000,   0.54720,
,,,0.515070000000,   0.54680,
,,,0.515080000000,   0.54680,
,,,0.515090000000,   0.54720,
,,,0.515100000000,   0.54680,
,,,0.515110000000,   0.54680,
,,,0.515120000000,   0.54720,
,,,0.515130000000,   0.54680,
,,,0.515140000000,   0.54680,
,,,0.515150000000,   0.54680,
,,,0.515160000000,   0.54720,
,,,0.515170000000,   0.54680,
,,,0.515180000000,   0.54680,
,,,0.515190000000,   0.54680,
,,,0.515200000000,   0.54680,
,,,0.515210000000,   0.54680,
,,,0.515220000000,   0.54680,
,,,0.515230000000,   0.54680,
,,,0.515240000000,   0.54680,
,,,0.515250000000,   0.54680,
,,,0.515260000000,   0.54680,
,,,0.515270000000,   0.54680,
,,,0.515280000000,   0.54680,
,,,0.515290000000,   0.54680,
,,,0.515300000000,   0.54640,
,,,0.515310000000,   0.54680,
,,,0.515320000000,   0.54680,
,,,0.515330000000,   0.54640,
,,,0.515340000000,   0.54680,
,,,0.515350000000,   0.54640,
,,,0.515360000000,   0.54640,
,,,0.515370000000,   0.54680,
,,,0.515380000000,   0.54640,
,,,0.515390000000,   0.54640,
,,,0.515400000000,   0.54680,
,,,0.515410000000,   0.54640,
,,,0.515420000000,   0.54640,
,,,0.515430000000,   0.54640,
,,,0.515440000000,   0.54640,
,,,0.515450000000,   0.54640,
,,,0.515460000000,   0.54640,
,,,0.515470000000,   0.54640,
,,,0.515480000000,   0.54640,
,,,0.515490000000,   0.54640,
,,,0.515500000000,   0.54640,
,,,0.515510000000,   0.54640,
,,,0.515520000000,   0.54640,
,,,0.515530000000,   0.54640,
,,,0.515540000000,   0.54640,
,,,0.515550000000,   0.54640,
,,,0.515560000000,   0.54640,
,,,0.515570000000,   0.54640,
,,,0.515580000000,   0.54640,
,,,0.515590000000,   0.54640,
,,,0.515600000000,   0.54640,
,,,0.515610000000,   0.54640,
,,,0.515620000000,   0.54640,
,,,0.515630000000,   0.54640,
,,,0.515640000000,   0.54640,
,,,0.515650000000,   0.54640,
,,,0.515660000000,   0.54640,
,,,0.515670000000,   0.54600,
,,,0.515680000000,   0.54640,
,,,0.515690000000,   0.54640,
,,,0.515700000000,   0.54640,
,,,0.515710000000,   0.54600,
,,,0.515720000000,   0.54640,
,,,0.515730000000,   0.54600,
,,,0.515740000000,   0.54640,
,,,0.515750000000,   0.54600,
,,,0.515760000000,   0.54600,
,,,0.515770000000,   0.54600,
,,,0.515780000000,   0.54640,
,,,0.515790000000,   0.54640,
,,,0.515800000000,   0.54600,
,,,0.515810000000,   0.54640,
,,,0.515820000000,   0.54640,
,,,0.515830000000,   0.54640,
,,,0.515840000000,   0.54640,
,,,0.515850000000,   0.54640,
,,,0.515860000000,   0.54640,
,,,0.515870000000,   0.54640,
,,,0.515880000000,   0.54600,
,,,0.515890000000,   0.54640,
,,,0.515900000000,   0.54600,
,,,0.515910000000,   0.54640,
,,,0.515920000000,   0.54640,
,,,0.515930000000,   0.54640,
,,,0.515940000000,   0.54640,
,,,0.515950000000,   0.54600,
,,,0.515960000000,   0.54600,
,,,0.515970000000,   0.54640,
,,,0.515980000000,   0.54600,
,,,0.515990000000,   0.54640,
,,,0.516000000000,   0.54640,
,,,0.516010000000,   0.54640,
,,,0.516020000000,   0.54600,
,,,0.516030000000,   0.54640,
,,,0.516040000000,   0.54640,
,,,0.516050000000,   0.54600,
,,,0.516060000000,   0.54640,
,,,0.516070000000,   0.54600,
,,,0.516080000000,   0.54600,
,,,0.516090000000,   0.54640,
,,,0.516100000000,   0.54640,
,,,0.516110000000,   0.54640,
,,,0.516120000000,   0.54640,
,,,0.516130000000,   0.54600,
,,,0.516140000000,   0.54640,
,,,0.516150000000,   0.54600,
,,,0.516160000000,   0.54600,
,,,0.516170000000,   0.54600,
,,,0.516180000000,   0.54600,
,,,0.516190000000,   0.54640,
,,,0.516200000000,   0.54640,
,,,0.516210000000,   0.54640,
,,,0.516220000000,   0.54640,
,,,0.516230000000,   0.54600,
,,,0.516240000000,   0.54600,
,,,0.516250000000,   0.54600,
,,,0.516260000000,   0.54600,
,,,0.516270000000,   0.54600,
,,,0.516280000000,   0.54600,
,,,0.516290000000,   0.54600,
,,,0.516300000000,   0.54600,
,,,0.516310000000,   0.54600,
,,,0.516320000000,   0.54600,
,,,0.516330000000,   0.54600,
,,,0.516340000000,   0.54600,
,,,0.516350000000,   0.54600,
,,,0.516360000000,   0.54560,
,,,0.516370000000,   0.54600,
,,,0.516380000000,   0.54560,
,,,0.516390000000,   0.54560,
,,,0.516400000000,   0.54560,
,,,0.516410000000,   0.54560,
,,,0.516420000000,   0.54560,
,,,0.516430000000,   0.54560,
,,,0.516440000000,   0.54560,
,,,0.516450000000,   0.54560,
,,,0.516460000000,   0.54520,
,,,0.516470000000,   0.54520,
,,,0.516480000000,   0.54560,
,,,0.516490000000,   0.54560,
,,,0.516500000000,   0.54560,
,,,0.516510000000,   0.54520,
,,,0.516520000000,   0.54560,
,,,0.516530000000,   0.54520,
,,,0.516540000000,   0.54520,
,,,0.516550000000,   0.54520,
,,,0.516560000000,   0.54520,
,,,0.516570000000,   0.54520,
,,,0.516580000000,   0.54520,
,,,0.516590000000,   0.54520,
,,,0.516600000000,   0.54520,
,,,0.516610000000,   0.54520,
,,,0.516620000000,   0.54520,
,,,0.516630000000,   0.54480,
,,,0.516640000000,   0.54480,
,,,0.516650000000,   0.54480,
,,,0.516660000000,   0.54480,
,,,0.516670000000,   0.54480,
,,,0.516680000000,   0.54480,
,,,0.516690000000,   0.54480,
,,,0.516700000000,   0.54480,
,,,0.516710000000,   0.54480,
,,,0.516720000000,   0.54480,
,,,0.516730000000,   0.54440,
,,,0.516740000000,   0.54440,
,,,0.516750000000,   0.54480,
,,,0.516760000000,   0.54440,
,,,0.516770000000,   0.54440,
,,,0.516780000000,   0.54440,
,,,0.516790000000,   0.54440,
,,,0.516800000000,   0.54440,
,,,0.516810000000,   0.54440,
,,,0.516820000000,   0.54400,
,,,0.516830000000,   0.54440,
,,,0.516840000000,   0.54400,
,,,0.516850000000,   0.54400,
,,,0.516860000000,   0.54400,
,,,0.516870000000,   0.54400,
,,,0.516880000000,   0.54400,
,,,0.516890000000,   0.54400,
,,,0.516900000000,   0.54400,
,,,0.516910000000,   0.54360,
,,,0.516920000000,   0.54360,
,,,0.516930000000,   0.54400,
,,,0.516940000000,   0.54360,
,,,0.516950000000,   0.54360,
,,,0.516960000000,   0.54360,
,,,0.516970000000,   0.54360,
,,,0.516980000000,   0.54360,
,,,0.516990000000,   0.54360,
,,,0.517000000000,   0.54360,
,,,0.517010000000,   0.54360,
,,,0.517020000000,   0.54320,
,,,0.517030000000,   0.54320,
,,,0.517040000000,   0.54360,
,,,0.517050000000,   0.54320,
,,,0.517060000000,   0.54320,
,,,0.517070000000,   0.54320,
,,,0.517080000000,   0.54320,
,,,0.517090000000,   0.54320,
,,,0.517100000000,   0.54280,
,,,0.517110000000,   0.54320,
,,,0.517120000000,   0.54280,
,,,0.517130000000,   0.54280,
,,,0.517140000000,   0.54280,
,,,0.517150000000,   0.54280,
,,,0.517160000000,   0.54280,
,,,0.517170000000,   0.54280,
,,,0.517180000000,   0.54280,
,,,0.517190000000,   0.54280,
,,,0.517200000000,   0.54240,
,,,0.517210000000,   0.54240,
,,,0.517220000000,   0.54240,
,,,0.517230000000,   0.54240,
,,,0.517240000000,   0.54240,
,,,0.517250000000,   0.54240,
,,,0.517260000000,   0.54240,
,,,0.517270000000,   0.54240,
,,,0.517280000000,   0.54240,
,,,0.517290000000,   0.54240,
,,,0.517300000000,   0.54240,
,,,0.517310000000,   0.54200,
,,,0.517320000000,   0.54240,
,,,0.517330000000,   0.54240,
,,,0.517340000000,   0.54240,
,,,0.517350000000,   0.54240,
,,,0.517360000000,   0.54240,
,,,0.517370000000,   0.54200,
,,,0.517380000000,   0.54240,
,,,0.517390000000,   0.54200,
,,,0.517400000000,   0.54200,
,,,0.517410000000,   0.54200,
,,,0.517420000000,   0.54200,
,,,0.517430000000,   0.54200,
,,,0.517440000000,   0.54200,
,,,0.517450000000,   0.54200,
,,,0.517460000000,   0.54240,
,,,0.517470000000,   0.54200,
,,,0.517480000000,   0.54200,
,,,0.517490000000,   0.54200,
,,,0.517500000000,   0.54200,
,,,0.517510000000,   0.54200,
,,,0.517520000000,   0.54240,
,,,0.517530000000,   0.54200,
,,,0.517540000000,   0.54200,
,,,0.517550000000,   0.54200,
,,,0.517560000000,   0.54200,
,,,0.517570000000,   0.54200,
,,,0.517580000000,   0.54240,
,,,0.517590000000,   0.54240,
,,,0.517600000000,   0.54200,
,,,0.517610000000,   0.54240,
,,,0.517620000000,   0.54200,
,,,0.517630000000,   0.54200,
