Ratio fits/3d.CSV

Record Length,2.500000e+03,,   0.513100000000,   0.12700,
Sample Interval,1.000000e-05,,   0.513110000000,   0.12720,
Trigger Point,-5.131000000000e+04,,   0.513120000000,   0.12700,
,,,   0.513130000000,   0.12700,
,,,   0.513140000000,   0.12700,
,,,   0.513150000000,   0.12700,
Source,CH1,,   0.513160000000,   0.12720,
Vertical Units,V,,   0.513170000000,   0.12740,
Vertical Scale,5.000000e-03,,   0.513180000000,   0.12700,
Vertical Offset,-1.166000e-01,,   0.513190000000,   0.12700,
Horizontal Units,s,,   0.513200000000,   0.12720,
Horizontal Scale,2.500000e-03,,   0.513210000000,   0.12720,
Pt Fmt,Y,,   0.513220000000,   0.12720,
Yzero,0.000000e+00,,   0.513230000000,   0.12720,
Probe Atten,1.000000e+00,,   0.513240000000,   0.12720,
Model Number,TDS2024B,,   0.513250000000,   0.12720,
Serial Number,C104833,,   0.513260000000,   0.12720,
Firmware Version,FV:v24.02,,   0.513270000000,   0.12700,
,,,0.513280000000,   0.12740,
,,,0.513290000000,   0.12720,
,,,0.513300000000,   0.12720,
,,,0.513310000000,   0.12720,
,,,0.513320000000,   0.12740,
,,,0.513330000000,   0.12740,
,,,0.513340000000,   0.12720,
,,,0.513350000000,   0.12720,
,,,0.513360000000,   0.12740,
,,,0.513370000000,   0.12740,
,,,0.513380000000,   0.12720,
,,,0.513390000000,   0.12720,
,,,0.513400000000,   0.12740,
,,,0.513410000000,   0.12740,
,,,0.513420000000,   0.12740,
,,,0.513430000000,   0.12740,
,,,0.513440000000,   0.12740,
,,,0.513450000000,   0.12740,
,,,0.513460000000,   0.12740,
,,,0.513470000000,   0.12760,
,,,0.513480000000,   0.12740,
,,,0.513490000000,   0.12760,
,,,0.513500000000,   0.12760,
,,,0.513510000000,   0.12760,
,,,0.513520000000,   0.12760,
,,,0.513530000000,   0.12740,
,,,0.513540000000,   0.12760,
,,,0.513550000000,   0.12760,
,,,0.513560000000,   0.12760,
,,,0.513570000000,   0.12740,
,,,0.513580000000,   0.12760,
,,,0.513590000000,   0.12740,
,,,0.513600000000,   0.12780,
,,,0.513610000000,   0.12740,
,,,0.513620000000,   0.12760,
,,,0.513630000000,   0.12780,
,,,0.513640000000,   0.12780,
,,,0.513650000000,   0.12780,
,,,0.513660000000,   0.12780,
,,,0.513670000000,   0.12760,
,,,0.513680000000,   0.12760,
,,,0.513690000000,   0.12760,
,,,0.513700000000,   0.12760,
,,,0.513710000000,   0.12760,
,,,0.513720000000,   0.12780,
,,,0.513730000000,   0.12780,
,,,0.513740000000,   0.12760,
,,,0.513750000000,   0.12760,
,,,0.513760000000,   0.12780,
,,,0.513770000000,   0.12760,
,,,0.513780000000,   0.12780,
,,,0.513790000000,   0.12800,
,,,0.513800000000,   0.12780,
,,,0.513810000000,   0.12760,
,,,0.513820000000,   0.12760,
,,,0.513830000000,   0.12760,
,,,0.513840000000,   0.12760,
,,,0.513850000000,   0.12780,
,,,0.513860000000,   0.12760,
,,,0.513870000000,   0.12760,
,,,0.513880000000,   0.12780,
,,,0.513890000000,   0.12780,
,,,0.513900000000,   0.12760,
,,,0.513910000000,   0.12760,
,,,0.513920000000,   0.12780,
,,,0.513930000000,   0.12760,
,,,0.513940000000,   0.12760,
,,,0.513950000000,   0.12780,
,,,0.513960000000,   0.12760,
,,,0.513970000000,   0.12760,
,,,0.513980000000,   0.12760,
,,,0.513990000000,   0.12760,
,,,0.514000000000,   0.12740,
,,,0.514010000000,   0.12760,
,,,0.514020000000,   0.12760,
,,,0.514030000000,   0.12760,
,,,0.514040000000,   0.12740,
,,,0.514050000000,   0.12740,
,,,0.514060000000,   0.12740,
,,,0.514070000000,   0.12740,
,,,0.514080000000,   0.12740,
,,,0.514090000000,   0.12740,
,,,0.514100000000,   0.12760,
,,,0.514110000000,   0.12740,
,,,0.514120000000,   0.12760,
,,,0.514130000000,   0.12740,
,,,0.514140000000,   0.12760,
,,,0.514150000000,   0.12740,
,,,0.514160000000,   0.12740,
,,,0.514170000000,   0.12740,
,,,0.514180000000,   0.12740,
,,,0.514190000000,   0.12740,
,,,0.514200000000,   0.12720,
,,,0.514210000000,   0.12720,
,,,0.514220000000,   0.12740,
,,,0.514230000000,   0.12720,
,,,0.514240000000,   0.12740,
,,,0.514250000000,   0.12740,
,,,0.514260000000,   0.12740,
,,,0.514270000000,   0.12720,
,,,0.514280000000,   0.12720,
,,,0.514290000000,   0.12720,
,,,0.514300000000,   0.12740,
,,,0.514310000000,   0.12720,
,,,0.514320000000,   0.12720,
,,,0.514330000000,   0.12700,
,,,0.514340000000,   0.12720,
,,,0.514350000000,   0.12720,
,,,0.514360000000,   0.12700,
,,,0.514370000000,   0.12720,
,,,0.514380000000,   0.12740,
,,,0.514390000000,   0.12720,
,,,0.514400000000,   0.12700,
,,,0.514410000000,   0.12700,
,,,0.514420000000,   0.12720,
,,,0.514430000000,   0.12740,
,,,0.514440000000,   0.12700,
,,,0.514450000000,   0.12700,
,,,0.514460000000,   0.12700,
,,,0.514470000000,   0.12700,
,,,0.514480000000,   0.12700,
,,,0.514490000000,   0.12700,
,,,0.514500000000,   0.12720,
,,,0.514510000000,   0.12720,
,,,0.514520000000,   0.12720,
,,,0.514530000000,   0.12700,
,,,0.514540000000,   0.12700,
,,,0.514550000000,   0.12700,
,,,0.514560000000,   0.12720,
,,,0.514570000000,   0.12700,
,,,0.514580000000,   0.12700,
,,,0.514590000000,   0.12700,
,,,0.514600000000,   0.12700,
,,,0.514610000000,   0.12700,
,,,0.514620000000,   0.12700,
,,,0.514630000000,   0.12680,
,,,0.514640000000,   0.12700,
,,,0.514650000000,   0.12700,
,,,0.514660000000,   0.12680,
,,,0.514670000000,   0.12680,
,,,0.514680000000,   0.12680,
,,,0.514690000000,   0.12660,
,,,0.514700000000,   0.12680,
,,,0.514710000000,   0.12680,
,,,0.514720000000,   0.12680,
,,,0.514730000000,   0.12680,
,,,0.514740000000,   0.12660,
,,,0.514750000000,   0.12680,
,,,0.514760000000,   0.12680,
,,,0.514770000000,   0.12680,
,,,0.514780000000,   0.12680,
,,,0.514790000000,   0.12680,
,,,0.514800000000,   0.12660,
,,,0.514810000000,   0.12680,
,,,0.514820000000,   0.12680,
,,,0.514830000000,   0.12660,
,,,0.514840000000,   0.12660,
,,,0.514850000000,   0.12660,
,,,0.514860000000,   0.12680,
,,,0.514870000000,   0.12640,
,,,0.514880000000,   0.12640,
,,,0.514890000000,   0.12640,
,,,0.514900000000,   0.12640,
,,,0.514910000000,   0.12680,
,,,0.514920000000,   0.12660,
,,,0.514930000000,   0.12640,
,,,0.514940000000,   0.12640,
,,,0.514950000000,   0.12660,
,,,0.514960000000,   0.12660,
,,,0.514970000000,   0.12640,
,,,0.514980000000,   0.12660,
,,,0.514990000000,   0.12640,
,,,0.515000000000,   0.12640,
,,,0.515010000000,   0.12640,
,,,0.515020000000,   0.12640,
,,,0.515030000000,   0.12660,
,,,0.515040000000,   0.12640,
,,,0.515050000000,   0.12640,
,,,0.515060000000,   0.12640,
,,,0.515070000000,   0.12640,
,,,0.515080000000,   0.12640,
,,,0.515090000000,   0.12620,
,,,0.515100000000,   0.12620,
,,,0.515110000000,   0.12640,
,,,0.515120000000,   0.12620,
,,,0.515130000000,   0.12640,
,,,0.515140000000,   0.12640,
,,,0.515150000000,   0.12640,
,,,0.515160000000,   0.12620,
,,,0.515170000000,   0.12620,
,,,0.515180000000,   0.12620,
,,,0.515190000000,   0.12620,
,,,0.515200000000,   0.12620,
,,,0.515210000000,   0.12620,
,,,0.515220000000,   0.12600,
,,,0.515230000000,   0.12600,
,,,0.515240000000,   0.12620,
,,,0.515250000000,   0.12620,
,,,0.515260000000,   0.12600,
,,,0.515270000000,   0.12620,
,,,0.515280000000,   0.12620,
,,,0.515290000000,   0.12600,
,,,0.515300000000,   0.12600,
,,,0.515310000000,   0.12620,
,,,0.515320000000,   0.12600,
,,,0.515330000000,   0.12600,
,,,0.515340000000,   0.12600,
,,,0.515350000000,   0.12600,
,,,0.515360000000,   0.12580,
,,,0.515370000000,   0.12600,
,,,0.515380000000,   0.12600,
,,,0.515390000000,   0.12600,
,,,0.515400000000,   0.12580,
,,,0.515410000000,   0.12600,
,,,0.515420000000,   0.12600,
,,,0.515430000000,   0.12600,
,,,0.515440000000,   0.12580,
,,,0.515450000000,   0.12580,
,,,0.515460000000,   0.12580,
,,,0.515470000000,   0.12580,
,,,0.515480000000,   0.12580,
,,,0.515490000000,   0.12580,
,,,0.515500000000,   0.12600,
,,,0.515510000000,   0.12580,
,,,0.515520000000,   0.12580,
,,,0.515530000000,   0.12560,
,,,0.515540000000,   0.12580,
,,,0.515550000000,   0.12560,
,,,0.515560000000,   0.12580,
,,,0.515570000000,   0.12580,
,,,0.515580000000,   0.12580,
,,,0.515590000000,   0.12580,
,,,0.515600000000,   0.12580,
,,,0.515610000000,   0.12560,
,,,0.515620000000,   0.12560,
,,,0.515630000000,   0.12560,
,,,0.515640000000,   0.12580,
,,,0.515650000000,   0.12560,
,,,0.515660000000,   0.12560,
,,,0.515670000000,   0.12560,
,,,0.515680000000,   0.12560,
,,,0.515690000000,   0.12580,
,,,0.515700000000,   0.12540,
,,,0.515710000000,   0.12540,
,,,0.515720000000,   0.12560,
,,,0.515730000000,   0.12560,
,,,0.515740000000,   0.12560,
,,,0.515750000000,   0.12540,
,,,0.515760000000,   0.12540,
,,,0.515770000000,   0.12560,
,,,0.515780000000,   0.12560,
,,,0.515790000000,   0.12560,
,,,0.515800000000,   0.12540,
,,,0.515810000000,   0.12540,
,,,0.515820000000,   0.12520,
,,,0.515830000000,   0.12540,
,,,0.515840000000,   0.12540,
,,,0.515850000000,   0.12540,
,,,0.515860000000,   0.12540,
,,,0.515870000000,   0.12540,
,,,0.515880000000,   0.12520,
,,,0.515890000000,   0.12500,
,,,0.515900000000,   0.12520,
,,,0.515910000000,   0.12520,
,,,0.515920000000,   0.12520,
,,,0.515930000000,   0.12520,
,,,0.515940000000,   0.12520,
,,,0.515950000000,   0.12500,
,,,0.515960000000,   0.12500,
,,,0.515970000000,   0.12520,
,,,0.515980000000,   0.12520,
,,,0.515990000000,   0.12520,
,,,0.516000000000,   0.12520,
,,,0.516010000000,   0.12520,
,,,0.516020000000,   0.12520,
,,,0.516030000000,   0.12500,
,,,0.516040000000,   0.12500,
,,,0.516050000000,   0.12500,
,,,0.516060000000,   0.12520,
,,,0.516070000000,   0.12500,
,,,0.516080000000,   0.12500,
,,,0.516090000000,   0.12500,
,,,0.516100000000,   0.12500,
,,,0.516110000000,   0.12500,
,,,0.516120000000,   0.12500,
,,,0.516130000000,   0.12500,
,,,0.516140000000,   0.12500,
,,,0.516150000000,   0.12500,
,,,0.516160000000,   0.12500,
,,,0.516170000000,   0.12480,
,,,0.516180000000,   0.12480,
,,,0.516190000000,   0.12480,
,,,0.516200000000,   0.12460,
,,,0.516210000000,   0.12460,
,,,0.516220000000,   0.12460,
,,,0.516230000000,   0.12480,
,,,0.516240000000,   0.12480,
,,,0.516250000000,   0.12500,
,,,0.516260000000,   0.12480,
,,,0.516270000000,   0.12460,
,,,0.516280000000,   0.12480,
,,,0.516290000000,   0.12460,
,,,0.516300000000,   0.12460,
,,,0.516310000000,   0.12480,
,,,0.516320000000,   0.12460,
,,,0.516330000000,   0.12480,
,,,0.516340000000,   0.12460,
,,,0.516350000000,   0.12460,
,,,0.516360000000,   0.12460,
,,,0.516370000000,   0.12460,
,,,0.516380000000,   0.12440,
,,,0.516390000000,   0.12460,
,,,0.516400000000,   0.12460,
,,,0.516410000000,   0.12460,
,,,0.516420000000,   0.12460,
,,,0.516430000000,   0.12440,
,,,0.516440000000,   0.12440,
,,,0.516450000000,   0.12440,
,,,0.516460000000,   0.12460,
,,,0.516470000000,   0.12460,
,,,0.516480000000,   0.12440,
,,,0.516490000000,   0.12440,
,,,0.516500000000,   0.12440,
,,,0.516510000000,   0.12440,
,,,0.516520000000,   0.12420,
,,,0.516530000000,   0.12440,
,,,0.516540000000,   0.12440,
,,,0.516550000000,   0.12440,
,,,0.516560000000,   0.12420,
,,,0.516570000000,   0.12440,
,,,0.516580000000,   0.12420,
,,,0.516590000000,   0.12440,
,,,0.516600000000,   0.12420,
,,,0.516610000000,   0.12440,
,,,0.516620000000,   0.12420,
,,,0.516630000000,   0.12420,
,,,0.516640000000,   0.12400,
,,,0.516650000000,   0.12420,
,,,0.516660000000,   0.12400,
,,,0.516670000000,   0.12440,
,,,0.516680000000,   0.12400,
,,,0.516690000000,   0.12400,
,,,0.516700000000,   0.12400,
,,,0.516710000000,   0.12380,
,,,0.516720000000,   0.12400,
,,,0.516730000000,   0.12420,
,,,0.516740000000,   0.12400,
,,,0.516750000000,   0.12400,
,,,0.516760000000,   0.12380,
,,,0.516770000000,   0.12400,
,,,0.516780000000,   0.12400,
,,,0.516790000000,   0.12380,
,,,0.516800000000,   0.12400,
,,,0.516810000000,   0.12380,
,,,0.516820000000,   0.12380,
,,,0.516830000000,   0.12380,
,,,0.516840000000,   0.12360,
,,,0.516850000000,   0.12380,
,,,0.516860000000,   0.12380,
,,,0.516870000000,   0.12380,
,,,0.516880000000,   0.12340,
,,,0.516890000000,   0.12360,
,,,0.516900000000,   0.12360,
,,,0.516910000000,   0.12360,
,,,0.516920000000,   0.12380,
,,,0.516930000000,   0.12360,
,,,0.516940000000,   0.12340,
,,,0.516950000000,   0.12380,
,,,0.516960000000,   0.12360,
,,,0.516970000000,   0.12340,
,,,0.516980000000,   0.12360,
,,,0.516990000000,   0.12340,
,,,0.517000000000,   0.12340,
,,,0.517010000000,   0.12340,
,,,0.517020000000,   0.12360,
,,,0.517030000000,   0.12360,
,,,0.517040000000,   0.12340,
,,,0.517050000000,   0.12340,
,,,0.517060000000,   0.12340,
,,,0.517070000000,   0.12340,
,,,0.517080000000,   0.12340,
,,,0.517090000000,   0.12320,
,,,0.517100000000,   0.12320,
,,,0.517110000000,   0.12340,
,,,0.517120000000,   0.12340,
,,,0.517130000000,   0.12360,
,,,0.517140000000,   0.12340,
,,,0.517150000000,   0.12320,
,,,0.517160000000,   0.12320,
,,,0.517170000000,   0.12340,
,,,0.517180000000,   0.12320,
,,,0.517190000000,   0.12300,
,,,0.517200000000,   0.12340,
,,,0.517210000000,   0.12320,
,,,0.517220000000,   0.12320,
,,,0.517230000000,   0.12320,
,,,0.517240000000,   0.12300,
,,,0.517250000000,   0.12320,
,,,0.517260000000,   0.12320,
,,,0.517270000000,   0.12300,
,,,0.517280000000,   0.12300,
,,,0.517290000000,   0.12300,
,,,0.517300000000,   0.12280,
,,,0.517310000000,   0.12280,
,,,0.517320000000,   0.12280,
,,,0.517330000000,   0.12280,
,,,0.517340000000,   0.12320,
,,,0.517350000000,   0.12280,
,,,0.517360000000,   0.12300,
,,,0.517370000000,   0.12280,
,,,0.517380000000,   0.12300,
,,,0.517390000000,   0.12280,
,,,0.517400000000,   0.12280,
,,,0.517410000000,   0.12260,
,,,0.517420000000,   0.12280,
,,,0.517430000000,   0.12280,
,,,0.517440000000,   0.12280,
,,,0.517450000000,   0.12280,
,,,0.517460000000,   0.12300,
,,,0.517470000000,   0.12280,
,,,0.517480000000,   0.12260,
,,,0.517490000000,   0.12260,
,,,0.517500000000,   0.12280,
,,,0.517510000000,   0.12260,
,,,0.517520000000,   0.12260,
,,,0.517530000000,   0.12240,
,,,0.517540000000,   0.12260,
,,,0.517550000000,   0.12260,
,,,0.517560000000,   0.12260,
,,,0.517570000000,   0.12240,
,,,0.517580000000,   0.12240,
,,,0.517590000000,   0.12260,
,,,0.517600000000,   0.12240,
,,,0.517610000000,   0.12260,
,,,0.517620000000,   0.12260,
,,,0.517630000000,   0.12240,
,,,0.517640000000,   0.12240,
,,,0.517650000000,   0.12240,
,,,0.517660000000,   0.12240,
,,,0.517670000000,   0.12240,
,,,0.517680000000,   0.12240,
,,,0.517690000000,   0.12240,
,,,0.517700000000,   0.12240,
,,,0.517710000000,   0.12220,
,,,0.517720000000,   0.12240,
,,,0.517730000000,   0.12220,
,,,0.517740000000,   0.12220,
,,,0.517750000000,   0.12220,
,,,0.517760000000,   0.12220,
,,,0.517770000000,   0.12240,
,,,0.517780000000,   0.12200,
,,,0.517790000000,   0.12200,
,,,0.517800000000,   0.12220,
,,,0.517810000000,   0.12220,
,,,0.517820000000,   0.12200,
,,,0.517830000000,   0.12220,
,,,0.517840000000,   0.12200,
,,,0.517850000000,   0.12200,
,,,0.517860000000,   0.12200,
,,,0.517870000000,   0.12200,
,,,0.517880000000,   0.12180,
,,,0.517890000000,   0.12200,
,,,0.517900000000,   0.12200,
,,,0.517910000000,   0.12180,
,,,0.517920000000,   0.12180,
,,,0.517930000000,   0.12180,
,,,0.517940000000,   0.12180,
,,,0.517950000000,   0.12180,
,,,0.517960000000,   0.12180,
,,,0.517970000000,   0.12180,
,,,0.517980000000,   0.12180,
,,,0.517990000000,   0.12180,
,,,0.518000000000,   0.12160,
,,,0.518010000000,   0.12160,
,,,0.518020000000,   0.12160,
,,,0.518030000000,   0.12160,
,,,0.518040000000,   0.12160,
,,,0.518050000000,   0.12140,
,,,0.518060000000,   0.12160,
,,,0.518070000000,   0.12140,
,,,0.518080000000,   0.12140,
,,,0.518090000000,   0.12160,
,,,0.518100000000,   0.12160,
,,,0.518110000000,   0.12160,
,,,0.518120000000,   0.12160,
,,,0.518130000000,   0.12140,
,,,0.518140000000,   0.12160,
,,,0.518150000000,   0.12120,
,,,0.518160000000,   0.12160,
,,,0.518170000000,   0.12140,
,,,0.518180000000,   0.12140,
,,,0.518190000000,   0.12160,
,,,0.518200000000,   0.12140,
,,,0.518210000000,   0.12120,
,,,0.518220000000,   0.12140,
,,,0.518230000000,   0.12140,
,,,0.518240000000,   0.12100,
,,,0.518250000000,   0.12120,
,,,0.518260000000,   0.12120,
,,,0.518270000000,   0.12140,
,,,0.518280000000,   0.12120,
,,,0.518290000000,   0.12120,
,,,0.518300000000,   0.12120,
,,,0.518310000000,   0.12100,
,,,0.518320000000,   0.12140,
,,,0.518330000000,   0.12100,
,,,0.518340000000,   0.12100,
,,,0.518350000000,   0.12080,
,,,0.518360000000,   0.12100,
,,,0.518370000000,   0.12100,
,,,0.518380000000,   0.12100,
,,,0.518390000000,   0.12080,
,,,0.518400000000,   0.12100,
,,,0.518410000000,   0.12100,
,,,0.518420000000,   0.12080,
,,,0.518430000000,   0.12100,
,,,0.518440000000,   0.12080,
,,,0.518450000000,   0.12060,
,,,0.518460000000,   0.12080,
,,,0.518470000000,   0.12060,
,,,0.518480000000,   0.12080,
,,,0.518490000000,   0.12080,
,,,0.518500000000,   0.12060,
,,,0.518510000000,   0.12060,
,,,0.518520000000,   0.12080,
,,,0.518530000000,   0.12040,
,,,0.518540000000,   0.12060,
,,,0.518550000000,   0.12080,
,,,0.518560000000,   0.12040,
,,,0.518570000000,   0.12040,
,,,0.518580000000,   0.12040,
,,,0.518590000000,   0.12040,
,,,0.518600000000,   0.12040,
,,,0.518610000000,   0.12060,
,,,0.518620000000,   0.12040,
,,,0.518630000000,   0.12060,
,,,0.518640000000,   0.12040,
,,,0.518650000000,   0.12040,
,,,0.518660000000,   0.12040,
,,,0.518670000000,   0.12040,
,,,0.518680000000,   0.12020,
,,,0.518690000000,   0.12040,
,,,0.518700000000,   0.12020,
,,,0.518710000000,   0.12020,
,,,0.518720000000,   0.12020,
,,,0.518730000000,   0.12020,
,,,0.518740000000,   0.12020,
,,,0.518750000000,   0.12020,
,,,0.518760000000,   0.12000,
,,,0.518770000000,   0.12000,
,,,0.518780000000,   0.12020,
,,,0.518790000000,   0.12020,
,,,0.518800000000,   0.12020,
,,,0.518810000000,   0.12020,
,,,0.518820000000,   0.12000,
,,,0.518830000000,   0.12020,
,,,0.518840000000,   0.12000,
,,,0.518850000000,   0.12000,
,,,0.518860000000,   0.12000,
,,,0.518870000000,   0.12000,
,,,0.518880000000,   0.12000,
,,,0.518890000000,   0.11980,
,,,0.518900000000,   0.11980,
,,,0.518910000000,   0.11980,
,,,0.518920000000,   0.11960,
,,,0.518930000000,   0.11980,
,,,0.518940000000,   0.11960,
,,,0.518950000000,   0.11960,
,,,0.518960000000,   0.11980,
,,,0.518970000000,   0.11980,
,,,0.518980000000,   0.11960,
,,,0.518990000000,   0.11940,
,,,0.519000000000,   0.11960,
,,,0.519010000000,   0.11960,
,,,0.519020000000,   0.11960,
,,,0.519030000000,   0.11960,
,,,0.519040000000,   0.11960,
,,,0.519050000000,   0.11960,
,,,0.519060000000,   0.11940,
,,,0.519070000000,   0.11940,
,,,0.519080000000,   0.11960,
,,,0.519090000000,   0.11940,
,,,0.519100000000,   0.11960,
,,,0.519110000000,   0.11940,
,,,0.519120000000,   0.11940,
,,,0.519130000000,   0.11920,
,,,0.519140000000,   0.11940,
,,,0.519150000000,   0.11940,
,,,0.519160000000,   0.11920,
,,,0.519170000000,   0.11920,
,,,0.519180000000,   0.11920,
,,,0.519190000000,   0.11940,
,,,0.519200000000,   0.11920,
,,,0.519210000000,   0.11920,
,,,0.519220000000,   0.11920,
,,,0.519230000000,   0.11920,
,,,0.519240000000,   0.11900,
,,,0.519250000000,   0.11900,
,,,0.519260000000,   0.11900,
,,,0.519270000000,   0.11900,
,,,0.519280000000,   0.11900,
,,,0.519290000000,   0.11920,
,,,0.519300000000,   0.11900,
,,,0.519310000000,   0.11880,
,,,0.519320000000,   0.11920,
,,,0.519330000000,   0.11920,
,,,0.519340000000,   0.11880,
,,,0.519350000000,   0.11900,
,,,0.519360000000,   0.11880,
,,,0.519370000000,   0.11900,
,,,0.519380000000,   0.11880,
,,,0.519390000000,   0.11880,
,,,0.519400000000,   0.11860,
,,,0.519410000000,   0.11860,
,,,0.519420000000,   0.11880,
,,,0.519430000000,   0.11880,
,,,0.519440000000,   0.11880,
,,,0.519450000000,   0.11880,
,,,0.519460000000,   0.11860,
,,,0.519470000000,   0.11860,
,,,0.519480000000,   0.11840,
,,,0.519490000000,   0.11860,
,,,0.519500000000,   0.11860,
,,,0.519510000000,   0.11860,
,,,0.519520000000,   0.11860,
,,,0.519530000000,   0.11860,
,,,0.519540000000,   0.11840,
,,,0.519550000000,   0.11820,
,,,0.519560000000,   0.11840,
,,,0.519570000000,   0.11840,
,,,0.519580000000,   0.11840,
,,,0.519590000000,   0.11840,
,,,0.519600000000,   0.11840,
,,,0.519610000000,   0.11840,
,,,0.519620000000,   0.11840,
,,,0.519630000000,   0.11840,
